beg_ckt proj :
beg_layout :
  Units: m;
  EgsUnits: mm;
  Resolution: 2.5e-008 units;
  EgsResolution: 0.0001 egsunits;
end_layout;
beg_momMdl :
Mesh: 
  Freq: 2.6; 
  Cd: 0.005; 
  CpWl: 20; 
  Extraction: 1; 
  Expansion: 0; 
;
NdefIA 136: 
  p 1: -0.005 -0.02825 0.001524,
  p 2: 0 -0.02825 0.001524,
  p 3: -0.005 -0.02925 0.001524,
  p 4: 0 -0.02925 0.001524,
  p 5: -0.005 0.03325 0.001524,
  p 6: 0 0.03325 0.001524,
  p 7: -0.005 0.03225 0.001524,
  p 8: 0 0.03225 0.001524,
  p 9: 0.005 -0.02825 0.001524,
  p 10: 0.01 -0.02825 0.001524,
  p 11: 0.005 -0.02925 0.001524,
  p 12: 0.01 -0.02925 0.001524,
  p 13: 0.005 0.03325 0.001524,
  p 14: 0.01 0.03325 0.001524,
  p 15: 0.005 0.03225 0.001524,
  p 16: 0.01 0.03225 0.001524,
  p 17: -0.00915 -0.025 0.001524,
  p 18: -0.00815 -0.025 0.001524,
  p 19: -0.00915 -0.02925 0.001524,
  p 20: -0.00815 -0.02825 0.001524,
  p 21: -0.00915 -0.02 0.001524,
  p 22: -0.00815 -0.02 0.001524,
  p 23: -0.00915 -0.015 0.001524,
  p 24: -0.00815 -0.015 0.001524,
  p 25: -0.00915 -0.01 0.001524,
  p 26: -0.00815 -0.01 0.001524,
  p 27: -0.00915 -0.005 0.001524,
  p 28: -0.00815 -0.005 0.001524,
  p 29: -0.00915 0 0.001524,
  p 30: -0.00815 0 0.001524,
  p 31: -0.00915 0.005 0.001524,
  p 32: -0.00815 0.005 0.001524,
  p 33: -0.00915 0.01 0.001524,
  p 34: -0.00815 0.01 0.001524,
  p 35: -0.00915 0.015 0.001524,
  p 36: -0.00815 0.015 0.001524,
  p 37: -0.00915 0.02 0.001524,
  p 38: -0.00815 0.02 0.001524,
  p 39: -0.00915 0.025 0.001524,
  p 40: -0.00815 0.025 0.001524,
  p 41: -0.00915 0.03 0.001524,
  p 42: -0.00815 0.03 0.001524,
  p 43: -0.00915 0.03325 0.001524,
  p 44: -0.00815 0.03225 0.001524,
  p 45: 0.015 -0.02825 0.001524,
  p 46: 0.015 -0.02925 0.001524,
  p 47: 0.015 0.03325 0.001524,
  p 48: 0.015 0.03225 0.001524,
  p 49: 0.02035 -0.025 0.001524,
  p 50: 0.02135 -0.025 0.001524,
  p 51: 0.02035 -0.02825 0.001524,
  p 52: 0.02135 -0.02925 0.001524,
  p 53: 0.02035 -0.02 0.001524,
  p 54: 0.02135 -0.02 0.001524,
  p 55: 0.02035 -0.015 0.001524,
  p 56: 0.02135 -0.015 0.001524,
  p 57: 0.02035 -0.01 0.001524,
  p 58: 0.02135 -0.01 0.001524,
  p 59: 0.02035 -0.005 0.001524,
  p 60: 0.02135 -0.005 0.001524,
  p 61: 0.02035 0 0.001524,
  p 62: 0.02135 0 0.001524,
  p 63: 0.02035 0.005 0.001524,
  p 64: 0.02135 0.005 0.001524,
  p 65: 0.02035 0.01 0.001524,
  p 66: 0.02135 0.01 0.001524,
  p 67: 0.02035 0.015 0.001524,
  p 68: 0.02135 0.015 0.001524,
  p 69: 0.02035 0.02 0.001524,
  p 70: 0.02135 0.02 0.001524,
  p 71: 0.02035 0.025 0.001524,
  p 72: 0.02135 0.025 0.001524,
  p 73: 0.02035 0.03 0.001524,
  p 74: 0.02135 0.03 0.001524,
  p 75: 0.02035 0.03225 0.001524,
  p 76: 0.02135 0.03325 0.001524,
  p 77: -0.005 -0.025 0.001524,
  p 78: -0.005 -0.02 0.001524,
  p 79: -0.005 -0.015 0.001524,
  p 80: -0.005 -0.01 0.001524,
  p 81: -0.005 -0.005 0.001524,
  p 82: -0.005 0 0.001524,
  p 83: -0.005 0.005 0.001524,
  p 84: -0.005 0.01 0.001524,
  p 85: -0.005 0.015 0.001524,
  p 86: -0.005 0.02 0.001524,
  p 87: -0.005 0.025 0.001524,
  p 88: -0.005 0.03 0.001524,
  p 89: 0 -0.025 0.001524,
  p 90: 0.005 -0.025 0.001524,
  p 91: 0 -0.02 0.001524,
  p 92: 0.005 -0.02 0.001524,
  p 93: 0 -0.015 0.001524,
  p 94: 0.005 -0.015 0.001524,
  p 95: 0 -0.01 0.001524,
  p 96: 0.005 -0.01 0.001524,
  p 97: 0 -0.005 0.001524,
  p 98: 0.005 -0.005 0.001524,
  p 99: 0 0 0.001524,
  p 100: 0.005 0 0.001524,
  p 101: 0 0.005 0.001524,
  p 102: 0.005 0.005 0.001524,
  p 103: 0 0.01 0.001524,
  p 104: 0.005 0.01 0.001524,
  p 105: 0 0.015 0.001524,
  p 106: 0.005 0.015 0.001524,
  p 107: 0 0.02 0.001524,
  p 108: 0.005 0.02 0.001524,
  p 109: 0 0.025 0.001524,
  p 110: 0.005 0.025 0.001524,
  p 111: 0 0.03 0.001524,
  p 112: 0.005 0.03 0.001524,
  p 113: 0.01 -0.025 0.001524,
  p 114: 0.015 -0.025 0.001524,
  p 115: 0.01 -0.02 0.001524,
  p 116: 0.015 -0.02 0.001524,
  p 117: 0.01 -0.015 0.001524,
  p 118: 0.015 -0.015 0.001524,
  p 119: 0.01 -0.01 0.001524,
  p 120: 0.015 -0.01 0.001524,
  p 121: 0.01 -0.005 0.001524,
  p 122: 0.015 -0.005 0.001524,
  p 123: 0.01 0 0.001524,
  p 124: 0.015 0 0.001524,
  p 125: 0.01 0.005 0.001524,
  p 126: 0.015 0.005 0.001524,
  p 127: 0.01 0.01 0.001524,
  p 128: 0.015 0.01 0.001524,
  p 129: 0.01 0.015 0.001524,
  p 130: 0.015 0.015 0.001524,
  p 131: 0.01 0.02 0.001524,
  p 132: 0.015 0.02 0.001524,
  p 133: 0.01 0.025 0.001524,
  p 134: 0.015 0.025 0.001524,
  p 135: 0.01 0.03 0.001524,
  p 136: 0.015 0.03 0.001524;
EdefIA 259: 
  s 1: 1 2,
  s 2: 3 1,
  s 3: 3 4,
  s 4: 4 2,
  s 5: 5 6,
  s 6: 7 5,
  s 7: 7 8,
  s 8: 8 6,
  s 9: 9 10,
  s 10: 11 9,
  s 11: 11 12,
  s 12: 12 10,
  s 13: 13 14,
  s 14: 15 13,
  s 15: 15 16,
  s 16: 16 14,
  s 17: 2 9,
  s 18: 4 11,
  s 19: 6 13,
  s 20: 8 15,
  s 21: 17 18,
  s 22: 19 17,
  s 23: 19 20,
  s 24: 20 18,
  s 25: 21 22,
  s 26: 17 21,
  s 27: 18 22,
  s 28: 23 24,
  s 29: 21 23,
  s 30: 22 24,
  s 31: 25 26,
  s 32: 23 25,
  s 33: 24 26,
  s 34: 27 28,
  s 35: 25 27,
  s 36: 26 28,
  s 37: 29 30,
  s 38: 27 29,
  s 39: 28 30,
  s 40: 31 32,
  s 41: 29 31,
  s 42: 30 32,
  s 43: 33 34,
  s 44: 31 33,
  s 45: 32 34,
  s 46: 35 36,
  s 47: 33 35,
  s 48: 34 36,
  s 49: 37 38,
  s 50: 35 37,
  s 51: 36 38,
  s 52: 39 40,
  s 53: 37 39,
  s 54: 38 40,
  s 55: 41 42,
  s 56: 39 41,
  s 57: 40 42,
  s 58: 41 43,
  s 59: 42 44,
  s 60: 43 44,
  s 61: 10 45,
  s 62: 12 46,
  s 63: 46 45,
  s 64: 14 47,
  s 65: 16 48,
  s 66: 48 47,
  s 67: 49 50,
  s 68: 51 49,
  s 69: 51 52,
  s 70: 52 50,
  s 71: 53 54,
  s 72: 49 53,
  s 73: 50 54,
  s 74: 55 56,
  s 75: 53 55,
  s 76: 54 56,
  s 77: 57 58,
  s 78: 55 57,
  s 79: 56 58,
  s 80: 59 60,
  s 81: 57 59,
  s 82: 58 60,
  s 83: 61 62,
  s 84: 59 61,
  s 85: 60 62,
  s 86: 63 64,
  s 87: 61 63,
  s 88: 62 64,
  s 89: 65 66,
  s 90: 63 65,
  s 91: 64 66,
  s 92: 67 68,
  s 93: 65 67,
  s 94: 66 68,
  s 95: 69 70,
  s 96: 67 69,
  s 97: 68 70,
  s 98: 71 72,
  s 99: 69 71,
  s 100: 70 72,
  s 101: 73 74,
  s 102: 71 73,
  s 103: 72 74,
  s 104: 75 76,
  s 105: 73 75,
  s 106: 74 76,
  s 107: 20 1,
  s 108: 19 3,
  s 109: 44 7,
  s 110: 43 5,
  s 111: 46 52,
  s 112: 45 51,
  s 113: 47 76,
  s 114: 48 75,
  s 115: 18 77,
  s 116: 1 77,
  s 117: 22 78,
  s 118: 77 78,
  s 119: 24 79,
  s 120: 78 79,
  s 121: 26 80,
  s 122: 79 80,
  s 123: 28 81,
  s 124: 80 81,
  s 125: 30 82,
  s 126: 81 82,
  s 127: 32 83,
  s 128: 82 83,
  s 129: 34 84,
  s 130: 83 84,
  s 131: 36 85,
  s 132: 84 85,
  s 133: 38 86,
  s 134: 85 86,
  s 135: 40 87,
  s 136: 86 87,
  s 137: 42 88,
  s 138: 87 88,
  s 139: 88 7,
  s 140: 89 90,
  s 141: 2 89,
  s 142: 9 90,
  s 143: 91 92,
  s 144: 89 91,
  s 145: 90 92,
  s 146: 93 94,
  s 147: 91 93,
  s 148: 92 94,
  s 149: 95 96,
  s 150: 93 95,
  s 151: 94 96,
  s 152: 97 98,
  s 153: 95 97,
  s 154: 96 98,
  s 155: 99 100,
  s 156: 97 99,
  s 157: 98 100,
  s 158: 101 102,
  s 159: 99 101,
  s 160: 100 102,
  s 161: 103 104,
  s 162: 101 103,
  s 163: 102 104,
  s 164: 105 106,
  s 165: 103 105,
  s 166: 104 106,
  s 167: 107 108,
  s 168: 105 107,
  s 169: 106 108,
  s 170: 109 110,
  s 171: 107 109,
  s 172: 108 110,
  s 173: 111 112,
  s 174: 109 111,
  s 175: 110 112,
  s 176: 111 8,
  s 177: 112 15,
  s 178: 113 114,
  s 179: 10 113,
  s 180: 45 114,
  s 181: 115 116,
  s 182: 113 115,
  s 183: 114 116,
  s 184: 117 118,
  s 185: 115 117,
  s 186: 116 118,
  s 187: 119 120,
  s 188: 117 119,
  s 189: 118 120,
  s 190: 121 122,
  s 191: 119 121,
  s 192: 120 122,
  s 193: 123 124,
  s 194: 121 123,
  s 195: 122 124,
  s 196: 125 126,
  s 197: 123 125,
  s 198: 124 126,
  s 199: 127 128,
  s 200: 125 127,
  s 201: 126 128,
  s 202: 129 130,
  s 203: 127 129,
  s 204: 128 130,
  s 205: 131 132,
  s 206: 129 131,
  s 207: 130 132,
  s 208: 133 134,
  s 209: 131 133,
  s 210: 132 134,
  s 211: 135 136,
  s 212: 133 135,
  s 213: 134 136,
  s 214: 135 16,
  s 215: 136 48,
  s 216: 77 89,
  s 217: 78 91,
  s 218: 79 93,
  s 219: 80 95,
  s 220: 81 97,
  s 221: 82 99,
  s 222: 83 101,
  s 223: 84 103,
  s 224: 85 105,
  s 225: 86 107,
  s 226: 87 109,
  s 227: 88 111,
  s 228: 114 49,
  s 229: 116 53,
  s 230: 118 55,
  s 231: 120 57,
  s 232: 122 59,
  s 233: 124 61,
  s 234: 126 63,
  s 235: 128 65,
  s 236: 130 67,
  s 237: 132 69,
  s 238: 134 71,
  s 239: 136 73,
  s 240: 90 113,
  s 241: 92 115,
  s 242: 94 117,
  s 243: 96 119,
  s 244: 98 121,
  s 245: 100 123,
  s 246: 102 125,
  s 247: 104 127,
  s 248: 106 129,
  s 249: 108 131,
  s 250: 110 133,
  s 251: 112 135,
  s 252: 18 19,
  s 253: 43 42,
  s 254: 50 51,
  s 255: 76 73,
  s 256: 1 19,
  s 257: 43 7,
  s 258: 45 52,
  s 259: 76 48;
CdefIA 124: 
  c 1: -2 3 4 -1,
  c 2: -6 7 8 -5,
  c 3: -10 11 12 -9,
  c 4: -14 15 16 -13,
  c 5: -4 18 10 -17,
  c 6: -8 20 14 -19,
  c 7: -21 -22 -252,
  c 8: -25 -26 21 27,
  c 9: -28 -29 25 30,
  c 10: -31 -32 28 33,
  c 11: -34 -35 31 36,
  c 12: -37 -38 34 39,
  c 13: -40 -41 37 42,
  c 14: -43 -44 40 45,
  c 15: -46 -47 43 48,
  c 16: -49 -50 46 51,
  c 17: -52 -53 49 54,
  c 18: -55 -56 52 57,
  c 19: -58 55 -253,
  c 20: -12 62 63 -61,
  c 21: -16 65 66 -64,
  c 22: -67 -68 -254,
  c 23: -71 -72 67 73,
  c 24: -74 -75 71 76,
  c 25: -77 -78 74 79,
  c 26: -80 -81 77 82,
  c 27: -83 -84 80 85,
  c 28: -86 -87 83 88,
  c 29: -89 -90 86 91,
  c 30: -92 -93 89 94,
  c 31: -95 -96 92 97,
  c 32: -98 -99 95 100,
  c 33: -101 -102 98 103,
  c 34: -104 -105 -255,
  c 35: -107 -23 -256,
  c 36: 60 109 -257,
  c 37: -63 111 -258,
  c 38: -113 -66 -259,
  c 39: -24 107 116 -115,
  c 40: -117 -27 115 118,
  c 41: -119 -30 117 120,
  c 42: -121 -33 119 122,
  c 43: -123 -36 121 124,
  c 44: -125 -39 123 126,
  c 45: -127 -42 125 128,
  c 46: -129 -45 127 130,
  c 47: -131 -48 129 132,
  c 48: -133 -51 131 134,
  c 49: -135 -54 133 136,
  c 50: -137 -57 135 138,
  c 51: -59 137 139 -109,
  c 52: -141 17 142 -140,
  c 53: -143 -144 140 145,
  c 54: -146 -147 143 148,
  c 55: -149 -150 146 151,
  c 56: -152 -153 149 154,
  c 57: -155 -156 152 157,
  c 58: -158 -159 155 160,
  c 59: -161 -162 158 163,
  c 60: -164 -165 161 166,
  c 61: -167 -168 164 169,
  c 62: -170 -171 167 172,
  c 63: -173 -174 170 175,
  c 64: -176 173 177 -20,
  c 65: -179 61 180 -178,
  c 66: -181 -182 178 183,
  c 67: -184 -185 181 186,
  c 68: -187 -188 184 189,
  c 69: -190 -191 187 192,
  c 70: -193 -194 190 195,
  c 71: -196 -197 193 198,
  c 72: -199 -200 196 201,
  c 73: -202 -203 199 204,
  c 74: -205 -206 202 207,
  c 75: -208 -209 205 210,
  c 76: -211 -212 208 213,
  c 77: -214 211 215 -65,
  c 78: -116 1 141 -216,
  c 79: -217 -118 216 144,
  c 80: -218 -120 217 147,
  c 81: -219 -122 218 150,
  c 82: -220 -124 219 153,
  c 83: -221 -126 220 156,
  c 84: -222 -128 221 159,
  c 85: -223 -130 222 162,
  c 86: -224 -132 223 165,
  c 87: -225 -134 224 168,
  c 88: -226 -136 225 171,
  c 89: -227 -138 226 174,
  c 90: -139 227 176 -7,
  c 91: -180 112 68 -228,
  c 92: -183 228 72 -229,
  c 93: -186 229 75 -230,
  c 94: -189 230 78 -231,
  c 95: -192 231 81 -232,
  c 96: -195 232 84 -233,
  c 97: -198 233 87 -234,
  c 98: -201 234 90 -235,
  c 99: -204 235 93 -236,
  c 100: -207 236 96 -237,
  c 101: -210 237 99 -238,
  c 102: -213 238 102 -239,
  c 103: -215 239 105 -114,
  c 104: -142 9 179 -240,
  c 105: -241 -145 240 182,
  c 106: -242 -148 241 185,
  c 107: -243 -151 242 188,
  c 108: -244 -154 243 191,
  c 109: -245 -157 244 194,
  c 110: -246 -160 245 197,
  c 111: -247 -163 246 200,
  c 112: -248 -166 247 203,
  c 113: -249 -169 248 206,
  c 114: -250 -172 249 209,
  c 115: -251 -175 250 212,
  c 116: -177 251 214 -15,
  c 117: 23 24 252,
  c 118: 59 -60 253,
  c 119: 69 70 254,
  c 120: 101 106 255,
  c 121: 108 2 256,
  c 122: 6 -110 257,
  c 123: -69 -112 258,
  c 124: 114 104 259;
beg_Xinfo :
beg_layer /1:
  Mask: 1;
  Type: metal;
  Level: 0;
  Plane: z = 0.001524;
  Fill: condthickness 58000000 3.5e-005 M precedence 0;
  CrefRA 124 { 
  1 35 121 39 7 117 8 40 79 78 52 5
  3 20 37 123 22 119 23 92 66 105 53 54
  80 41 9 10 42 81 55 107 106 67
  93 24 25 94 68 69 108 56 82 43
  11 12 44 83 57 109 70 96 95 26
  27 28 97 71 110 58 84 45 13 14
  46 85 59 111 72 98 29 30 99 73
  112 60 86 47 15 16 48 87 61 113
  74 100 31 32 101 75 114 62 88 49
  17 18 50 89 63 115 76 102 33 34 120
  38 124 21 4 6 2 36 122 19 118 51 90 64
  116 77 103 104 65 91 }
  RGrid 0.005,0.001 -1.5707963267949 1: 
  -0.00915,0.03 11,1 11:
    5,0 c 13, 6,0 c 12, 4,0 c 14, 3,0 c 15, 2,0 c 16, 
    1,0 c 17, 0,0 c 18, 7,0 c 11, 8,0 c 10, 9,0 c 9, 
    10,0 c 8;
  RGrid 0.005,0.005 -1.5707963267949 1: 
  -0.005,0.03 11,4 44:
    8,1 c 55, 8,0 c 81, 9,1 c 54, 9,2 c 106, 10,2 c 105, 
    9,3 c 67, 10,3 c 66, 7,1 c 56, 6,1 c 57, 5,1 c 58, 
    5,2 c 110, 5,3 c 71, 4,3 c 72, 6,3 c 70, 7,3 c 69, 
    4,2 c 111, 5,0 c 84, 4,0 c 85, 3,0 c 86, 4,1 c 59, 
    3,2 c 112, 2,2 c 113, 1,2 c 114, 2,3 c 74, 0,2 c 115, 
    2,1 c 61, 7,0 c 82, 1,3 c 75, 1,1 c 62, 1,0 c 88, 
    0,0 c 89, 7,2 c 108, 3,1 c 60, 9,0 c 80, 0,1 c 63, 
    0,3 c 76, 10,1 c 53, 6,0 c 83, 8,3 c 68, 2,0 c 87, 
    3,3 c 73, 8,2 c 107, 10,0 c 79, 6,2 c 109;
  RGrid 0.005,0.00225 0 1: 
  -0.005,0.03 4,1 4:
    1,0 c 64, 0,0 c 90, 2,0 c 116, 3,0 c 77;
  RGrid 0.005,0.00315 -1.5707963267949 1: 
  -0.00815,0.03 11,1 11:
    1,0 c 49, 0,0 c 50, 2,0 c 48, 3,0 c 47, 4,0 c 46, 
    5,0 c 45, 6,0 c 44, 7,0 c 43, 8,0 c 42, 9,0 c 41, 
    10,0 c 40;
  RGrid 0.00535,0.005 0 1: 
  0.015,-0.025 1,11 11:
    0,1 c 93, 0,2 c 94, 0,0 c 92, 0,3 c 95, 0,4 c 96, 
    0,5 c 97, 0,6 c 98, 0,7 c 99, 0,8 c 100, 0,9 c 101, 
    0,10 c 102;
  RGrid 0.005,0.000999999999999999 0 1: 
  -0.005,0.03225 4,1 4:
    0,0 c 2, 1,0 c 6, 2,0 c 4, 3,0 c 21;
  RGrid 0.005,0.001 -1.5707963267949 1: 
  0.02035,0.03 11,1 11:
    8,0 c 25, 7,0 c 26, 6,0 c 27, 5,0 c 28, 4,0 c 29, 
    3,0 c 30, 9,0 c 24, 10,0 c 23, 2,0 c 31, 1,0 c 32, 
    0,0 c 33;
  RGrid 0.005,0.001 0 1: 
  -0.005,-0.02925 4,1 4:
    2,0 c 3, 3,0 c 20, 1,0 c 5, 0,0 c 1;
  RGrid 0.005,0.00325 0 1: 
  -0.005,-0.02825 4,1 4:
    3,0 c 65, 2,0 c 104, 1,0 c 52, 0,0 c 78;
end_layer /1;
end_Xinfo;
Overlap: 
  ErefRA 84 { 
  1 3 5 7 9 11 13 15 17 18
  19 20 22 24 26 27 29 30 32 33
  35 36 38 39 41 42 44 45 47 48
  50 51 53 54 56 57 58 59 61 62
  64 65 68 70 72 73 75 76 78 79
  81 82 84 85 87 88 90 91 93 94
  96 97 99 100 102 103 105 106 107 108
  109 110 111 112 113 114 128 159 221 222
  127 125 155 158 };
BdefIA 222: 
  b 1: -1 e 1 c 78, e 3 c 1;
  b 2: -1 e 1 c 121, e 0 c 1;
  b 3: -1 e 2 c 1, e 0 c 5;
  b 4: -1 e 0 c 122, e 0 c 2;
  b 5: -1 e 1 c 2, e 3 c 90;
  b 6: -1 e 2 c 2, e 0 c 6;
  b 7: -1 e 1 c 104, e 3 c 3;
  b 8: -1 e 2 c 5, e 0 c 3;
  b 9: -1 e 2 c 3, e 0 c 20;
  b 10: -1 e 2 c 6, e 0 c 4;
  b 11: -1 e 1 c 4, e 3 c 116;
  b 12: -1 e 2 c 4, e 0 c 21;
  b 13: -1 e 1 c 52, e 3 c 5;
  b 14: -1 e 1 c 6, e 3 c 64;
  b 15: -1 e 2 c 8, e 0 c 7;
  b 16: -1 e 0 c 117, e 1 c 35;
  b 17: -1 e 1 c 117, e 0 c 39;
  b 18: -1 e 2 c 9, e 0 c 8;
  b 19: -1 e 3 c 8, e 1 c 40;
  b 20: -1 e 2 c 10, e 0 c 9;
  b 21: -1 e 3 c 9, e 1 c 41;
  b 22: -1 e 2 c 11, e 0 c 10;
  b 23: -1 e 3 c 10, e 1 c 42;
  b 24: -1 e 2 c 12, e 0 c 11;
  b 25: -1 e 3 c 11, e 1 c 43;
  b 26: -1 e 2 c 13, e 0 c 12;
  b 27: -1 e 3 c 12, e 1 c 44;
  b 28: -1 e 2 c 14, e 0 c 13;
  b 29: -1 e 3 c 13, e 1 c 45;
  b 30: -1 e 2 c 15, e 0 c 14;
  b 31: -1 e 3 c 14, e 1 c 46;
  b 32: -1 e 2 c 16, e 0 c 15;
  b 33: -1 e 3 c 15, e 1 c 47;
  b 34: -1 e 2 c 17, e 0 c 16;
  b 35: -1 e 3 c 16, e 1 c 48;
  b 36: -1 e 2 c 18, e 0 c 17;
  b 37: -1 e 3 c 17, e 1 c 49;
  b 38: -1 e 1 c 19, e 0 c 18;
  b 39: -1 e 3 c 18, e 1 c 50;
  b 40: -1 e 0 c 118, e 0 c 51;
  b 41: -1 e 0 c 36, e 1 c 118;
  b 42: -1 e 1 c 65, e 3 c 20;
  b 43: -1 e 2 c 20, e 0 c 37;
  b 44: -1 e 1 c 21, e 3 c 77;
  b 45: -1 e 2 c 21, e 1 c 38;
  b 46: -1 e 2 c 23, e 0 c 22;
  b 47: -1 e 2 c 91, e 1 c 22;
  b 48: -1 e 0 c 119, e 0 c 123;
  b 49: -1 e 2 c 24, e 0 c 23;
  b 50: -1 e 2 c 92, e 1 c 23;
  b 51: -1 e 2 c 25, e 0 c 24;
  b 52: -1 e 2 c 93, e 1 c 24;
  b 53: -1 e 2 c 26, e 0 c 25;
  b 54: -1 e 2 c 94, e 1 c 25;
  b 55: -1 e 2 c 27, e 0 c 26;
  b 56: -1 e 2 c 95, e 1 c 26;
  b 57: -1 e 2 c 28, e 0 c 27;
  b 58: -1 e 2 c 96, e 1 c 27;
  b 59: -1 e 2 c 29, e 0 c 28;
  b 60: -1 e 2 c 97, e 1 c 28;
  b 61: -1 e 2 c 30, e 0 c 29;
  b 62: -1 e 2 c 98, e 1 c 29;
  b 63: -1 e 2 c 31, e 0 c 30;
  b 64: -1 e 2 c 99, e 1 c 30;
  b 65: -1 e 2 c 32, e 0 c 31;
  b 66: -1 e 2 c 100, e 1 c 31;
  b 67: -1 e 2 c 33, e 0 c 32;
  b 68: -1 e 2 c 101, e 1 c 32;
  b 69: -1 e 0 c 120, e 0 c 33;
  b 70: -1 e 2 c 102, e 1 c 33;
  b 71: -1 e 1 c 124, e 0 c 34;
  b 72: -1 e 2 c 103, e 1 c 34;
  b 73: -1 e 1 c 39, e 0 c 35;
  b 74: -1 e 1 c 36, e 3 c 51;
  b 75: -1 e 1 c 91, e 1 c 123;
  b 76: -1 e 0 c 124, e 3 c 103;
  b 77: -1 e 2 c 40, e 3 c 39;
  b 78: -1 e 2 c 39, e 0 c 78;
  b 79: -1 e 2 c 41, e 0 c 40;
  b 80: -1 e 3 c 40, e 1 c 79;
  b 81: -1 e 2 c 42, e 0 c 41;
  b 82: -1 e 3 c 41, e 1 c 80;
  b 83: -1 e 2 c 43, e 0 c 42;
  b 84: -1 e 3 c 42, e 1 c 81;
  b 85: -1 e 2 c 44, e 0 c 43;
  b 86: -1 e 3 c 43, e 1 c 82;
  b 87: -1 e 2 c 45, e 0 c 44;
  b 88: -1 e 3 c 44, e 1 c 83;
  b 89: -1 e 2 c 46, e 0 c 45;
  b 90: -1 e 3 c 45, e 1 c 84;
  b 91: -1 e 2 c 47, e 0 c 46;
  b 92: -1 e 3 c 46, e 1 c 85;
  b 93: -1 e 2 c 48, e 0 c 47;
  b 94: -1 e 3 c 47, e 1 c 86;
  b 95: -1 e 2 c 49, e 0 c 48;
  b 96: -1 e 3 c 48, e 1 c 87;
  b 97: -1 e 2 c 50, e 0 c 49;
  b 98: -1 e 3 c 49, e 1 c 88;
  b 99: -1 e 1 c 51, e 0 c 50;
  b 100: -1 e 3 c 50, e 1 c 89;
  b 101: -1 e 2 c 51, e 0 c 90;
  b 102: -1 e 2 c 53, e 3 c 52;
  b 103: -1 e 2 c 78, e 0 c 52;
  b 104: -1 e 2 c 52, e 0 c 104;
  b 105: -1 e 2 c 54, e 0 c 53;
  b 106: -1 e 3 c 79, e 1 c 53;
  b 107: -1 e 3 c 53, e 1 c 105;
  b 108: -1 e 2 c 55, e 0 c 54;
  b 109: -1 e 3 c 80, e 1 c 54;
  b 110: -1 e 3 c 54, e 1 c 106;
  b 111: -1 e 2 c 56, e 0 c 55;
  b 112: -1 e 3 c 81, e 1 c 55;
  b 113: -1 e 3 c 55, e 1 c 107;
  b 114: -1 e 2 c 57, e 0 c 56;
  b 115: -1 e 3 c 82, e 1 c 56;
  b 116: -1 e 3 c 56, e 1 c 108;
  b 117: -1 e 2 c 58, e 0 c 57;
  b 118: -1 e 3 c 83, e 1 c 57;
  b 119: -1 e 3 c 57, e 1 c 109;
  b 120: -1 e 2 c 59, e 0 c 58;
  b 121: -1 e 3 c 84, e 1 c 58;
  b 122: -1 e 3 c 58, e 1 c 110;
  b 123: -1 e 2 c 60, e 0 c 59;
  b 124: -1 e 3 c 85, e 1 c 59;
  b 125: -1 e 3 c 59, e 1 c 111;
  b 126: -1 e 2 c 61, e 0 c 60;
  b 127: -1 e 3 c 86, e 1 c 60;
  b 128: -1 e 3 c 60, e 1 c 112;
  b 129: -1 e 2 c 62, e 0 c 61;
  b 130: -1 e 3 c 87, e 1 c 61;
  b 131: -1 e 3 c 61, e 1 c 113;
  b 132: -1 e 2 c 63, e 0 c 62;
  b 133: -1 e 3 c 88, e 1 c 62;
  b 134: -1 e 3 c 62, e 1 c 114;
  b 135: -1 e 1 c 64, e 0 c 63;
  b 136: -1 e 3 c 89, e 1 c 63;
  b 137: -1 e 3 c 63, e 1 c 115;
  b 138: -1 e 2 c 90, e 0 c 64;
  b 139: -1 e 2 c 64, e 0 c 116;
  b 140: -1 e 2 c 66, e 3 c 65;
  b 141: -1 e 2 c 104, e 0 c 65;
  b 142: -1 e 2 c 65, e 0 c 91;
  b 143: -1 e 2 c 67, e 0 c 66;
  b 144: -1 e 3 c 105, e 1 c 66;
  b 145: -1 e 3 c 66, e 0 c 92;
  b 146: -1 e 2 c 68, e 0 c 67;
  b 147: -1 e 3 c 106, e 1 c 67;
  b 148: -1 e 3 c 67, e 0 c 93;
  b 149: -1 e 2 c 69, e 0 c 68;
  b 150: -1 e 3 c 107, e 1 c 68;
  b 151: -1 e 3 c 68, e 0 c 94;
  b 152: -1 e 2 c 70, e 0 c 69;
  b 153: -1 e 3 c 108, e 1 c 69;
  b 154: -1 e 3 c 69, e 0 c 95;
  b 155: -1 e 2 c 71, e 0 c 70;
  b 156: -1 e 3 c 109, e 1 c 70;
  b 157: -1 e 3 c 70, e 0 c 96;
  b 158: -1 e 2 c 72, e 0 c 71;
  b 159: -1 e 3 c 110, e 1 c 71;
  b 160: -1 e 3 c 71, e 0 c 97;
  b 161: -1 e 2 c 73, e 0 c 72;
  b 162: -1 e 3 c 111, e 1 c 72;
  b 163: -1 e 3 c 72, e 0 c 98;
  b 164: -1 e 2 c 74, e 0 c 73;
  b 165: -1 e 3 c 112, e 1 c 73;
  b 166: -1 e 3 c 73, e 0 c 99;
  b 167: -1 e 2 c 75, e 0 c 74;
  b 168: -1 e 3 c 113, e 1 c 74;
  b 169: -1 e 3 c 74, e 0 c 100;
  b 170: -1 e 2 c 76, e 0 c 75;
  b 171: -1 e 3 c 114, e 1 c 75;
  b 172: -1 e 3 c 75, e 0 c 101;
  b 173: -1 e 1 c 77, e 0 c 76;
  b 174: -1 e 3 c 115, e 1 c 76;
  b 175: -1 e 3 c 76, e 0 c 102;
  b 176: -1 e 2 c 116, e 0 c 77;
  b 177: -1 e 2 c 77, e 0 c 103;
  b 178: -1 e 2 c 79, e 3 c 78;
  b 179: -1 e 2 c 80, e 0 c 79;
  b 180: -1 e 2 c 81, e 0 c 80;
  b 181: -1 e 2 c 82, e 0 c 81;
  b 182: -1 e 2 c 83, e 0 c 82;
  b 183: -1 e 2 c 84, e 0 c 83;
  b 184: -1 e 2 c 85, e 0 c 84;
  b 185: -1 e 2 c 86, e 0 c 85;
  b 186: -1 e 2 c 87, e 0 c 86;
  b 187: -1 e 2 c 88, e 0 c 87;
  b 188: -1 e 2 c 89, e 0 c 88;
  b 189: -1 e 1 c 90, e 0 c 89;
  b 190: -1 e 1 c 92, e 3 c 91;
  b 191: -1 e 1 c 93, e 3 c 92;
  b 192: -1 e 1 c 94, e 3 c 93;
  b 193: -1 e 1 c 95, e 3 c 94;
  b 194: -1 e 1 c 96, e 3 c 95;
  b 195: -1 e 1 c 97, e 3 c 96;
  b 196: -1 e 1 c 98, e 3 c 97;
  b 197: -1 e 1 c 99, e 3 c 98;
  b 198: -1 e 1 c 100, e 3 c 99;
  b 199: -1 e 1 c 101, e 3 c 100;
  b 200: -1 e 1 c 102, e 3 c 101;
  b 201: -1 e 1 c 103, e 3 c 102;
  b 202: -1 e 2 c 105, e 3 c 104;
  b 203: -1 e 2 c 106, e 0 c 105;
  b 204: -1 e 2 c 107, e 0 c 106;
  b 205: -1 e 2 c 108, e 0 c 107;
  b 206: -1 e 2 c 109, e 0 c 108;
  b 207: -1 e 2 c 110, e 0 c 109;
  b 208: -1 e 2 c 111, e 0 c 110;
  b 209: -1 e 2 c 112, e 0 c 111;
  b 210: -1 e 2 c 113, e 0 c 112;
  b 211: -1 e 2 c 114, e 0 c 113;
  b 212: -1 e 2 c 115, e 0 c 114;
  b 213: -1 e 1 c 116, e 0 c 115;
  b 214: e 0 c 84;
  b 215: -1 e 2 c 7, e 2 c 117;
  b 216: -1 e 2 c 19, e 2 c 118;
  b 217: -1 e 2 c 22, e 2 c 119;
  b 218: -1 e 2 c 34, e 2 c 120;
  b 219: -1 e 2 c 35, e 2 c 121;
  b 220: -1 e 2 c 36, e 2 c 122;
  b 221: -1 e 2 c 37, e 2 c 123;
  b 222: -1 e 2 c 38, e 2 c 124;
;
PdefRA 1 {
GdefRA 1 /Zd 1 {50 0} {
  Prt 1 : CrefRA 1 { 84 };
}
}
end_momMdl;
end_ckt proj;
