beg_ckt proj :
beg_layout :
  Units: m;
  EgsUnits: mm;
  Resolution: 2.5e-008 units;
  EgsResolution: 0.0001 egsunits;
end_layout;
beg_momMdl :
Mesh: 
  Freq: 2.6; 
  Cd: 0.005; 
  CpWl: 20; 
  Extraction: 1; 
  Expansion: 0; 
;
NdefIA 152: 
  p 1: -0.005 -0.027 0.001524,
  p 2: 0 -0.027 0.001524,
  p 3: -0.005 -0.028 0.001524,
  p 4: 0 -0.028 0.001524,
  p 5: -0.005 0.032 0.001524,
  p 6: 0 0.032 0.001524,
  p 7: -0.005 0.031 0.001524,
  p 8: 0 0.031 0.001524,
  p 9: 0.005 -0.027 0.001524,
  p 10: 0.01 -0.027 0.001524,
  p 11: 0.005 -0.028 0.001524,
  p 12: 0.01 -0.028 0.001524,
  p 13: 0.005 0.032 0.001524,
  p 14: 0.01 0.032 0.001524,
  p 15: 0.005 0.031 0.001524,
  p 16: 0.01 0.031 0.001524,
  p 17: 0.015 -0.027 0.001524,
  p 18: 0.02 -0.027 0.001524,
  p 19: 0.015 -0.028 0.001524,
  p 20: 0.02 -0.028 0.001524,
  p 21: 0.015 0.032 0.001524,
  p 22: 0.02 0.032 0.001524,
  p 23: 0.015 0.031 0.001524,
  p 24: 0.02 0.031 0.001524,
  p 25: -0.0099 -0.025 0.001524,
  p 26: -0.0089 -0.025 0.001524,
  p 27: -0.0099 -0.028 0.001524,
  p 28: -0.0089 -0.027 0.001524,
  p 29: -0.0099 -0.02 0.001524,
  p 30: -0.0089 -0.02 0.001524,
  p 31: -0.0099 -0.015 0.001524,
  p 32: -0.0089 -0.015 0.001524,
  p 33: -0.0099 -0.01 0.001524,
  p 34: -0.0089 -0.01 0.001524,
  p 35: -0.0099 -0.005 0.001524,
  p 36: -0.0089 -0.005 0.001524,
  p 37: -0.0099 0 0.001524,
  p 38: -0.0089 0 0.001524,
  p 39: -0.0099 0.005 0.001524,
  p 40: -0.0089 0.005 0.001524,
  p 41: -0.0099 0.01 0.001524,
  p 42: -0.0089 0.01 0.001524,
  p 43: -0.0099 0.015 0.001524,
  p 44: -0.0089 0.015 0.001524,
  p 45: -0.0099 0.02 0.001524,
  p 46: -0.0089 0.02 0.001524,
  p 47: -0.0099 0.025 0.001524,
  p 48: -0.0089 0.025 0.001524,
  p 49: -0.0099 0.03 0.001524,
  p 50: -0.0089 0.03 0.001524,
  p 51: -0.0099 0.032 0.001524,
  p 52: -0.0089 0.031 0.001524,
  p 53: 0.0221 -0.025 0.001524,
  p 54: 0.0231 -0.025 0.001524,
  p 55: 0.0221 -0.027 0.001524,
  p 56: 0.0231 -0.028 0.001524,
  p 57: 0.0221 -0.02 0.001524,
  p 58: 0.0231 -0.02 0.001524,
  p 59: 0.0221 -0.015 0.001524,
  p 60: 0.0231 -0.015 0.001524,
  p 61: 0.0221 -0.01 0.001524,
  p 62: 0.0231 -0.01 0.001524,
  p 63: 0.0221 -0.005 0.001524,
  p 64: 0.0231 -0.005 0.001524,
  p 65: 0.0221 0 0.001524,
  p 66: 0.0231 0 0.001524,
  p 67: 0.0221 0.005 0.001524,
  p 68: 0.0231 0.005 0.001524,
  p 69: 0.0221 0.01 0.001524,
  p 70: 0.0231 0.01 0.001524,
  p 71: 0.0221 0.015 0.001524,
  p 72: 0.0231 0.015 0.001524,
  p 73: 0.0221 0.02 0.001524,
  p 74: 0.0231 0.02 0.001524,
  p 75: 0.0221 0.025 0.001524,
  p 76: 0.0231 0.025 0.001524,
  p 77: 0.0221 0.03 0.001524,
  p 78: 0.0231 0.03 0.001524,
  p 79: 0.0221 0.031 0.001524,
  p 80: 0.0231 0.032 0.001524,
  p 81: -0.005 -0.025 0.001524,
  p 82: -0.005 -0.02 0.001524,
  p 83: -0.005 -0.015 0.001524,
  p 84: -0.005 -0.01 0.001524,
  p 85: -0.005 -0.005 0.001524,
  p 86: -0.005 0 0.001524,
  p 87: -0.005 0.005 0.001524,
  p 88: -0.005 0.01 0.001524,
  p 89: -0.005 0.015 0.001524,
  p 90: -0.005 0.02 0.001524,
  p 91: -0.005 0.025 0.001524,
  p 92: -0.005 0.03 0.001524,
  p 93: 0 -0.025 0.001524,
  p 94: 0.005 -0.025 0.001524,
  p 95: 0 -0.02 0.001524,
  p 96: 0.005 -0.02 0.001524,
  p 97: 0 -0.015 0.001524,
  p 98: 0.005 -0.015 0.001524,
  p 99: 0 -0.01 0.001524,
  p 100: 0.005 -0.01 0.001524,
  p 101: 0 -0.005 0.001524,
  p 102: 0.005 -0.005 0.001524,
  p 103: 0 0 0.001524,
  p 104: 0.005 0 0.001524,
  p 105: 0 0.005 0.001524,
  p 106: 0.005 0.005 0.001524,
  p 107: 0 0.01 0.001524,
  p 108: 0.005 0.01 0.001524,
  p 109: 0 0.015 0.001524,
  p 110: 0.005 0.015 0.001524,
  p 111: 0 0.02 0.001524,
  p 112: 0.005 0.02 0.001524,
  p 113: 0 0.025 0.001524,
  p 114: 0.005 0.025 0.001524,
  p 115: 0 0.03 0.001524,
  p 116: 0.005 0.03 0.001524,
  p 117: 0.01 -0.025 0.001524,
  p 118: 0.015 -0.025 0.001524,
  p 119: 0.01 -0.02 0.001524,
  p 120: 0.015 -0.02 0.001524,
  p 121: 0.01 -0.015 0.001524,
  p 122: 0.015 -0.015 0.001524,
  p 123: 0.01 -0.01 0.001524,
  p 124: 0.015 -0.01 0.001524,
  p 125: 0.01 -0.005 0.001524,
  p 126: 0.015 -0.005 0.001524,
  p 127: 0.01 0 0.001524,
  p 128: 0.015 0 0.001524,
  p 129: 0.01 0.005 0.001524,
  p 130: 0.015 0.005 0.001524,
  p 131: 0.01 0.01 0.001524,
  p 132: 0.015 0.01 0.001524,
  p 133: 0.01 0.015 0.001524,
  p 134: 0.015 0.015 0.001524,
  p 135: 0.01 0.02 0.001524,
  p 136: 0.015 0.02 0.001524,
  p 137: 0.01 0.025 0.001524,
  p 138: 0.015 0.025 0.001524,
  p 139: 0.01 0.03 0.001524,
  p 140: 0.015 0.03 0.001524,
  p 141: 0.02 -0.025 0.001524,
  p 142: 0.02 -0.02 0.001524,
  p 143: 0.02 -0.015 0.001524,
  p 144: 0.02 -0.01 0.001524,
  p 145: 0.02 -0.005 0.001524,
  p 146: 0.02 0 0.001524,
  p 147: 0.02 0.005 0.001524,
  p 148: 0.02 0.01 0.001524,
  p 149: 0.02 0.015 0.001524,
  p 150: 0.02 0.02 0.001524,
  p 151: 0.02 0.025 0.001524,
  p 152: 0.02 0.03 0.001524;
EdefIA 290: 
  s 1: 1 2,
  s 2: 3 1,
  s 3: 3 4,
  s 4: 4 2,
  s 5: 5 6,
  s 6: 7 5,
  s 7: 7 8,
  s 8: 8 6,
  s 9: 9 10,
  s 10: 11 9,
  s 11: 11 12,
  s 12: 12 10,
  s 13: 13 14,
  s 14: 15 13,
  s 15: 15 16,
  s 16: 16 14,
  s 17: 17 18,
  s 18: 19 17,
  s 19: 19 20,
  s 20: 20 18,
  s 21: 21 22,
  s 22: 23 21,
  s 23: 23 24,
  s 24: 24 22,
  s 25: 2 9,
  s 26: 4 11,
  s 27: 6 13,
  s 28: 8 15,
  s 29: 25 26,
  s 30: 27 25,
  s 31: 27 28,
  s 32: 28 26,
  s 33: 29 30,
  s 34: 25 29,
  s 35: 26 30,
  s 36: 31 32,
  s 37: 29 31,
  s 38: 30 32,
  s 39: 33 34,
  s 40: 31 33,
  s 41: 32 34,
  s 42: 35 36,
  s 43: 33 35,
  s 44: 34 36,
  s 45: 37 38,
  s 46: 35 37,
  s 47: 36 38,
  s 48: 39 40,
  s 49: 37 39,
  s 50: 38 40,
  s 51: 41 42,
  s 52: 39 41,
  s 53: 40 42,
  s 54: 43 44,
  s 55: 41 43,
  s 56: 42 44,
  s 57: 45 46,
  s 58: 43 45,
  s 59: 44 46,
  s 60: 47 48,
  s 61: 45 47,
  s 62: 46 48,
  s 63: 49 50,
  s 64: 47 49,
  s 65: 48 50,
  s 66: 49 51,
  s 67: 50 52,
  s 68: 51 52,
  s 69: 10 17,
  s 70: 12 19,
  s 71: 14 21,
  s 72: 16 23,
  s 73: 53 54,
  s 74: 55 53,
  s 75: 55 56,
  s 76: 56 54,
  s 77: 57 58,
  s 78: 53 57,
  s 79: 54 58,
  s 80: 59 60,
  s 81: 57 59,
  s 82: 58 60,
  s 83: 61 62,
  s 84: 59 61,
  s 85: 60 62,
  s 86: 63 64,
  s 87: 61 63,
  s 88: 62 64,
  s 89: 65 66,
  s 90: 63 65,
  s 91: 64 66,
  s 92: 67 68,
  s 93: 65 67,
  s 94: 66 68,
  s 95: 69 70,
  s 96: 67 69,
  s 97: 68 70,
  s 98: 71 72,
  s 99: 69 71,
  s 100: 70 72,
  s 101: 73 74,
  s 102: 71 73,
  s 103: 72 74,
  s 104: 75 76,
  s 105: 73 75,
  s 106: 74 76,
  s 107: 77 78,
  s 108: 75 77,
  s 109: 76 78,
  s 110: 79 80,
  s 111: 77 79,
  s 112: 78 80,
  s 113: 28 1,
  s 114: 27 3,
  s 115: 52 7,
  s 116: 51 5,
  s 117: 20 56,
  s 118: 18 55,
  s 119: 22 80,
  s 120: 24 79,
  s 121: 26 81,
  s 122: 1 81,
  s 123: 30 82,
  s 124: 81 82,
  s 125: 32 83,
  s 126: 82 83,
  s 127: 34 84,
  s 128: 83 84,
  s 129: 36 85,
  s 130: 84 85,
  s 131: 38 86,
  s 132: 85 86,
  s 133: 40 87,
  s 134: 86 87,
  s 135: 42 88,
  s 136: 87 88,
  s 137: 44 89,
  s 138: 88 89,
  s 139: 46 90,
  s 140: 89 90,
  s 141: 48 91,
  s 142: 90 91,
  s 143: 50 92,
  s 144: 91 92,
  s 145: 92 7,
  s 146: 93 94,
  s 147: 2 93,
  s 148: 9 94,
  s 149: 95 96,
  s 150: 93 95,
  s 151: 94 96,
  s 152: 97 98,
  s 153: 95 97,
  s 154: 96 98,
  s 155: 99 100,
  s 156: 97 99,
  s 157: 98 100,
  s 158: 101 102,
  s 159: 99 101,
  s 160: 100 102,
  s 161: 103 104,
  s 162: 101 103,
  s 163: 102 104,
  s 164: 105 106,
  s 165: 103 105,
  s 166: 104 106,
  s 167: 107 108,
  s 168: 105 107,
  s 169: 106 108,
  s 170: 109 110,
  s 171: 107 109,
  s 172: 108 110,
  s 173: 111 112,
  s 174: 109 111,
  s 175: 110 112,
  s 176: 113 114,
  s 177: 111 113,
  s 178: 112 114,
  s 179: 115 116,
  s 180: 113 115,
  s 181: 114 116,
  s 182: 115 8,
  s 183: 116 15,
  s 184: 117 118,
  s 185: 10 117,
  s 186: 17 118,
  s 187: 119 120,
  s 188: 117 119,
  s 189: 118 120,
  s 190: 121 122,
  s 191: 119 121,
  s 192: 120 122,
  s 193: 123 124,
  s 194: 121 123,
  s 195: 122 124,
  s 196: 125 126,
  s 197: 123 125,
  s 198: 124 126,
  s 199: 127 128,
  s 200: 125 127,
  s 201: 126 128,
  s 202: 129 130,
  s 203: 127 129,
  s 204: 128 130,
  s 205: 131 132,
  s 206: 129 131,
  s 207: 130 132,
  s 208: 133 134,
  s 209: 131 133,
  s 210: 132 134,
  s 211: 135 136,
  s 212: 133 135,
  s 213: 134 136,
  s 214: 137 138,
  s 215: 135 137,
  s 216: 136 138,
  s 217: 139 140,
  s 218: 137 139,
  s 219: 138 140,
  s 220: 139 16,
  s 221: 140 23,
  s 222: 141 53,
  s 223: 18 141,
  s 224: 142 57,
  s 225: 141 142,
  s 226: 143 59,
  s 227: 142 143,
  s 228: 144 61,
  s 229: 143 144,
  s 230: 145 63,
  s 231: 144 145,
  s 232: 146 65,
  s 233: 145 146,
  s 234: 147 67,
  s 235: 146 147,
  s 236: 148 69,
  s 237: 147 148,
  s 238: 149 71,
  s 239: 148 149,
  s 240: 150 73,
  s 241: 149 150,
  s 242: 151 75,
  s 243: 150 151,
  s 244: 152 77,
  s 245: 151 152,
  s 246: 152 24,
  s 247: 81 93,
  s 248: 82 95,
  s 249: 83 97,
  s 250: 84 99,
  s 251: 85 101,
  s 252: 86 103,
  s 253: 87 105,
  s 254: 88 107,
  s 255: 89 109,
  s 256: 90 111,
  s 257: 91 113,
  s 258: 92 115,
  s 259: 118 141,
  s 260: 120 142,
  s 261: 122 143,
  s 262: 124 144,
  s 263: 126 145,
  s 264: 128 146,
  s 265: 130 147,
  s 266: 132 148,
  s 267: 134 149,
  s 268: 136 150,
  s 269: 138 151,
  s 270: 140 152,
  s 271: 94 117,
  s 272: 96 119,
  s 273: 98 121,
  s 274: 100 123,
  s 275: 102 125,
  s 276: 104 127,
  s 277: 106 129,
  s 278: 108 131,
  s 279: 110 133,
  s 280: 112 135,
  s 281: 114 137,
  s 282: 116 139,
  s 283: 26 27,
  s 284: 51 50,
  s 285: 54 55,
  s 286: 80 77,
  s 287: 1 27,
  s 288: 51 7,
  s 289: 18 56,
  s 290: 80 24;
CdefIA 139: 
  c 1: -2 3 4 -1,
  c 2: -6 7 8 -5,
  c 3: -10 11 12 -9,
  c 4: -14 15 16 -13,
  c 5: -18 19 20 -17,
  c 6: -22 23 24 -21,
  c 7: -4 26 10 -25,
  c 8: -8 28 14 -27,
  c 9: -29 -30 -283,
  c 10: -33 -34 29 35,
  c 11: -36 -37 33 38,
  c 12: -39 -40 36 41,
  c 13: -42 -43 39 44,
  c 14: -45 -46 42 47,
  c 15: -48 -49 45 50,
  c 16: -51 -52 48 53,
  c 17: -54 -55 51 56,
  c 18: -57 -58 54 59,
  c 19: -60 -61 57 62,
  c 20: -63 -64 60 65,
  c 21: -66 63 -284,
  c 22: -12 70 18 -69,
  c 23: -16 72 22 -71,
  c 24: -73 -74 -285,
  c 25: -77 -78 73 79,
  c 26: -80 -81 77 82,
  c 27: -83 -84 80 85,
  c 28: -86 -87 83 88,
  c 29: -89 -90 86 91,
  c 30: -92 -93 89 94,
  c 31: -95 -96 92 97,
  c 32: -98 -99 95 100,
  c 33: -101 -102 98 103,
  c 34: -104 -105 101 106,
  c 35: -107 -108 104 109,
  c 36: -110 -111 -286,
  c 37: -113 -31 -287,
  c 38: 68 115 -288,
  c 39: -20 117 -289,
  c 40: -119 -24 -290,
  c 41: -32 113 122 -121,
  c 42: -123 -35 121 124,
  c 43: -125 -38 123 126,
  c 44: -127 -41 125 128,
  c 45: -129 -44 127 130,
  c 46: -131 -47 129 132,
  c 47: -133 -50 131 134,
  c 48: -135 -53 133 136,
  c 49: -137 -56 135 138,
  c 50: -139 -59 137 140,
  c 51: -141 -62 139 142,
  c 52: -143 -65 141 144,
  c 53: -67 143 145 -115,
  c 54: -147 25 148 -146,
  c 55: -149 -150 146 151,
  c 56: -152 -153 149 154,
  c 57: -155 -156 152 157,
  c 58: -158 -159 155 160,
  c 59: -161 -162 158 163,
  c 60: -164 -165 161 166,
  c 61: -167 -168 164 169,
  c 62: -170 -171 167 172,
  c 63: -173 -174 170 175,
  c 64: -176 -177 173 178,
  c 65: -179 -180 176 181,
  c 66: -182 179 183 -28,
  c 67: -185 69 186 -184,
  c 68: -187 -188 184 189,
  c 69: -190 -191 187 192,
  c 70: -193 -194 190 195,
  c 71: -196 -197 193 198,
  c 72: -199 -200 196 201,
  c 73: -202 -203 199 204,
  c 74: -205 -206 202 207,
  c 75: -208 -209 205 210,
  c 76: -211 -212 208 213,
  c 77: -214 -215 211 216,
  c 78: -217 -218 214 219,
  c 79: -220 217 221 -72,
  c 80: -223 118 74 -222,
  c 81: -224 -225 222 78,
  c 82: -226 -227 224 81,
  c 83: -228 -229 226 84,
  c 84: -230 -231 228 87,
  c 85: -232 -233 230 90,
  c 86: -234 -235 232 93,
  c 87: -236 -237 234 96,
  c 88: -238 -239 236 99,
  c 89: -240 -241 238 102,
  c 90: -242 -243 240 105,
  c 91: -244 -245 242 108,
  c 92: -246 244 111 -120,
  c 93: -122 1 147 -247,
  c 94: -248 -124 247 150,
  c 95: -249 -126 248 153,
  c 96: -250 -128 249 156,
  c 97: -251 -130 250 159,
  c 98: -252 -132 251 162,
  c 99: -253 -134 252 165,
  c 100: -254 -136 253 168,
  c 101: -255 -138 254 171,
  c 102: -256 -140 255 174,
  c 103: -257 -142 256 177,
  c 104: -258 -144 257 180,
  c 105: -145 258 182 -7,
  c 106: -186 17 223 -259,
  c 107: -260 -189 259 225,
  c 108: -261 -192 260 227,
  c 109: -262 -195 261 229,
  c 110: -263 -198 262 231,
  c 111: -264 -201 263 233,
  c 112: -265 -204 264 235,
  c 113: -266 -207 265 237,
  c 114: -267 -210 266 239,
  c 115: -268 -213 267 241,
  c 116: -269 -216 268 243,
  c 117: -270 -219 269 245,
  c 118: -221 270 246 -23,
  c 119: -148 9 185 -271,
  c 120: -272 -151 271 188,
  c 121: -273 -154 272 191,
  c 122: -274 -157 273 194,
  c 123: -275 -160 274 197,
  c 124: -276 -163 275 200,
  c 125: -277 -166 276 203,
  c 126: -278 -169 277 206,
  c 127: -279 -172 278 209,
  c 128: -280 -175 279 212,
  c 129: -281 -178 280 215,
  c 130: -282 -181 281 218,
  c 131: -183 282 220 -15,
  c 132: 31 32 283,
  c 133: 67 -68 284,
  c 134: 75 76 285,
  c 135: 107 112 286,
  c 136: 114 2 287,
  c 137: 6 -116 288,
  c 138: -75 -118 289,
  c 139: 120 110 290;
beg_Xinfo :
beg_layer /1:
  Mask: 1;
  Type: metal;
  Level: 0;
  Plane: z = 0.001524;
  Fill: condthickness 58000000 3.5e-005 M precedence 0;
  CrefRA 139 { 
  1 37 136 41 9 132 10 42 94 93 54 7
  3 22 5 39 138 24 134 25 81 107 68 120
  55 56 95 43 11 12 44 96 57 122
  121 69 108 82 26 27 83 109 70 71
  123 58 97 45 13 14 46 98 59 124
  72 111 110 84 28 29 85 86 112 73
  125 60 99 47 15 16 48 100 61 126
  74 113 87 31 30 32 88 114 75 127
  62 101 49 17 18 50 102 63 128 76
  115 89 33 34 90 116 77 129 64 103
  51 19 20 52 104 65 130 78 117 91
  35 36 135 40 139 6 23 4 8 2 38 137 21 133
  53 105 66 131 79 118 92 119 67 106
  80 }
  RGrid 0.005,0.001 -1.5707963267949 1: 
  -0.0099,0.03 11,1 11:
    7,0 c 13, 8,0 c 12, 6,0 c 14, 9,0 c 11, 10,0 c 10, 
    5,0 c 15, 4,0 c 16, 3,0 c 17, 2,0 c 18, 1,0 c 19, 
    0,0 c 20;
  RGrid 0.005,0.005 -1.5707963267949 1: 
  -0.005,0.03 11,5 55:
    4,2 c 126, 5,2 c 125, 4,1 c 61, 3,2 c 127, 5,1 c 60, 
    6,1 c 59, 7,1 c 58, 7,0 c 97, 8,0 c 96, 6,0 c 98, 
    3,1 c 62, 3,0 c 101, 2,0 c 102, 1,0 c 103, 1,1 c 64, 
    0,1 c 65, 0,2 c 130, 0,3 c 78, 9,0 c 95, 9,1 c 56, 
    10,1 c 55, 10,2 c 120, 1,3 c 77, 2,3 c 76, 2,4 c 115, 
    3,4 c 114, 4,4 c 113, 5,4 c 112, 6,4 c 111, 7,4 c 110, 
    7,3 c 71, 8,3 c 70, 8,2 c 122, 7,2 c 123, 1,4 c 116, 
    3,3 c 75, 5,3 c 73, 8,1 c 57, 0,4 c 117, 6,2 c 124, 
    5,0 c 99, 8,4 c 109, 9,4 c 108, 2,1 c 63, 10,3 c 68, 
    0,0 c 104, 10,0 c 94, 4,3 c 74, 10,4 c 107, 9,3 c 69, 
    9,2 c 121, 6,3 c 72, 1,2 c 129, 2,2 c 128, 4,0 c 100;
  RGrid 0.005,0.0039 -1.5707963267949 1: 
  -0.0089,0.03 11,1 11:
    3,0 c 49, 4,0 c 48, 5,0 c 47, 2,0 c 50, 6,0 c 46, 
    1,0 c 51, 0,0 c 52, 7,0 c 45, 8,0 c 44, 9,0 c 43, 
    10,0 c 42;
  RGrid 0.005,0.000999999999999997 0 1: 
  -0.005,0.03 5,2 10:
    2,1 c 4, 1,1 c 8, 2,0 c 131, 0,1 c 2, 0,0 c 105, 
    3,1 c 23, 3,0 c 79, 1,0 c 66, 4,1 c 6, 4,0 c 118;
  RGrid 0.005,0.000999999999999999 -1.5707963267949 1: 
  0.0221,0.03 11,1 11:
    10,0 c 25, 9,0 c 26, 8,0 c 27, 7,0 c 28, 6,0 c 29, 
    5,0 c 30, 4,0 c 31, 3,0 c 32, 2,0 c 33, 1,0 c 34, 
    0,0 c 35;
  RGrid 0.005,0.002 0 1: 
  -0.005,-0.027 5,1 5:
    2,0 c 119, 3,0 c 67, 4,0 c 106, 1,0 c 54, 0,0 c 93;
  RGrid 0.005,0.001 0 1: 
  -0.005,-0.028 5,1 5:
    2,0 c 3, 3,0 c 22, 1,0 c 7, 4,0 c 5, 0,0 c 1;
  RGrid 0.005,0.0021 -1.5707963267949 1: 
  0.02,0.03 11,1 11:
    4,0 c 87, 5,0 c 86, 3,0 c 88, 2,0 c 89, 1,0 c 90, 
    0,0 c 91, 6,0 c 85, 7,0 c 84, 8,0 c 83, 9,0 c 82, 
    10,0 c 81;
end_layer /1;
end_Xinfo;
Overlap: 
  ErefRA 88 { 
  1 3 5 7 9 11 13 15 17 19
  21 23 25 26 27 28 30 32 34 35
  37 38 40 41 43 44 46 47 49 50
  52 53 55 56 58 59 61 62 64 65
  66 67 69 70 71 72 74 76 78 79
  81 82 84 85 87 88 90 91 93 94
  96 97 99 100 102 103 105 106 108 109
  111 112 113 114 115 116 117 118 119 120
  134 165 252 253 133 131 161 164 };
BdefIA 251: 
  b 1: -1 e 1 c 93, e 3 c 1;
  b 2: -1 e 1 c 136, e 0 c 1;
  b 3: -1 e 2 c 1, e 0 c 7;
  b 4: -1 e 0 c 137, e 0 c 2;
  b 5: -1 e 1 c 2, e 3 c 105;
  b 6: -1 e 2 c 2, e 0 c 8;
  b 7: -1 e 1 c 119, e 3 c 3;
  b 8: -1 e 2 c 7, e 0 c 3;
  b 9: -1 e 2 c 3, e 0 c 22;
  b 10: -1 e 2 c 8, e 0 c 4;
  b 11: -1 e 1 c 4, e 3 c 131;
  b 12: -1 e 2 c 4, e 0 c 23;
  b 13: -1 e 1 c 106, e 3 c 5;
  b 14: -1 e 2 c 22, e 0 c 5;
  b 15: -1 e 2 c 5, e 0 c 39;
  b 16: -1 e 2 c 23, e 0 c 6;
  b 17: -1 e 1 c 6, e 3 c 118;
  b 18: -1 e 2 c 6, e 1 c 40;
  b 19: -1 e 1 c 54, e 3 c 7;
  b 20: -1 e 1 c 8, e 3 c 66;
  b 21: -1 e 2 c 10, e 0 c 9;
  b 22: -1 e 0 c 132, e 1 c 37;
  b 23: -1 e 1 c 132, e 0 c 41;
  b 24: -1 e 2 c 11, e 0 c 10;
  b 25: -1 e 3 c 10, e 1 c 42;
  b 26: -1 e 2 c 12, e 0 c 11;
  b 27: -1 e 3 c 11, e 1 c 43;
  b 28: -1 e 2 c 13, e 0 c 12;
  b 29: -1 e 3 c 12, e 1 c 44;
  b 30: -1 e 2 c 14, e 0 c 13;
  b 31: -1 e 3 c 13, e 1 c 45;
  b 32: -1 e 2 c 15, e 0 c 14;
  b 33: -1 e 3 c 14, e 1 c 46;
  b 34: -1 e 2 c 16, e 0 c 15;
  b 35: -1 e 3 c 15, e 1 c 47;
  b 36: -1 e 2 c 17, e 0 c 16;
  b 37: -1 e 3 c 16, e 1 c 48;
  b 38: -1 e 2 c 18, e 0 c 17;
  b 39: -1 e 3 c 17, e 1 c 49;
  b 40: -1 e 2 c 19, e 0 c 18;
  b 41: -1 e 3 c 18, e 1 c 50;
  b 42: -1 e 2 c 20, e 0 c 19;
  b 43: -1 e 3 c 19, e 1 c 51;
  b 44: -1 e 1 c 21, e 0 c 20;
  b 45: -1 e 3 c 20, e 1 c 52;
  b 46: -1 e 0 c 133, e 0 c 53;
  b 47: -1 e 0 c 38, e 1 c 133;
  b 48: -1 e 1 c 67, e 3 c 22;
  b 49: -1 e 1 c 23, e 3 c 79;
  b 50: -1 e 2 c 25, e 0 c 24;
  b 51: -1 e 2 c 80, e 1 c 24;
  b 52: -1 e 0 c 134, e 0 c 138;
  b 53: -1 e 2 c 26, e 0 c 25;
  b 54: -1 e 3 c 81, e 1 c 25;
  b 55: -1 e 2 c 27, e 0 c 26;
  b 56: -1 e 3 c 82, e 1 c 26;
  b 57: -1 e 2 c 28, e 0 c 27;
  b 58: -1 e 3 c 83, e 1 c 27;
  b 59: -1 e 2 c 29, e 0 c 28;
  b 60: -1 e 3 c 84, e 1 c 28;
  b 61: -1 e 2 c 30, e 0 c 29;
  b 62: -1 e 3 c 85, e 1 c 29;
  b 63: -1 e 2 c 31, e 0 c 30;
  b 64: -1 e 3 c 86, e 1 c 30;
  b 65: -1 e 2 c 32, e 0 c 31;
  b 66: -1 e 3 c 87, e 1 c 31;
  b 67: -1 e 2 c 33, e 0 c 32;
  b 68: -1 e 3 c 88, e 1 c 32;
  b 69: -1 e 2 c 34, e 0 c 33;
  b 70: -1 e 3 c 89, e 1 c 33;
  b 71: -1 e 2 c 35, e 0 c 34;
  b 72: -1 e 3 c 90, e 1 c 34;
  b 73: -1 e 0 c 135, e 0 c 35;
  b 74: -1 e 3 c 91, e 1 c 35;
  b 75: -1 e 1 c 139, e 0 c 36;
  b 76: -1 e 2 c 92, e 1 c 36;
  b 77: -1 e 1 c 41, e 0 c 37;
  b 78: -1 e 1 c 38, e 3 c 53;
  b 79: -1 e 1 c 80, e 1 c 138;
  b 80: -1 e 0 c 139, e 3 c 92;
  b 81: -1 e 2 c 42, e 3 c 41;
  b 82: -1 e 2 c 41, e 0 c 93;
  b 83: -1 e 2 c 43, e 0 c 42;
  b 84: -1 e 3 c 42, e 1 c 94;
  b 85: -1 e 2 c 44, e 0 c 43;
  b 86: -1 e 3 c 43, e 1 c 95;
  b 87: -1 e 2 c 45, e 0 c 44;
  b 88: -1 e 3 c 44, e 1 c 96;
  b 89: -1 e 2 c 46, e 0 c 45;
  b 90: -1 e 3 c 45, e 1 c 97;
  b 91: -1 e 2 c 47, e 0 c 46;
  b 92: -1 e 3 c 46, e 1 c 98;
  b 93: -1 e 2 c 48, e 0 c 47;
  b 94: -1 e 3 c 47, e 1 c 99;
  b 95: -1 e 2 c 49, e 0 c 48;
  b 96: -1 e 3 c 48, e 1 c 100;
  b 97: -1 e 2 c 50, e 0 c 49;
  b 98: -1 e 3 c 49, e 1 c 101;
  b 99: -1 e 2 c 51, e 0 c 50;
  b 100: -1 e 3 c 50, e 1 c 102;
  b 101: -1 e 2 c 52, e 0 c 51;
  b 102: -1 e 3 c 51, e 1 c 103;
  b 103: -1 e 1 c 53, e 0 c 52;
  b 104: -1 e 3 c 52, e 1 c 104;
  b 105: -1 e 2 c 53, e 0 c 105;
  b 106: -1 e 2 c 55, e 3 c 54;
  b 107: -1 e 2 c 93, e 0 c 54;
  b 108: -1 e 2 c 54, e 0 c 119;
  b 109: -1 e 2 c 56, e 0 c 55;
  b 110: -1 e 3 c 94, e 1 c 55;
  b 111: -1 e 3 c 55, e 1 c 120;
  b 112: -1 e 2 c 57, e 0 c 56;
  b 113: -1 e 3 c 95, e 1 c 56;
  b 114: -1 e 3 c 56, e 1 c 121;
  b 115: -1 e 2 c 58, e 0 c 57;
  b 116: -1 e 3 c 96, e 1 c 57;
  b 117: -1 e 3 c 57, e 1 c 122;
  b 118: -1 e 2 c 59, e 0 c 58;
  b 119: -1 e 3 c 97, e 1 c 58;
  b 120: -1 e 3 c 58, e 1 c 123;
  b 121: -1 e 2 c 60, e 0 c 59;
  b 122: -1 e 3 c 98, e 1 c 59;
  b 123: -1 e 3 c 59, e 1 c 124;
  b 124: -1 e 2 c 61, e 0 c 60;
  b 125: -1 e 3 c 99, e 1 c 60;
  b 126: -1 e 3 c 60, e 1 c 125;
  b 127: -1 e 2 c 62, e 0 c 61;
  b 128: -1 e 3 c 100, e 1 c 61;
  b 129: -1 e 3 c 61, e 1 c 126;
  b 130: -1 e 2 c 63, e 0 c 62;
  b 131: -1 e 3 c 101, e 1 c 62;
  b 132: -1 e 3 c 62, e 1 c 127;
  b 133: -1 e 2 c 64, e 0 c 63;
  b 134: -1 e 3 c 102, e 1 c 63;
  b 135: -1 e 3 c 63, e 1 c 128;
  b 136: -1 e 2 c 65, e 0 c 64;
  b 137: -1 e 3 c 103, e 1 c 64;
  b 138: -1 e 3 c 64, e 1 c 129;
  b 139: -1 e 1 c 66, e 0 c 65;
  b 140: -1 e 3 c 104, e 1 c 65;
  b 141: -1 e 3 c 65, e 1 c 130;
  b 142: -1 e 2 c 105, e 0 c 66;
  b 143: -1 e 2 c 66, e 0 c 131;
  b 144: -1 e 2 c 68, e 3 c 67;
  b 145: -1 e 2 c 119, e 0 c 67;
  b 146: -1 e 2 c 67, e 0 c 106;
  b 147: -1 e 2 c 69, e 0 c 68;
  b 148: -1 e 3 c 120, e 1 c 68;
  b 149: -1 e 3 c 68, e 1 c 107;
  b 150: -1 e 2 c 70, e 0 c 69;
  b 151: -1 e 3 c 121, e 1 c 69;
  b 152: -1 e 3 c 69, e 1 c 108;
  b 153: -1 e 2 c 71, e 0 c 70;
  b 154: -1 e 3 c 122, e 1 c 70;
  b 155: -1 e 3 c 70, e 1 c 109;
  b 156: -1 e 2 c 72, e 0 c 71;
  b 157: -1 e 3 c 123, e 1 c 71;
  b 158: -1 e 3 c 71, e 1 c 110;
  b 159: -1 e 2 c 73, e 0 c 72;
  b 160: -1 e 3 c 124, e 1 c 72;
  b 161: -1 e 3 c 72, e 1 c 111;
  b 162: -1 e 2 c 74, e 0 c 73;
  b 163: -1 e 3 c 125, e 1 c 73;
  b 164: -1 e 3 c 73, e 1 c 112;
  b 165: -1 e 2 c 75, e 0 c 74;
  b 166: -1 e 3 c 126, e 1 c 74;
  b 167: -1 e 3 c 74, e 1 c 113;
  b 168: -1 e 2 c 76, e 0 c 75;
  b 169: -1 e 3 c 127, e 1 c 75;
  b 170: -1 e 3 c 75, e 1 c 114;
  b 171: -1 e 2 c 77, e 0 c 76;
  b 172: -1 e 3 c 128, e 1 c 76;
  b 173: -1 e 3 c 76, e 1 c 115;
  b 174: -1 e 2 c 78, e 0 c 77;
  b 175: -1 e 3 c 129, e 1 c 77;
  b 176: -1 e 3 c 77, e 1 c 116;
  b 177: -1 e 1 c 79, e 0 c 78;
  b 178: -1 e 3 c 130, e 1 c 78;
  b 179: -1 e 3 c 78, e 1 c 117;
  b 180: -1 e 2 c 131, e 0 c 79;
  b 181: -1 e 2 c 79, e 0 c 118;
  b 182: -1 e 2 c 81, e 3 c 80;
  b 183: -1 e 2 c 106, e 0 c 80;
  b 184: -1 e 2 c 82, e 0 c 81;
  b 185: -1 e 3 c 107, e 1 c 81;
  b 186: -1 e 2 c 83, e 0 c 82;
  b 187: -1 e 3 c 108, e 1 c 82;
  b 188: -1 e 2 c 84, e 0 c 83;
  b 189: -1 e 3 c 109, e 1 c 83;
  b 190: -1 e 2 c 85, e 0 c 84;
  b 191: -1 e 3 c 110, e 1 c 84;
  b 192: -1 e 2 c 86, e 0 c 85;
  b 193: -1 e 3 c 111, e 1 c 85;
  b 194: -1 e 2 c 87, e 0 c 86;
  b 195: -1 e 3 c 112, e 1 c 86;
  b 196: -1 e 2 c 88, e 0 c 87;
  b 197: -1 e 3 c 113, e 1 c 87;
  b 198: -1 e 2 c 89, e 0 c 88;
  b 199: -1 e 3 c 114, e 1 c 88;
  b 200: -1 e 2 c 90, e 0 c 89;
  b 201: -1 e 3 c 115, e 1 c 89;
  b 202: -1 e 2 c 91, e 0 c 90;
  b 203: -1 e 3 c 116, e 1 c 90;
  b 204: -1 e 1 c 92, e 0 c 91;
  b 205: -1 e 3 c 117, e 1 c 91;
  b 206: -1 e 2 c 118, e 0 c 92;
  b 207: -1 e 2 c 94, e 3 c 93;
  b 208: -1 e 2 c 95, e 0 c 94;
  b 209: -1 e 2 c 96, e 0 c 95;
  b 210: -1 e 2 c 97, e 0 c 96;
  b 211: -1 e 2 c 98, e 0 c 97;
  b 212: -1 e 2 c 99, e 0 c 98;
  b 213: -1 e 2 c 100, e 0 c 99;
  b 214: -1 e 2 c 101, e 0 c 100;
  b 215: -1 e 2 c 102, e 0 c 101;
  b 216: -1 e 2 c 103, e 0 c 102;
  b 217: -1 e 2 c 104, e 0 c 103;
  b 218: -1 e 1 c 105, e 0 c 104;
  b 219: -1 e 2 c 107, e 3 c 106;
  b 220: -1 e 2 c 108, e 0 c 107;
  b 221: -1 e 2 c 109, e 0 c 108;
  b 222: -1 e 2 c 110, e 0 c 109;
  b 223: -1 e 2 c 111, e 0 c 110;
  b 224: -1 e 2 c 112, e 0 c 111;
  b 225: -1 e 2 c 113, e 0 c 112;
  b 226: -1 e 2 c 114, e 0 c 113;
  b 227: -1 e 2 c 115, e 0 c 114;
  b 228: -1 e 2 c 116, e 0 c 115;
  b 229: -1 e 2 c 117, e 0 c 116;
  b 230: -1 e 1 c 118, e 0 c 117;
  b 231: -1 e 2 c 120, e 3 c 119;
  b 232: -1 e 2 c 121, e 0 c 120;
  b 233: -1 e 2 c 122, e 0 c 121;
  b 234: -1 e 2 c 123, e 0 c 122;
  b 235: -1 e 2 c 124, e 0 c 123;
  b 236: -1 e 2 c 125, e 0 c 124;
  b 237: -1 e 2 c 126, e 0 c 125;
  b 238: -1 e 2 c 127, e 0 c 126;
  b 239: -1 e 2 c 128, e 0 c 127;
  b 240: -1 e 2 c 129, e 0 c 128;
  b 241: -1 e 2 c 130, e 0 c 129;
  b 242: -1 e 1 c 131, e 0 c 130;
  b 243: e 0 c 99;
  b 244: -1 e 2 c 9, e 2 c 132;
  b 245: -1 e 2 c 21, e 2 c 133;
  b 246: -1 e 2 c 24, e 2 c 134;
  b 247: -1 e 2 c 36, e 2 c 135;
  b 248: -1 e 2 c 37, e 2 c 136;
  b 249: -1 e 2 c 38, e 2 c 137;
  b 250: -1 e 2 c 39, e 2 c 138;
  b 251: -1 e 2 c 40, e 2 c 139;
;
PdefRA 1 {
GdefRA 1 /Zd 1 {50 0} {
  Prt 1 : CrefRA 1 { 99 };
}
}
end_momMdl;
end_ckt proj;
