beg_ckt proj :
beg_layout :
  Units: m;
  EgsUnits: mm;
  Resolution: 2.5e-008 units;
  EgsResolution: 0.0001 egsunits;
end_layout;
beg_momMdl :
Mesh: 
  Freq: 2.6; 
  Cd: 0.004; 
  CpWl: 20; 
  Extraction: 1; 
  Expansion: 0; 
;
NdefIA 144: 
  p 1: 0.013 -0.02925 0,
  p 2: 0.013 -0.02925 0.001524,
  p 3: 0.013 -0.024 0.001524,
  p 4: 0.013 -0.024 0,
  p 5: 0.013 0.004 0,
  p 6: 0.013 0.004 0.001524,
  p 7: 0.013 0.008 0.001524,
  p 8: 0.013 0.008 0,
  p 9: 0.013 -0.012 0,
  p 10: 0.013 -0.012 0.001524,
  p 11: 0.013 -0.008 0.001524,
  p 12: 0.013 -0.008 0,
  p 13: 0.013 0.02 0,
  p 14: 0.013 0.02 0.001524,
  p 15: 0.013 0.024 0.001524,
  p 16: 0.013 0.024 0,
  p 17: 0.013 -0.02 0,
  p 18: 0.013 -0.02 0.001524,
  p 19: 0.013 -0.016 0.001524,
  p 20: 0.013 -0.016 0,
  p 21: 0.013 -0.004 0,
  p 22: 0.013 -0.004 0.001524,
  p 23: 0.013 0 0.001524,
  p 24: 0.013 0 0,
  p 25: 0.013 0.012 0,
  p 26: 0.013 0.012 0.001524,
  p 27: 0.013 0.016 0.001524,
  p 28: 0.013 0.016 0,
  p 29: 0.013 0.028 0,
  p 30: 0.013 0.028 0.001524,
  p 31: 0.013 0.03325 0.001524,
  p 32: 0.013 0.03325 0,
  p 33: 0 -0.02825 0.001524,
  p 34: 0.004 -0.02825 0.001524,
  p 35: 0 -0.02925 0.001524,
  p 36: 0.004 -0.02925 0.001524,
  p 37: 0 0.03325 0.001524,
  p 38: 0.004 0.03325 0.001524,
  p 39: 0 0.03225 0.001524,
  p 40: 0.004 0.03225 0.001524,
  p 41: 0.008 -0.02825 0.001524,
  p 42: 0.008 -0.02925 0.001524,
  p 43: 0.008 0.03325 0.001524,
  p 44: 0.008 0.03225 0.001524,
  p 45: -0.00225 -0.02825 0.001524,
  p 46: -0.00325 -0.02925 0.001524,
  p 47: 0.012 -0.024 0.001524,
  p 48: 0.012 -0.02825 0.001524,
  p 49: 0.012 -0.02 0.001524,
  p 50: 0.012 -0.016 0.001524,
  p 51: 0.012 -0.012 0.001524,
  p 52: 0.012 -0.008 0.001524,
  p 53: 0.012 -0.004 0.001524,
  p 54: 0.012 0 0.001524,
  p 55: 0.012 0.004 0.001524,
  p 56: 0.012 0.008 0.001524,
  p 57: 0.012 0.012 0.001524,
  p 58: 0.012 0.016 0.001524,
  p 59: 0.012 0.02 0.001524,
  p 60: 0.012 0.024 0.001524,
  p 61: 0.012 0.028 0.001524,
  p 62: 0.012 0.03225 0.001524,
  p 63: -0.00325 -0.024 0.001524,
  p 64: -0.00225 -0.024 0.001524,
  p 65: -0.00325 -0.02 0.001524,
  p 66: -0.00225 -0.02 0.001524,
  p 67: -0.00325 -0.016 0.001524,
  p 68: -0.00225 -0.016 0.001524,
  p 69: -0.00325 -0.012 0.001524,
  p 70: -0.00225 -0.012 0.001524,
  p 71: -0.00325 -0.008 0.001524,
  p 72: -0.00225 -0.008 0.001524,
  p 73: -0.00325 -0.00514789947090871 0.001524,
  p 74: -0.00225 -0.00514789947090871 0.001524,
  p 75: -0.00325 -0.00254579894181742 0.001524,
  p 76: -0.00225 -0.00254579894181742 0.001524,
  p 77: -0.00325 0.000852100529091288 0.001524,
  p 78: -0.00225 0.000852100529091288 0.001524,
  p 79: -0.00325 0.00425 0.001524,
  p 80: -0.00225 0.00425 0.001524,
  p 81: -0.00325 0.00654579894181742 0.001524,
  p 82: -0.00225 0.00654579894181742 0.001524,
  p 83: -0.00325 0.00914789947090871 0.001524,
  p 84: -0.00225 0.00914789947090871 0.001524,
  p 85: -0.00325 0.012 0.001524,
  p 86: -0.00225 0.012 0.001524,
  p 87: -0.00325 0.016 0.001524,
  p 88: -0.00225 0.016 0.001524,
  p 89: -0.00325 0.02 0.001524,
  p 90: -0.00225 0.02 0.001524,
  p 91: -0.00325 0.024 0.001524,
  p 92: -0.00225 0.024 0.001524,
  p 93: -0.00325 0.028 0.001524,
  p 94: -0.00225 0.028 0.001524,
  p 95: -0.00325 0.03325 0.001524,
  p 96: -0.00225 0.03225 0.001524,
  p 97: -0.00114789947090871 0.00314789947090871 0.001524,
  p 98: 0.00114789947090871 0.00314789947090871 0.001524,
  p 99: -0.00114789947090871 0.000852100529091288 0.001524,
  p 100: 0.00114789947090871 0.000852100529091288 0.001524,
  p 101: 0.00114789947090871 -0.00254579894181742 0.001524,
  p 102: 0.00375 -0.00314789947090871 0.001524,
  p 103: 0.00175 -0.00514789947090871 0.001524,
  p 104: 0.004 -0.004 0.001524,
  p 105: 0 -0.024 0.001524,
  p 106: 0 -0.02 0.001524,
  p 107: 0 -0.016 0.001524,
  p 108: 0 -0.012 0.001524,
  p 109: 0 -0.008 0.001524,
  p 110: 0 0.012 0.001524,
  p 111: 0.00175 0.00914789947090871 0.001524,
  p 112: 0 0.016 0.001524,
  p 113: 0 0.02 0.001524,
  p 114: 0 0.024 0.001524,
  p 115: 0 0.028 0.001524,
  p 116: 0.004 -0.008 0.001524,
  p 117: 0.004 0 0.001524,
  p 118: 0.004 0.004 0.001524,
  p 119: 0.00375 0.00714789947090871 0.001524,
  p 120: 0.00114789947090871 0.00654579894181742 0.001524,
  p 121: 0.004 0.008 0.001524,
  p 122: 0.004 0.012 0.001524,
  p 123: 0.008 -0.024 0.001524,
  p 124: 0.008 -0.02 0.001524,
  p 125: 0.008 -0.016 0.001524,
  p 126: 0.008 -0.012 0.001524,
  p 127: 0.008 -0.008 0.001524,
  p 128: 0.008 -0.004 0.001524,
  p 129: 0.008 0 0.001524,
  p 130: 0.008 0.004 0.001524,
  p 131: 0.008 0.008 0.001524,
  p 132: 0.008 0.012 0.001524,
  p 133: 0.008 0.016 0.001524,
  p 134: 0.008 0.02 0.001524,
  p 135: 0.008 0.024 0.001524,
  p 136: 0.008 0.028 0.001524,
  p 137: 0.004 -0.024 0.001524,
  p 138: 0.004 -0.02 0.001524,
  p 139: 0.004 -0.016 0.001524,
  p 140: 0.004 -0.012 0.001524,
  p 141: 0.004 0.016 0.001524,
  p 142: 0.004 0.02 0.001524,
  p 143: 0.004 0.024 0.001524,
  p 144: 0.004 0.028 0.001524;
EdefIA 291: 
  s 1: 1 2,
  s 2: 2 3,
  s 3: 4 3,
  s 4: 1 4,
  s 5: 5 6,
  s 6: 6 7,
  s 7: 8 7,
  s 8: 5 8,
  s 9: 9 10,
  s 10: 10 11,
  s 11: 12 11,
  s 12: 9 12,
  s 13: 13 14,
  s 14: 14 15,
  s 15: 16 15,
  s 16: 13 16,
  s 17: 17 18,
  s 18: 18 19,
  s 19: 20 19,
  s 20: 17 20,
  s 21: 21 22,
  s 22: 22 23,
  s 23: 24 23,
  s 24: 21 24,
  s 25: 25 26,
  s 26: 26 27,
  s 27: 28 27,
  s 28: 25 28,
  s 29: 29 30,
  s 30: 30 31,
  s 31: 32 31,
  s 32: 29 32,
  s 33: 3 18,
  s 34: 4 17,
  s 35: 19 10,
  s 36: 20 9,
  s 37: 23 6,
  s 38: 24 5,
  s 39: 11 22,
  s 40: 12 21,
  s 41: 27 14,
  s 42: 28 13,
  s 43: 7 26,
  s 44: 8 25,
  s 45: 15 30,
  s 46: 16 29,
  s 47: 33 34,
  s 48: 35 33,
  s 49: 35 36,
  s 50: 36 34,
  s 51: 37 38,
  s 52: 39 37,
  s 53: 39 40,
  s 54: 40 38,
  s 55: 34 41,
  s 56: 36 42,
  s 57: 42 41,
  s 58: 38 43,
  s 59: 40 44,
  s 60: 44 43,
  s 61: 45 33,
  s 62: 46 45,
  s 63: 46 35,
  s 64: 47 3,
  s 65: 48 47,
  s 66: 48 2,
  s 67: 49 18,
  s 68: 47 49,
  s 69: 50 19,
  s 70: 49 50,
  s 71: 51 10,
  s 72: 50 51,
  s 73: 52 11,
  s 74: 51 52,
  s 75: 53 22,
  s 76: 52 53,
  s 77: 54 23,
  s 78: 53 54,
  s 79: 55 6,
  s 80: 54 55,
  s 81: 56 7,
  s 82: 55 56,
  s 83: 57 26,
  s 84: 56 57,
  s 85: 58 27,
  s 86: 57 58,
  s 87: 59 14,
  s 88: 58 59,
  s 89: 60 15,
  s 90: 59 60,
  s 91: 61 30,
  s 92: 60 61,
  s 93: 62 31,
  s 94: 61 62,
  s 95: 63 64,
  s 96: 46 63,
  s 97: 45 64,
  s 98: 65 66,
  s 99: 63 65,
  s 100: 64 66,
  s 101: 67 68,
  s 102: 65 67,
  s 103: 66 68,
  s 104: 69 70,
  s 105: 67 69,
  s 106: 68 70,
  s 107: 71 72,
  s 108: 69 71,
  s 109: 70 72,
  s 110: 73 74,
  s 111: 71 73,
  s 112: 72 74,
  s 113: 75 76,
  s 114: 73 75,
  s 115: 74 76,
  s 116: 77 78,
  s 117: 75 77,
  s 118: 76 78,
  s 119: 79 80,
  s 120: 77 79,
  s 121: 78 80,
  s 122: 81 82,
  s 123: 79 81,
  s 124: 80 82,
  s 125: 83 84,
  s 126: 81 83,
  s 127: 82 84,
  s 128: 85 86,
  s 129: 83 85,
  s 130: 84 86,
  s 131: 87 88,
  s 132: 85 87,
  s 133: 86 88,
  s 134: 89 90,
  s 135: 87 89,
  s 136: 88 90,
  s 137: 91 92,
  s 138: 89 91,
  s 139: 90 92,
  s 140: 93 94,
  s 141: 91 93,
  s 142: 92 94,
  s 143: 95 96,
  s 144: 93 95,
  s 145: 94 96,
  s 146: 96 39,
  s 147: 95 37,
  s 148: 42 2,
  s 149: 41 48,
  s 150: 43 31,
  s 151: 44 62,
  s 152: 97 98,
  s 153: 99 97,
  s 154: 99 100,
  s 155: 100 98,
  s 156: 101 102,
  s 157: 101 103,
  s 158: 103 104,
  s 159: 102 104,
  s 160: 64 105,
  s 161: 33 105,
  s 162: 66 106,
  s 163: 105 106,
  s 164: 68 107,
  s 165: 106 107,
  s 166: 70 108,
  s 167: 107 108,
  s 168: 72 109,
  s 169: 108 109,
  s 170: 78 99,
  s 171: 76 99,
  s 172: 80 97,
  s 173: 86 110,
  s 174: 84 111,
  s 175: 110 111,
  s 176: 88 112,
  s 177: 110 112,
  s 178: 90 113,
  s 179: 112 113,
  s 180: 92 114,
  s 181: 113 114,
  s 182: 94 115,
  s 183: 114 115,
  s 184: 115 39,
  s 185: 103 116,
  s 186: 116 104,
  s 187: 100 117,
  s 188: 101 100,
  s 189: 102 117,
  s 190: 98 118,
  s 191: 117 118,
  s 192: 119 118,
  s 193: 120 119,
  s 194: 98 120,
  s 195: 111 121,
  s 196: 120 111,
  s 197: 119 121,
  s 198: 111 122,
  s 199: 121 122,
  s 200: 97 120,
  s 201: 123 47,
  s 202: 41 123,
  s 203: 124 49,
  s 204: 123 124,
  s 205: 125 50,
  s 206: 124 125,
  s 207: 126 51,
  s 208: 125 126,
  s 209: 127 52,
  s 210: 126 127,
  s 211: 128 53,
  s 212: 127 128,
  s 213: 129 54,
  s 214: 128 129,
  s 215: 130 55,
  s 216: 129 130,
  s 217: 131 56,
  s 218: 130 131,
  s 219: 132 57,
  s 220: 131 132,
  s 221: 133 58,
  s 222: 132 133,
  s 223: 134 59,
  s 224: 133 134,
  s 225: 135 60,
  s 226: 134 135,
  s 227: 136 61,
  s 228: 135 136,
  s 229: 136 44,
  s 230: 105 137,
  s 231: 34 137,
  s 232: 106 138,
  s 233: 137 138,
  s 234: 107 139,
  s 235: 138 139,
  s 236: 108 140,
  s 237: 139 140,
  s 238: 109 116,
  s 239: 140 116,
  s 240: 109 103,
  s 241: 74 103,
  s 242: 76 101,
  s 243: 80 120,
  s 244: 82 120,
  s 245: 110 122,
  s 246: 112 141,
  s 247: 122 141,
  s 248: 113 142,
  s 249: 141 142,
  s 250: 114 143,
  s 251: 142 143,
  s 252: 115 144,
  s 253: 143 144,
  s 254: 144 40,
  s 255: 137 123,
  s 256: 138 124,
  s 257: 139 125,
  s 258: 140 126,
  s 259: 116 127,
  s 260: 104 128,
  s 261: 102 128,
  s 262: 117 129,
  s 263: 118 130,
  s 264: 119 131,
  s 265: 121 131,
  s 266: 122 132,
  s 267: 141 133,
  s 268: 142 134,
  s 269: 143 135,
  s 270: 144 136,
  s 271: 33 46,
  s 272: 3 48,
  s 273: 31 61,
  s 274: 64 46,
  s 275: 96 93,
  s 276: 95 39,
  s 277: 41 2,
  s 278: 31 44,
  s 279: 102 103,
  s 280: 97 78,
  s 281: 110 84,
  s 282: 117 101,
  s 283: 118 100,
  s 284: 118 120,
  s 285: 121 120,
  s 286: 103 72,
  s 287: 101 74,
  s 288: 100 76,
  s 289: 111 82,
  s 290: 129 102,
  s 291: 131 118;
CdefIA 148: 
  c 1: 1 2 -3 -4,
  c 2: 5 6 -7 -8,
  c 3: 9 10 -11 -12,
  c 4: 13 14 -15 -16,
  c 5: 17 18 -19 -20,
  c 6: 21 22 -23 -24,
  c 7: 25 26 -27 -28,
  c 8: 29 30 -31 -32,
  c 9: 3 33 -17 -34,
  c 10: 19 35 -9 -36,
  c 11: 23 37 -5 -38,
  c 12: 11 39 -21 -40,
  c 13: 27 41 -13 -42,
  c 14: 7 43 -25 -44,
  c 15: 15 45 -29 -46,
  c 16: -48 49 50 -47,
  c 17: -52 53 54 -51,
  c 18: -50 56 57 -55,
  c 19: -54 59 60 -58,
  c 20: -61 -62 -271,
  c 21: -64 -65 -272,
  c 22: -67 -68 64 33,
  c 23: -69 -70 67 18,
  c 24: -71 -72 69 35,
  c 25: -73 -74 71 10,
  c 26: -75 -76 73 39,
  c 27: -77 -78 75 22,
  c 28: -79 -80 77 37,
  c 29: -81 -82 79 6,
  c 30: -83 -84 81 43,
  c 31: -85 -86 83 26,
  c 32: -87 -88 85 41,
  c 33: -89 -90 87 14,
  c 34: -91 -92 89 45,
  c 35: -93 -94 -273,
  c 36: -95 -96 -274,
  c 37: -98 -99 95 100,
  c 38: -101 -102 98 103,
  c 39: -104 -105 101 106,
  c 40: -107 -108 104 109,
  c 41: -111 107 112 -110,
  c 42: -114 110 115 -113,
  c 43: -116 -117 113 118,
  c 44: -119 -120 116 121,
  c 45: -123 119 124 -122,
  c 46: -126 122 127 -125,
  c 47: -129 125 130 -128,
  c 48: -131 -132 128 133,
  c 49: -134 -135 131 136,
  c 50: -137 -138 134 139,
  c 51: -140 -141 137 142,
  c 52: -143 -144 -275,
  c 53: 143 146 -276,
  c 54: -57 148 -277,
  c 55: -150 -60 -278,
  c 56: -153 154 155 -152,
  c 57: -156 157 -279,
  c 58: -97 61 161 -160,
  c 59: -162 -100 160 163,
  c 60: -164 -103 162 165,
  c 61: -166 -106 164 167,
  c 62: -168 -109 166 169,
  c 63: -170 -118 171,
  c 64: -172 -121 -280,
  c 65: -173 -130 -281,
  c 66: -176 -133 173 177,
  c 67: -178 -136 176 179,
  c 68: -180 -139 178 181,
  c 69: -182 -142 180 183,
  c 70: -145 182 184 -146,
  c 71: -158 185 186,
  c 72: -187 -188 -282,
  c 73: -190 -155 -283,
  c 74: -192 -193 -284,
  c 75: -195 -196 -285,
  c 76: -198 195 199,
  c 77: -200 152 194,
  c 78: -201 -202 149 65,
  c 79: -203 -204 201 68,
  c 80: -205 -206 203 70,
  c 81: -207 -208 205 72,
  c 82: -209 -210 207 74,
  c 83: -211 -212 209 76,
  c 84: -213 -214 211 78,
  c 85: -215 -216 213 80,
  c 86: -217 -218 215 82,
  c 87: -219 -220 217 84,
  c 88: -221 -222 219 86,
  c 89: -223 -224 221 88,
  c 90: -225 -226 223 90,
  c 91: -227 -228 225 92,
  c 92: -151 -229 227 94,
  c 93: -230 -161 47 231,
  c 94: -232 -163 230 233,
  c 95: -234 -165 232 235,
  c 96: -236 -167 234 237,
  c 97: -238 -169 236 239,
  c 98: -240 238 -185,
  c 99: -241 -112 -286,
  c 100: -242 -115 -287,
  c 101: -154 -171 -288,
  c 102: -243 172 200,
  c 103: -244 -124 243,
  c 104: -174 -127 -289,
  c 105: -245 175 198,
  c 106: -246 -177 245 247,
  c 107: -248 -179 246 249,
  c 108: -250 -181 248 251,
  c 109: -252 -183 250 253,
  c 110: -53 -184 252 254,
  c 111: -255 -231 55 202,
  c 112: -256 -233 255 204,
  c 113: -257 -235 256 206,
  c 114: -258 -237 257 208,
  c 115: -259 -239 258 210,
  c 116: -260 -186 259 212,
  c 117: -261 159 260,
  c 118: -262 -189 -290,
  c 119: -263 -191 262 216,
  c 120: -264 192 -291,
  c 121: -265 -197 264,
  c 122: -266 -199 265 220,
  c 123: -267 -247 266 222,
  c 124: -268 -249 267 224,
  c 125: -269 -251 268 226,
  c 126: -270 -253 269 228,
  c 127: -59 -254 270 229,
  c 128: 63 48 271,
  c 129: 66 2 272,
  c 130: 91 30 273,
  c 131: 62 97 274,
  c 132: 140 145 275,
  c 133: 52 -147 276,
  c 134: -66 -149 277,
  c 135: 151 93 278,
  c 136: 158 -159 279,
  c 137: 170 153 280,
  c 138: 174 -175 281,
  c 139: 156 189 282,
  c 140: 187 191 283,
  c 141: -194 190 284,
  c 142: 193 197 285,
  c 143: 168 240 286,
  c 144: 241 -157 287,
  c 145: 242 188 288,
  c 146: 244 196 289,
  c 147: 261 214 290,
  c 148: 263 218 291;
beg_Xinfo :
beg_layer /1:
  Mask: 5;
  Type: via;
  Level: 0;
  Plane: z = [0, 0.001524];
  Fill: impedance 0 0 precedence 0;
  CrefRA 15 { 
  1 2 3 4 5 6 7 8 9 10
  11 12 13 14 15 }
end_layer /1;
beg_layer /2:
  Mask: 1;
  Type: metal;
  Level: 0;
  Plane: z = 0.001524;
  Fill: condthickness 58000000 3.5e-005 M precedence 0;
  CrefRA 133 { 
  16 20 128 58 36 131 37 59 94 93 111 18
  54 134 21 129 22 79 112 113 95 60 38 39
  61 96 114 81 80 23 24 25 82 115
  97 62 40 41 99 143 100 144 101 145 56 64 137 102
  103 104 146 65 138 66 48 47 46 45 44 43
  42 63 49 67 107 106 105 76 75 142 74 141
  120 148 121 122 87 86 85 119 73 140 72 139 57 136
  71 98 116 83 26 27 84 118 147 117 28
  29 30 31 88 123 124 89 32 33 90
  125 108 68 50 51 69 109 126 91 34
  35 130 55 135 19 17 53 133 52 132 70 110 127 92
  77 78 }
  RGrid 0.004,0.004 -1.5707963267949 1: 
  0,0.028 13,3 32:
    6,1 c 119, 6,2 c 85, 7,2 c 84, 8,2 c 83, 9,2 c 82, 
    10,2 c 81, 11,2 c 80, 12,2 c 79, 10,1 c 114, 10,0 c 96, 
    11,0 c 95, 8,1 c 116, 12,0 c 94, 5,2 c 86, 4,2 c 87, 
    3,2 c 88, 2,2 c 89, 2,1 c 124, 2,0 c 107, 3,0 c 106, 
    1,0 c 108, 0,0 c 109, 0,1 c 126, 0,2 c 91, 1,1 c 125, 
    9,0 c 97, 11,1 c 113, 12,1 c 112, 9,1 c 115, 1,2 c 90, 
    4,1 c 122, 3,1 c 123;
  RGrid 0.004,0.001 -1.5707963267949 1: 
  -0.00325,0.028 4,1 4:
    2,0 c 49, 1,0 c 50, 0,0 c 51, 3,0 c 48;
  RGrid 0.00425,0.004 -1.5707963267949 1: 
  0,-0.024 1,3 3:
    0,2 c 78, 0,1 c 111, 0,0 c 93;
  RGrid 0.004,0.001 -1.5707963267949 1: 
  -0.00325,-0.008 4,1 4:
    2,0 c 38, 1,0 c 39, 3,0 c 37, 0,0 c 40;
  RGrid 0.004,0.001 0 1: 
  0,-0.02925 2,1 2:
    1,0 c 18, 0,0 c 16;
  RGrid 0.004,0.000999999999999999 0 1: 
  0,0.03225 2,1 2:
    0,0 c 17, 1,0 c 19;
  RGrid 0.004,0.001 -1.5707963267949 1: 
  0.012,0.028 13,1 13:
    12,0 c 22, 11,0 c 23, 10,0 c 24, 9,0 c 25, 8,0 c 26, 
    7,0 c 27, 6,0 c 28, 5,0 c 29, 4,0 c 30, 3,0 c 31, 
    2,0 c 32, 1,0 c 33, 0,0 c 34;
  RGrid 0.004,0.00225 -1.5707963267949 1: 
  -0.00225,-0.008 4,1 4:
    0,0 c 62, 1,0 c 61, 2,0 c 60, 3,0 c 59;
  RGrid 0.00339789947090871,0.001 -1.5707963267949 1: 
  -0.00325,0.00425 2,1 2:
    1,0 c 43, 0,0 c 44;
  RGrid 0.004,0.00225 -1.5707963267949 1: 
  -0.00225,0.028 4,1 4:
    3,0 c 66, 2,0 c 67, 1,0 c 68, 0,0 c 69;
  RGrid 0.00425,0.004 -1.5707963267949 1: 
  0,0.03225 1,3 3:
    0,0 c 110, 0,1 c 127, 0,2 c 92;
end_layer /2;
end_Xinfo;
Overlap: 
  ErefRA 105 { 
  2 6 10 14 18 22 26 30 33 35
  37 39 41 43 45 47 49 51 53 55
  56 58 59 61 63 65 68 70 72 74
  76 78 80 82 84 86 88 90 92 94
  96 97 99 100 102 103 105 106 108 109
  111 112 114 115 117 118 120 121 123 124
  126 127 129 130 132 133 135 136 138 139
  141 142 144 145 146 147 148 149 150 151
  152 153 154 155 172 170 187 190 1 4
  8 12 16 20 24 28 31 32 34 36
  38 40 42 44 46 };
BdefIA 265: 
  b 1: -1 e 1 c 129, e 1 c 1;
  b 2: e 3 c 1;
  b 3: -1 e 3 c 29, e 1 c 2;
  b 4: e 3 c 2;
  b 5: -1 e 3 c 25, e 1 c 3;
  b 6: e 3 c 3;
  b 7: -1 e 3 c 33, e 1 c 4;
  b 8: e 3 c 4;
  b 9: -1 e 3 c 23, e 1 c 5;
  b 10: e 3 c 5;
  b 11: -1 e 3 c 27, e 1 c 6;
  b 12: e 3 c 6;
  b 13: -1 e 3 c 31, e 1 c 7;
  b 14: e 3 c 7;
  b 15: -1 e 1 c 130, e 1 c 8;
  b 16: e 3 c 8;
  b 17: -1 e 3 c 22, e 1 c 9;
  b 18: e 3 c 9;
  b 19: -1 e 3 c 24, e 1 c 10;
  b 20: e 3 c 10;
  b 21: -1 e 3 c 28, e 1 c 11;
  b 22: e 3 c 11;
  b 23: -1 e 3 c 26, e 1 c 12;
  b 24: e 3 c 12;
  b 25: -1 e 3 c 32, e 1 c 13;
  b 26: e 3 c 13;
  b 27: -1 e 3 c 30, e 1 c 14;
  b 28: e 3 c 14;
  b 29: -1 e 3 c 34, e 1 c 15;
  b 30: e 3 c 15;
  b 31: -1 e 2 c 93, e 3 c 16;
  b 32: -1 e 1 c 128, e 0 c 16;
  b 33: -1 e 2 c 16, e 0 c 18;
  b 34: -1 e 0 c 133, e 0 c 17;
  b 35: -1 e 1 c 17, e 0 c 110;
  b 36: -1 e 2 c 17, e 0 c 19;
  b 37: -1 e 2 c 111, e 3 c 18;
  b 38: -1 e 2 c 18, e 0 c 54;
  b 39: -1 e 1 c 19, e 0 c 127;
  b 40: -1 e 2 c 19, e 1 c 55;
  b 41: -1 e 1 c 58, e 0 c 20;
  b 42: -1 e 0 c 131, e 1 c 20;
  b 43: -1 e 2 c 22, e 0 c 21;
  b 44: -1 e 3 c 78, e 1 c 21;
  b 45: -1 e 0 c 129, e 0 c 134;
  b 46: -1 e 2 c 23, e 0 c 22;
  b 47: -1 e 3 c 79, e 1 c 22;
  b 48: -1 e 2 c 24, e 0 c 23;
  b 49: -1 e 3 c 80, e 1 c 23;
  b 50: -1 e 2 c 25, e 0 c 24;
  b 51: -1 e 3 c 81, e 1 c 24;
  b 52: -1 e 2 c 26, e 0 c 25;
  b 53: -1 e 3 c 82, e 1 c 25;
  b 54: -1 e 2 c 27, e 0 c 26;
  b 55: -1 e 3 c 83, e 1 c 26;
  b 56: -1 e 2 c 28, e 0 c 27;
  b 57: -1 e 3 c 84, e 1 c 27;
  b 58: -1 e 2 c 29, e 0 c 28;
  b 59: -1 e 3 c 85, e 1 c 28;
  b 60: -1 e 2 c 30, e 0 c 29;
  b 61: -1 e 3 c 86, e 1 c 29;
  b 62: -1 e 2 c 31, e 0 c 30;
  b 63: -1 e 3 c 87, e 1 c 30;
  b 64: -1 e 2 c 32, e 0 c 31;
  b 65: -1 e 3 c 88, e 1 c 31;
  b 66: -1 e 2 c 33, e 0 c 32;
  b 67: -1 e 3 c 89, e 1 c 32;
  b 68: -1 e 2 c 34, e 0 c 33;
  b 69: -1 e 3 c 90, e 1 c 33;
  b 70: -1 e 0 c 130, e 0 c 34;
  b 71: -1 e 3 c 91, e 1 c 34;
  b 72: -1 e 1 c 135, e 0 c 35;
  b 73: -1 e 3 c 92, e 1 c 35;
  b 74: -1 e 2 c 37, e 0 c 36;
  b 75: -1 e 1 c 131, e 0 c 58;
  b 76: -1 e 2 c 38, e 0 c 37;
  b 77: -1 e 3 c 37, e 1 c 59;
  b 78: -1 e 2 c 39, e 0 c 38;
  b 79: -1 e 3 c 38, e 1 c 60;
  b 80: -1 e 2 c 40, e 0 c 39;
  b 81: -1 e 3 c 39, e 1 c 61;
  b 82: -1 e 1 c 41, e 0 c 40;
  b 83: -1 e 3 c 40, e 1 c 62;
  b 84: -1 e 1 c 42, e 3 c 41;
  b 85: -1 e 2 c 41, e 1 c 99;
  b 86: -1 e 2 c 43, e 3 c 42;
  b 87: -1 e 2 c 42, e 1 c 100;
  b 88: -1 e 2 c 44, e 0 c 43;
  b 89: -1 e 3 c 43, e 1 c 63;
  b 90: -1 e 1 c 45, e 0 c 44;
  b 91: -1 e 3 c 44, e 1 c 64;
  b 92: -1 e 1 c 46, e 3 c 45;
  b 93: -1 e 2 c 45, e 1 c 103;
  b 94: -1 e 1 c 47, e 3 c 46;
  b 95: -1 e 2 c 46, e 1 c 104;
  b 96: -1 e 2 c 48, e 3 c 47;
  b 97: -1 e 2 c 47, e 1 c 65;
  b 98: -1 e 2 c 49, e 0 c 48;
  b 99: -1 e 3 c 48, e 1 c 66;
  b 100: -1 e 2 c 50, e 0 c 49;
  b 101: -1 e 3 c 49, e 1 c 67;
  b 102: -1 e 2 c 51, e 0 c 50;
  b 103: -1 e 3 c 50, e 1 c 68;
  b 104: -1 e 0 c 132, e 0 c 51;
  b 105: -1 e 3 c 51, e 1 c 69;
  b 106: -1 e 0 c 53, e 0 c 52;
  b 107: -1 e 1 c 132, e 0 c 70;
  b 108: -1 e 1 c 53, e 3 c 70;
  b 109: -1 e 2 c 78, e 1 c 134;
  b 110: -1 e 0 c 135, e 0 c 92;
  b 111: -1 e 1 c 77, e 3 c 56;
  b 112: -1 e 1 c 137, e 0 c 56;
  b 113: -1 e 1 c 56, e 0 c 101;
  b 114: -1 e 2 c 56, e 1 c 73;
  b 115: -1 e 0 c 139, e 0 c 57;
  b 116: -1 e 1 c 57, e 1 c 144;
  b 117: -1 e 0 c 136, e 0 c 71;
  b 118: -1 e 1 c 117, e 1 c 136;
  b 119: -1 e 2 c 59, e 3 c 58;
  b 120: -1 e 2 c 58, e 1 c 93;
  b 121: -1 e 2 c 60, e 0 c 59;
  b 122: -1 e 3 c 59, e 1 c 94;
  b 123: -1 e 2 c 61, e 0 c 60;
  b 124: -1 e 3 c 60, e 1 c 95;
  b 125: -1 e 2 c 62, e 0 c 61;
  b 126: -1 e 3 c 61, e 1 c 96;
  b 127: -1 e 0 c 143, e 0 c 62;
  b 128: -1 e 3 c 62, e 1 c 97;
  b 129: -1 e 0 c 137, e 0 c 63;
  b 130: -1 e 2 c 63, e 1 c 101;
  b 131: -1 e 1 c 102, e 0 c 64;
  b 132: -1 e 2 c 66, e 0 c 65;
  b 133: -1 e 0 c 138, e 0 c 104;
  b 134: -1 e 1 c 105, e 1 c 138;
  b 135: -1 e 2 c 67, e 0 c 66;
  b 136: -1 e 3 c 66, e 1 c 106;
  b 137: -1 e 2 c 68, e 0 c 67;
  b 138: -1 e 3 c 67, e 1 c 107;
  b 139: -1 e 2 c 69, e 0 c 68;
  b 140: -1 e 3 c 68, e 1 c 108;
  b 141: -1 e 1 c 70, e 0 c 69;
  b 142: -1 e 3 c 69, e 1 c 109;
  b 143: -1 e 2 c 70, e 1 c 110;
  b 144: -1 e 1 c 71, e 2 c 98;
  b 145: -1 e 2 c 71, e 1 c 116;
  b 146: -1 e 0 c 140, e 0 c 72;
  b 147: -1 e 1 c 145, e 1 c 72;
  b 148: -1 e 1 c 139, e 1 c 118;
  b 149: -1 e 1 c 141, e 0 c 73;
  b 150: -1 e 1 c 140, e 1 c 119;
  b 151: -1 e 1 c 120, e 0 c 74;
  b 152: -1 e 0 c 142, e 1 c 74;
  b 153: -1 e 2 c 77, e 0 c 141;
  b 154: -1 e 1 c 76, e 0 c 75;
  b 155: -1 e 1 c 146, e 1 c 75;
  b 156: -1 e 1 c 142, e 1 c 121;
  b 157: -1 e 2 c 105, e 0 c 76;
  b 158: -1 e 2 c 76, e 1 c 122;
  b 159: -1 e 2 c 102, e 0 c 77;
  b 160: -1 e 2 c 79, e 0 c 78;
  b 161: -1 e 3 c 111, e 1 c 78;
  b 162: -1 e 2 c 80, e 0 c 79;
  b 163: -1 e 3 c 112, e 1 c 79;
  b 164: -1 e 2 c 81, e 0 c 80;
  b 165: -1 e 3 c 113, e 1 c 80;
  b 166: -1 e 2 c 82, e 0 c 81;
  b 167: -1 e 3 c 114, e 1 c 81;
  b 168: -1 e 2 c 83, e 0 c 82;
  b 169: -1 e 3 c 115, e 1 c 82;
  b 170: -1 e 2 c 84, e 0 c 83;
  b 171: -1 e 3 c 116, e 1 c 83;
  b 172: -1 e 2 c 85, e 0 c 84;
  b 173: -1 e 1 c 147, e 1 c 84;
  b 174: -1 e 2 c 86, e 0 c 85;
  b 175: -1 e 3 c 119, e 1 c 85;
  b 176: -1 e 2 c 87, e 0 c 86;
  b 177: -1 e 1 c 148, e 1 c 86;
  b 178: -1 e 2 c 88, e 0 c 87;
  b 179: -1 e 3 c 122, e 1 c 87;
  b 180: -1 e 2 c 89, e 0 c 88;
  b 181: -1 e 3 c 123, e 1 c 88;
  b 182: -1 e 2 c 90, e 0 c 89;
  b 183: -1 e 3 c 124, e 1 c 89;
  b 184: -1 e 2 c 91, e 0 c 90;
  b 185: -1 e 3 c 125, e 1 c 90;
  b 186: -1 e 2 c 92, e 0 c 91;
  b 187: -1 e 3 c 126, e 1 c 91;
  b 188: -1 e 3 c 127, e 1 c 92;
  b 189: -1 e 2 c 94, e 0 c 93;
  b 190: -1 e 3 c 93, e 1 c 111;
  b 191: -1 e 2 c 95, e 0 c 94;
  b 192: -1 e 3 c 94, e 1 c 112;
  b 193: -1 e 2 c 96, e 0 c 95;
  b 194: -1 e 3 c 95, e 1 c 113;
  b 195: -1 e 2 c 97, e 0 c 96;
  b 196: -1 e 3 c 96, e 1 c 114;
  b 197: -1 e 1 c 98, e 0 c 97;
  b 198: -1 e 3 c 97, e 1 c 115;
  b 199: -1 e 1 c 143, e 0 c 98;
  b 200: -1 e 0 c 144, e 0 c 99;
  b 201: -1 e 0 c 145, e 0 c 100;
  b 202: -1 e 2 c 103, e 0 c 102;
  b 203: -1 e 0 c 146, e 0 c 103;
  b 204: -1 e 2 c 106, e 0 c 105;
  b 205: -1 e 2 c 107, e 0 c 106;
  b 206: -1 e 3 c 106, e 1 c 123;
  b 207: -1 e 2 c 108, e 0 c 107;
  b 208: -1 e 3 c 107, e 1 c 124;
  b 209: -1 e 2 c 109, e 0 c 108;
  b 210: -1 e 3 c 108, e 1 c 125;
  b 211: -1 e 2 c 110, e 0 c 109;
  b 212: -1 e 3 c 109, e 1 c 126;
  b 213: -1 e 3 c 110, e 1 c 127;
  b 214: -1 e 2 c 112, e 0 c 111;
  b 215: -1 e 2 c 113, e 0 c 112;
  b 216: -1 e 2 c 114, e 0 c 113;
  b 217: -1 e 2 c 115, e 0 c 114;
  b 218: -1 e 2 c 116, e 0 c 115;
  b 219: -1 e 2 c 117, e 0 c 116;
  b 220: -1 e 0 c 147, e 0 c 117;
  b 221: -1 e 2 c 119, e 0 c 118;
  b 222: -1 e 0 c 148, e 0 c 119;
  b 223: -1 e 2 c 121, e 0 c 120;
  b 224: -1 e 2 c 122, e 0 c 121;
  b 225: -1 e 2 c 123, e 0 c 122;
  b 226: -1 e 2 c 124, e 0 c 123;
  b 227: -1 e 2 c 125, e 0 c 124;
  b 228: -1 e 2 c 126, e 0 c 125;
  b 229: -1 e 2 c 127, e 0 c 126;
  b 230: e 0 c 56;
  b 231: -1 e 2 c 1, e 0 c 9;
  b 232: -1 e 0 c 5, e 2 c 9;
  b 233: -1 e 2 c 5, e 0 c 10;
  b 234: -1 e 0 c 3, e 2 c 10;
  b 235: -1 e 2 c 3, e 0 c 12;
  b 236: -1 e 0 c 6, e 2 c 12;
  b 237: -1 e 2 c 6, e 0 c 11;
  b 238: -1 e 0 c 2, e 2 c 11;
  b 239: -1 e 2 c 2, e 0 c 14;
  b 240: -1 e 0 c 7, e 2 c 14;
  b 241: -1 e 2 c 7, e 0 c 13;
  b 242: -1 e 0 c 4, e 2 c 13;
  b 243: -1 e 2 c 4, e 0 c 15;
  b 244: -1 e 0 c 8, e 2 c 15;
  b 245: -1 e 2 c 20, e 2 c 128;
  b 246: -1 e 2 c 21, e 2 c 129;
  b 247: -1 e 2 c 35, e 2 c 130;
  b 248: -1 e 2 c 36, e 2 c 131;
  b 249: -1 e 2 c 52, e 2 c 132;
  b 250: -1 e 2 c 53, e 2 c 133;
  b 251: -1 e 2 c 54, e 2 c 134;
  b 252: -1 e 2 c 55, e 2 c 135;
  b 253: -1 e 2 c 57, e 2 c 136;
  b 254: -1 e 2 c 64, e 2 c 137;
  b 255: -1 e 2 c 65, e 2 c 138;
  b 256: -1 e 2 c 72, e 2 c 139;
  b 257: -1 e 2 c 73, e 2 c 140;
  b 258: -1 e 2 c 74, e 2 c 141;
  b 259: -1 e 2 c 75, e 2 c 142;
  b 260: -1 e 2 c 99, e 2 c 143;
  b 261: -1 e 2 c 100, e 2 c 144;
  b 262: -1 e 2 c 101, e 2 c 145;
  b 263: -1 e 2 c 104, e 2 c 146;
  b 264: -1 e 2 c 118, e 2 c 147;
  b 265: -1 e 2 c 120, e 2 c 148;
;
PdefRA 1 {
GdefRA 1 /Zd 1 {50 0} {
  Prt 1 : CrefRA 1 { 56 };
}
}
end_momMdl;
end_ckt proj;
