beg_ckt proj :
beg_layout :
  Units: m;
  EgsUnits: mm;
  Resolution: 2.5e-008 units;
  EgsResolution: 0.0001 egsunits;
end_layout;
beg_momMdl :
Mesh: 
  Freq: 2.6; 
  Cd: 0.004; 
  CpWl: 20; 
  Extraction: 1; 
  Expansion: 0; 
;
NdefIA 152: 
  p 1: 0.01104 -0.02925 0,
  p 2: 0.01104 -0.02925 0.001524,
  p 3: 0.01104 -0.024 0.001524,
  p 4: 0.01104 -0.024 0,
  p 5: 0.01104 -0.00575187119252529 0,
  p 6: 0.01104 -0.00575187119252529 0.001524,
  p 7: 0.01104 -0.00251458079501686 0.001524,
  p 8: 0.01104 -0.00251458079501686 0,
  p 9: 0.01104 0.00975187119252529 0,
  p 10: 0.01104 0.00975187119252529 0.001524,
  p 11: 0.01104 0.012 0.001524,
  p 12: 0.01104 0.012 0,
  p 13: 0.01104 0.0037518711925253 0,
  p 14: 0.01104 0.0037518711925253 0.001524,
  p 15: 0.01104 0.00651458079501686 0.001524,
  p 16: 0.01104 0.00651458079501686 0,
  p 17: 0.01104 0.000248128807474705 0,
  p 18: 0.01104 0.000248128807474705 0.001524,
  p 19: 0.01104 0.02 0,
  p 20: 0.01104 0.02 0.001524,
  p 21: 0.01104 0.024 0.001524,
  p 22: 0.01104 0.024 0,
  p 23: 0.01104 0.028 0,
  p 24: 0.01104 0.028 0.001524,
  p 25: 0.01104 0.03325 0.001524,
  p 26: 0.01104 0.03325 0,
  p 27: 0.01104 0.016 0,
  p 28: 0.01104 0.016 0.001524,
  p 29: 0.01104 -0.016 0,
  p 30: 0.01104 -0.016 0.001524,
  p 31: 0.01104 -0.012 0.001524,
  p 32: 0.01104 -0.012 0,
  p 33: 0.01104 -0.02 0.001524,
  p 34: 0.01104 -0.02 0,
  p 35: 0.01104 -0.008 0.001524,
  p 36: 0.01104 -0.008 0,
  p 37: 0 -0.02825 0.001524,
  p 38: 0.004 -0.02825 0.001524,
  p 39: 0 -0.02925 0.001524,
  p 40: 0.004 -0.02925 0.001524,
  p 41: 0 0.03325 0.001524,
  p 42: 0.004 0.03325 0.001524,
  p 43: 0 0.03225 0.001524,
  p 44: 0.004 0.03225 0.001524,
  p 45: 0.008 -0.02825 0.001524,
  p 46: 0.008 -0.02925 0.001524,
  p 47: 0.008 0.03325 0.001524,
  p 48: 0.008 0.03225 0.001524,
  p 49: -0.00396 -0.02825 0.001524,
  p 50: -0.00496 -0.02925 0.001524,
  p 51: -0.00496 -0.024 0.001524,
  p 52: -0.00396 -0.024 0.001524,
  p 53: -0.00496 -0.02 0.001524,
  p 54: -0.00396 -0.02 0.001524,
  p 55: -0.00496 -0.016 0.001524,
  p 56: -0.00396 -0.016 0.001524,
  p 57: -0.00496 -0.012 0.001524,
  p 58: -0.00396 -0.012 0.001524,
  p 59: -0.00496 -0.008 0.001524,
  p 60: -0.00396 -0.008 0.001524,
  p 61: -0.00496 -0.00575187119252529 0.001524,
  p 62: -0.00396 -0.00575187119252529 0.001524,
  p 63: -0.00496 -0.00196 0.001524,
  p 64: -0.00396 -0.00196 0.001524,
  p 65: -0.00496 0.000248128807474705 0.001524,
  p 66: -0.00396 0.000248128807474705 0.001524,
  p 67: -0.00496 0.0037518711925253 0.001524,
  p 68: -0.00396 0.0037518711925253 0.001524,
  p 69: -0.00496 0.00596 0.001524,
  p 70: -0.00396 0.00596 0.001524,
  p 71: -0.00496 0.00975187119252529 0.001524,
  p 72: -0.00396 0.00975187119252529 0.001524,
  p 73: -0.00496 0.012 0.001524,
  p 74: -0.00396 0.012 0.001524,
  p 75: -0.00496 0.016 0.001524,
  p 76: -0.00396 0.016 0.001524,
  p 77: -0.00496 0.02 0.001524,
  p 78: -0.00396 0.02 0.001524,
  p 79: -0.00496 0.024 0.001524,
  p 80: -0.00396 0.024 0.001524,
  p 81: -0.00496 0.028 0.001524,
  p 82: -0.00396 0.028 0.001524,
  p 83: -0.00496 0.03325 0.001524,
  p 84: -0.00396 0.03225 0.001524,
  p 85: 0.01004 -0.024 0.001524,
  p 86: 0.01004 -0.02825 0.001524,
  p 87: 0.01004 -0.02 0.001524,
  p 88: 0.01004 -0.016 0.001524,
  p 89: 0.01004 -0.012 0.001524,
  p 90: 0.01004 -0.008 0.001524,
  p 91: 0.01004 -0.00575187119252529 0.001524,
  p 92: 0.01004 -0.00251458079501686 0.001524,
  p 93: 0.01004 0.000248128807474705 0.001524,
  p 94: 0.01004 0.0037518711925253 0.001524,
  p 95: 0.01004 0.00651458079501686 0.001524,
  p 96: 0.01004 0.00975187119252529 0.001524,
  p 97: 0.01004 0.012 0.001524,
  p 98: 0.01004 0.016 0.001524,
  p 99: 0.01004 0.02 0.001524,
  p 100: 0.01004 0.024 0.001524,
  p 101: 0.01004 0.028 0.001524,
  p 102: 0.01004 0.03225 0.001524,
  p 103: -0.0017518711925253 0.0037518711925253 0.001524,
  p 104: 0.0017518711925253 0.0037518711925253 0.001524,
  p 105: -0.0017518711925253 0.000248128807474705 0.001524,
  p 106: 0.0017518711925253 0.000248128807474705 0.001524,
  p 107: 0.00404 -0.0037518711925253 0.001524,
  p 108: 0.00727729039750843 -0.00251458079501686 0.001524,
  p 109: 0.00604 -0.00575187119252529 0.001524,
  p 110: 0.00451458079501686 0.000248128807474705 0.001524,
  p 111: 0.00727729039750843 0.000248128807474705 0.001524,
  p 112: 0.00451458079501686 0.0037518711925253 0.001524,
  p 113: 0.00727729039750843 0.0037518711925253 0.001524,
  p 114: 0.00404 0.0077518711925253 0.001524,
  p 115: 0.00727729039750843 0.00651458079501686 0.001524,
  p 116: 0.00604 0.0097518711925253 0.001524,
  p 117: -0.0017518711925253 -0.00196 0.001524,
  p 118: 0.00204 -0.00375187119252529 0.001524,
  p 119: 4.00000000000001e-005 -0.00575187119252529 0.001524,
  p 120: -0.0017518711925253 0.00596 0.001524,
  p 121: 0.00204 0.0077518711925253 0.001524,
  p 122: 4.00000000000001e-005 0.0097518711925253 0.001524,
  p 123: 0.004 -0.008 0.001524,
  p 124: 0.004 0.012 0.001524,
  p 125: 0.008 -0.024 0.001524,
  p 126: 0.008 -0.02 0.001524,
  p 127: 0.008 -0.016 0.001524,
  p 128: 0.008 -0.012 0.001524,
  p 129: 0.008 -0.008 0.001524,
  p 130: 0.008 0.012 0.001524,
  p 131: 0.008 0.016 0.001524,
  p 132: 0.008 0.02 0.001524,
  p 133: 0.008 0.024 0.001524,
  p 134: 0.008 0.028 0.001524,
  p 135: 0 -0.024 0.001524,
  p 136: 0 -0.02 0.001524,
  p 137: 0 -0.016 0.001524,
  p 138: 0 -0.012 0.001524,
  p 139: 0 -0.008 0.001524,
  p 140: 0 0.012 0.001524,
  p 141: 0 0.016 0.001524,
  p 142: 0 0.02 0.001524,
  p 143: 0 0.024 0.001524,
  p 144: 0 0.028 0.001524,
  p 145: 0.004 -0.024 0.001524,
  p 146: 0.004 -0.02 0.001524,
  p 147: 0.004 -0.016 0.001524,
  p 148: 0.004 -0.012 0.001524,
  p 149: 0.004 0.016 0.001524,
  p 150: 0.004 0.02 0.001524,
  p 151: 0.004 0.024 0.001524,
  p 152: 0.004 0.028 0.001524;
EdefIA 309: 
  s 1: 1 2,
  s 2: 2 3,
  s 3: 4 3,
  s 4: 1 4,
  s 5: 5 6,
  s 6: 6 7,
  s 7: 8 7,
  s 8: 5 8,
  s 9: 9 10,
  s 10: 10 11,
  s 11: 12 11,
  s 12: 9 12,
  s 13: 13 14,
  s 14: 14 15,
  s 15: 16 15,
  s 16: 13 16,
  s 17: 17 18,
  s 18: 18 14,
  s 19: 17 13,
  s 20: 15 10,
  s 21: 16 9,
  s 22: 7 18,
  s 23: 8 17,
  s 24: 19 20,
  s 25: 20 21,
  s 26: 22 21,
  s 27: 19 22,
  s 28: 23 24,
  s 29: 24 25,
  s 30: 26 25,
  s 31: 23 26,
  s 32: 27 28,
  s 33: 28 20,
  s 34: 27 19,
  s 35: 21 24,
  s 36: 22 23,
  s 37: 11 28,
  s 38: 12 27,
  s 39: 29 30,
  s 40: 30 31,
  s 41: 32 31,
  s 42: 29 32,
  s 43: 3 33,
  s 44: 34 33,
  s 45: 4 34,
  s 46: 31 35,
  s 47: 36 35,
  s 48: 32 36,
  s 49: 33 30,
  s 50: 34 29,
  s 51: 35 6,
  s 52: 36 5,
  s 53: 37 38,
  s 54: 39 37,
  s 55: 39 40,
  s 56: 40 38,
  s 57: 41 42,
  s 58: 43 41,
  s 59: 43 44,
  s 60: 44 42,
  s 61: 38 45,
  s 62: 40 46,
  s 63: 46 45,
  s 64: 42 47,
  s 65: 44 48,
  s 66: 48 47,
  s 67: 49 37,
  s 68: 50 49,
  s 69: 50 39,
  s 70: 51 52,
  s 71: 50 51,
  s 72: 49 52,
  s 73: 53 54,
  s 74: 51 53,
  s 75: 52 54,
  s 76: 55 56,
  s 77: 53 55,
  s 78: 54 56,
  s 79: 57 58,
  s 80: 55 57,
  s 81: 56 58,
  s 82: 59 60,
  s 83: 57 59,
  s 84: 58 60,
  s 85: 61 62,
  s 86: 59 61,
  s 87: 60 62,
  s 88: 63 64,
  s 89: 61 63,
  s 90: 62 64,
  s 91: 65 66,
  s 92: 63 65,
  s 93: 64 66,
  s 94: 67 68,
  s 95: 65 67,
  s 96: 66 68,
  s 97: 69 70,
  s 98: 67 69,
  s 99: 68 70,
  s 100: 71 72,
  s 101: 69 71,
  s 102: 70 72,
  s 103: 73 74,
  s 104: 71 73,
  s 105: 72 74,
  s 106: 75 76,
  s 107: 73 75,
  s 108: 74 76,
  s 109: 77 78,
  s 110: 75 77,
  s 111: 76 78,
  s 112: 79 80,
  s 113: 77 79,
  s 114: 78 80,
  s 115: 81 82,
  s 116: 79 81,
  s 117: 80 82,
  s 118: 83 84,
  s 119: 81 83,
  s 120: 82 84,
  s 121: 84 43,
  s 122: 83 41,
  s 123: 85 3,
  s 124: 86 85,
  s 125: 86 2,
  s 126: 87 33,
  s 127: 85 87,
  s 128: 88 30,
  s 129: 87 88,
  s 130: 89 31,
  s 131: 88 89,
  s 132: 90 35,
  s 133: 89 90,
  s 134: 91 6,
  s 135: 90 91,
  s 136: 92 7,
  s 137: 91 92,
  s 138: 93 18,
  s 139: 92 93,
  s 140: 94 14,
  s 141: 93 94,
  s 142: 95 15,
  s 143: 94 95,
  s 144: 96 10,
  s 145: 95 96,
  s 146: 97 11,
  s 147: 96 97,
  s 148: 98 28,
  s 149: 97 98,
  s 150: 99 20,
  s 151: 98 99,
  s 152: 100 21,
  s 153: 99 100,
  s 154: 101 24,
  s 155: 100 101,
  s 156: 102 25,
  s 157: 101 102,
  s 158: 46 2,
  s 159: 45 86,
  s 160: 47 25,
  s 161: 48 102,
  s 162: 103 104,
  s 163: 105 103,
  s 164: 105 106,
  s 165: 106 104,
  s 166: 107 108,
  s 167: 107 109,
  s 168: 109 108,
  s 169: 110 111,
  s 170: 107 110,
  s 171: 108 111,
  s 172: 112 113,
  s 173: 110 112,
  s 174: 111 113,
  s 175: 114 115,
  s 176: 114 112,
  s 177: 113 115,
  s 178: 116 115,
  s 179: 114 116,
  s 180: 117 118,
  s 181: 117 119,
  s 182: 119 118,
  s 183: 117 105,
  s 184: 106 118,
  s 185: 120 121,
  s 186: 103 120,
  s 187: 104 121,
  s 188: 120 122,
  s 189: 122 121,
  s 190: 123 107,
  s 191: 123 109,
  s 192: 124 116,
  s 193: 121 124,
  s 194: 121 114,
  s 195: 125 85,
  s 196: 45 125,
  s 197: 126 87,
  s 198: 125 126,
  s 199: 127 88,
  s 200: 126 127,
  s 201: 128 89,
  s 202: 127 128,
  s 203: 129 90,
  s 204: 128 129,
  s 205: 130 97,
  s 206: 116 130,
  s 207: 116 96,
  s 208: 131 98,
  s 209: 130 131,
  s 210: 132 99,
  s 211: 131 132,
  s 212: 133 100,
  s 213: 132 133,
  s 214: 134 101,
  s 215: 133 134,
  s 216: 134 48,
  s 217: 52 135,
  s 218: 37 135,
  s 219: 54 136,
  s 220: 135 136,
  s 221: 56 137,
  s 222: 136 137,
  s 223: 58 138,
  s 224: 137 138,
  s 225: 60 139,
  s 226: 138 139,
  s 227: 62 119,
  s 228: 139 119,
  s 229: 64 117,
  s 230: 66 105,
  s 231: 68 103,
  s 232: 70 120,
  s 233: 72 122,
  s 234: 74 140,
  s 235: 140 122,
  s 236: 76 141,
  s 237: 140 141,
  s 238: 78 142,
  s 239: 141 142,
  s 240: 80 143,
  s 241: 142 143,
  s 242: 82 144,
  s 243: 143 144,
  s 244: 144 43,
  s 245: 135 145,
  s 246: 38 145,
  s 247: 136 146,
  s 248: 145 146,
  s 249: 137 147,
  s 250: 146 147,
  s 251: 138 148,
  s 252: 147 148,
  s 253: 139 123,
  s 254: 148 123,
  s 255: 119 123,
  s 256: 118 123,
  s 257: 118 107,
  s 258: 106 110,
  s 259: 104 112,
  s 260: 122 124,
  s 261: 140 124,
  s 262: 141 149,
  s 263: 124 149,
  s 264: 142 150,
  s 265: 149 150,
  s 266: 143 151,
  s 267: 150 151,
  s 268: 144 152,
  s 269: 151 152,
  s 270: 152 44,
  s 271: 145 125,
  s 272: 146 126,
  s 273: 147 127,
  s 274: 148 128,
  s 275: 123 129,
  s 276: 109 129,
  s 277: 109 91,
  s 278: 108 92,
  s 279: 111 93,
  s 280: 113 94,
  s 281: 115 95,
  s 282: 124 130,
  s 283: 149 131,
  s 284: 150 132,
  s 285: 151 133,
  s 286: 152 134,
  s 287: 37 50,
  s 288: 52 50,
  s 289: 84 81,
  s 290: 83 43,
  s 291: 3 86,
  s 292: 25 101,
  s 293: 45 2,
  s 294: 25 48,
  s 295: 111 107,
  s 296: 115 112,
  s 297: 105 118,
  s 298: 121 103,
  s 299: 116 121,
  s 300: 97 116,
  s 301: 119 60,
  s 302: 117 62,
  s 303: 122 70,
  s 304: 140 72,
  s 305: 110 118,
  s 306: 114 104,
  s 307: 91 129,
  s 308: 92 109,
  s 309: 96 115;
CdefIA 158: 
  c 1: 1 2 -3 -4,
  c 2: 5 6 -7 -8,
  c 3: 9 10 -11 -12,
  c 4: 13 14 -15 -16,
  c 5: 17 18 -13 -19,
  c 6: 15 20 -9 -21,
  c 7: 7 22 -17 -23,
  c 8: 24 25 -26 -27,
  c 9: 28 29 -30 -31,
  c 10: 32 33 -24 -34,
  c 11: 26 35 -28 -36,
  c 12: 11 37 -32 -38,
  c 13: 39 40 -41 -42,
  c 14: 3 43 -44 -45,
  c 15: 41 46 -47 -48,
  c 16: 44 49 -39 -50,
  c 17: 47 51 -5 -52,
  c 18: -54 55 56 -53,
  c 19: -58 59 60 -57,
  c 20: -56 62 63 -61,
  c 21: -60 65 66 -64,
  c 22: -67 -68 -287,
  c 23: -70 -71 -288,
  c 24: -73 -74 70 75,
  c 25: -76 -77 73 78,
  c 26: -79 -80 76 81,
  c 27: -82 -83 79 84,
  c 28: -86 82 87 -85,
  c 29: -89 85 90 -88,
  c 30: -92 88 93 -91,
  c 31: -95 91 96 -94,
  c 32: -98 94 99 -97,
  c 33: -101 97 102 -100,
  c 34: -104 100 105 -103,
  c 35: -106 -107 103 108,
  c 36: -109 -110 106 111,
  c 37: -112 -113 109 114,
  c 38: -115 -116 112 117,
  c 39: -118 -119 -289,
  c 40: 118 121 -290,
  c 41: -123 -124 -291,
  c 42: -126 -127 123 43,
  c 43: -128 -129 126 49,
  c 44: -130 -131 128 40,
  c 45: -132 -133 130 46,
  c 46: -135 132 51 -134,
  c 47: -137 134 6 -136,
  c 48: -139 136 22 -138,
  c 49: -141 138 18 -140,
  c 50: -143 140 14 -142,
  c 51: -145 142 20 -144,
  c 52: -147 144 10 -146,
  c 53: -148 -149 146 37,
  c 54: -150 -151 148 33,
  c 55: -152 -153 150 25,
  c 56: -154 -155 152 35,
  c 57: -156 -157 -292,
  c 58: -63 158 -293,
  c 59: -160 -66 -294,
  c 60: -163 164 165 -162,
  c 61: -166 167 168,
  c 62: -169 -170 -295,
  c 63: -172 -173 169 174,
  c 64: -175 176 -296,
  c 65: 175 -178 -179,
  c 66: -180 181 182,
  c 67: -183 180 -297,
  c 68: -185 -186 -298,
  c 69: -188 185 -189,
  c 70: -190 191 -167,
  c 71: -192 -193 -299,
  c 72: -196 159 124 -195,
  c 73: -197 -198 195 127,
  c 74: -199 -200 197 129,
  c 75: -201 -202 199 131,
  c 76: -203 -204 201 133,
  c 77: -205 -206 -300,
  c 78: -208 -209 205 149,
  c 79: -210 -211 208 151,
  c 80: -212 -213 210 153,
  c 81: -214 -215 212 155,
  c 82: -216 214 157 -161,
  c 83: -72 67 218 -217,
  c 84: -219 -75 217 220,
  c 85: -221 -78 219 222,
  c 86: -223 -81 221 224,
  c 87: -225 -84 223 226,
  c 88: -227 -87 -301,
  c 89: -229 -90 -302,
  c 90: -93 229 183 -230,
  c 91: -96 230 163 -231,
  c 92: -99 231 186 -232,
  c 93: -233 -102 -303,
  c 94: -234 -105 -304,
  c 95: -236 -108 234 237,
  c 96: -238 -111 236 239,
  c 97: -240 -114 238 241,
  c 98: -242 -117 240 243,
  c 99: -120 242 244 -121,
  c 100: -245 -218 53 246,
  c 101: -247 -220 245 248,
  c 102: -249 -222 247 250,
  c 103: -251 -224 249 252,
  c 104: -253 -226 251 254,
  c 105: -255 -228 253,
  c 106: -256 -182 255,
  c 107: -257 256 190,
  c 108: -258 184 -305,
  c 109: -259 -165 258 173,
  c 110: -194 -187 -306,
  c 111: -260 189 193,
  c 112: -261 235 260,
  c 113: -262 -237 261 263,
  c 114: -264 -239 262 265,
  c 115: -266 -241 264 267,
  c 116: -268 -243 266 269,
  c 117: -59 -244 268 270,
  c 118: -271 -246 61 196,
  c 119: -272 -248 271 198,
  c 120: -273 -250 272 200,
  c 121: -274 -252 273 202,
  c 122: -275 -254 274 204,
  c 123: -276 -191 275,
  c 124: -277 276 -307,
  c 125: -278 -168 -308,
  c 126: -171 278 139 -279,
  c 127: -280 -174 279 141,
  c 128: -177 280 143 -281,
  c 129: -207 178 -309,
  c 130: -282 192 206,
  c 131: -283 -263 282 209,
  c 132: -284 -265 283 211,
  c 133: -285 -267 284 213,
  c 134: -286 -269 285 215,
  c 135: -65 -270 286 216,
  c 136: 69 54 287,
  c 137: 68 72 288,
  c 138: 115 120 289,
  c 139: 58 -122 290,
  c 140: 125 2 291,
  c 141: 154 29 292,
  c 142: -125 -159 293,
  c 143: 161 156 294,
  c 144: 166 171 295,
  c 145: 172 177 296,
  c 146: -184 -164 297,
  c 147: 162 187 298,
  c 148: 194 179 299,
  c 149: 207 147 300,
  c 150: 225 228 301,
  c 151: 227 -181 302,
  c 152: 232 188 303,
  c 153: 233 -235 304,
  c 154: 257 170 305,
  c 155: 259 -176 306,
  c 156: 203 135 307,
  c 157: 277 137 308,
  c 158: 281 145 309;
beg_Xinfo :
beg_layer /1:
  Mask: 5;
  Type: via;
  Level: 0;
  Plane: z = [0, 0.001524];
  Fill: impedance 0 0 precedence 0;
  CrefRA 17 { 
  1 2 3 4 5 6 7 8 9 10
  11 12 13 14 15 16 17 }
end_layer /1;
beg_layer /2:
  Mask: 1;
  Type: metal;
  Level: 0;
  Plane: z = 0.001524;
  Fill: condthickness 58000000 3.5e-005 M precedence 0;
  CrefRA 141 { 
  18 22 136 83 23 137 24 84 101 100 118 20
  58 142 41 140 42 73 119 120 102 85 25 26
  86 103 121 75 74 43 44 45 76 122
  104 87 27 28 88 150 89 151 90 30 29 31
  91 60 67 146 66 106 107 108 154 109 63 62 144
  61 70 123 124 156 125 157 126 48 47 46 49
  127 128 64 145 65 129 158 77 149 78 131 113 95
  35 34 33 32 92 68 147 69 93 152 94 153 112
  111 71 148 130 110 155 36 96 114 132 79 54
  53 52 51 50 55 80 133 115 97 37
  38 98 116 134 81 56 57 141 59 143 21 19
  40 139 39 138 99 117 135 82 105 72 }
  RGrid 0.004,0.001 -1.5707963267949 1: 
  0.01004,-0.008 4,1 4:
    0,0 c 45, 1,0 c 44, 2,0 c 43, 3,0 c 42;
  RGrid 0.004,0.001 -1.5707963267949 1: 
  -0.00496,-0.008 4,1 4:
    2,0 c 25, 3,0 c 24, 1,0 c 26, 0,0 c 27;
  RGrid 0.004,0.004 -1.5707963267949 1: 
  0,-0.008 4,2 8:
    1,1 c 121, 2,1 c 120, 3,1 c 119, 3,0 c 101, 0,1 c 122, 
    1,0 c 103, 0,0 c 104, 2,0 c 102;
  RGrid 0.004,0.004 -1.5707963267949 1: 
  0,0.028 4,2 8:
    2,0 c 114, 1,0 c 115, 3,0 c 113, 2,1 c 132, 0,0 c 116, 
    0,1 c 134, 1,1 c 133, 3,1 c 131;
  RGrid 0.004,0.001 -1.5707963267949 1: 
  -0.00496,0.028 4,1 4:
    2,0 c 36, 3,0 c 35, 1,0 c 37, 0,0 c 38;
  RGrid 0.004,0.00204 -1.5707963267949 1: 
  0.008,-0.008 4,1 4:
    1,0 c 75, 2,0 c 74, 3,0 c 73, 0,0 c 76;
  RGrid 0.004,0.001 0 1: 
  0,-0.02925 2,1 2:
    1,0 c 20, 0,0 c 18;
  RGrid 0.00425,0.004 -1.5707963267949 1: 
  0,-0.024 1,2 2:
    0,0 c 100, 0,1 c 118;
  RGrid 0.004,0.00396 -1.5707963267949 1: 
  -0.00396,-0.008 4,1 4:
    0,0 c 87, 1,0 c 86, 2,0 c 85, 3,0 c 84;
  RGrid 0.004,0.00204 -1.5707963267949 1: 
  0.008,0.028 4,1 4:
    0,0 c 81, 1,0 c 80, 2,0 c 79, 3,0 c 78;
  RGrid 0.004,0.00396 -1.5707963267949 1: 
  -0.00396,0.028 4,1 4:
    2,0 c 96, 1,0 c 97, 0,0 c 98, 3,0 c 95;
  RGrid 0.004,0.001 -1.5707963267949 1: 
  0.01004,0.028 4,1 4:
    1,0 c 55, 2,0 c 54, 3,0 c 53, 0,0 c 56;
  RGrid 0.00350374238505059,0.00276270960249157 -1.5707963267949 1: 
  0.0017518711925253,0.0037518711925253 1,3 3:
    0,2 c 127, 0,1 c 63, 0,0 c 109;
  RGrid 0.004,0.000999999999999999 0 1: 
  0,0.03225 2,1 2:
    1,0 c 21, 0,0 c 19;
  RGrid 0.00425,0.004 -1.5707963267949 1: 
  0,0.03225 1,2 2:
    0,1 c 135, 0,0 c 117;
end_layer /2;
end_Xinfo;
Overlap: 
  ErefRA 111 { 
  2 6 10 14 18 20 22 25 29 33
  35 37 40 43 46 49 51 53 55 57
  59 61 62 64 65 67 69 71 72 74
  75 77 78 80 81 83 84 86 87 89
  90 92 93 95 96 98 99 101 102 104
  105 107 108 110 111 113 114 116 117 119
  120 121 122 124 127 129 131 133 135 137
  139 141 143 145 147 149 151 153 155 157
  158 159 160 161 162 163 164 165 186 230
  258 259 1 4 8 12 16 19 21 23
  27 30 31 34 36 38 42 45 48 50
  52 };
BdefIA 283: 
  b 1: -1 e 1 c 140, e 1 c 1;
  b 2: e 3 c 1;
  b 3: -1 e 2 c 47, e 1 c 2;
  b 4: e 3 c 2;
  b 5: -1 e 2 c 52, e 1 c 3;
  b 6: e 3 c 3;
  b 7: -1 e 2 c 50, e 1 c 4;
  b 8: e 3 c 4;
  b 9: -1 e 2 c 49, e 1 c 5;
  b 10: e 3 c 5;
  b 11: -1 e 2 c 51, e 1 c 6;
  b 12: e 3 c 6;
  b 13: -1 e 2 c 48, e 1 c 7;
  b 14: e 3 c 7;
  b 15: -1 e 3 c 55, e 1 c 8;
  b 16: e 3 c 8;
  b 17: -1 e 1 c 141, e 1 c 9;
  b 18: e 3 c 9;
  b 19: -1 e 3 c 54, e 1 c 10;
  b 20: e 3 c 10;
  b 21: -1 e 3 c 56, e 1 c 11;
  b 22: e 3 c 11;
  b 23: -1 e 3 c 53, e 1 c 12;
  b 24: e 3 c 12;
  b 25: -1 e 3 c 44, e 1 c 13;
  b 26: e 3 c 13;
  b 27: -1 e 3 c 42, e 1 c 14;
  b 28: e 3 c 14;
  b 29: -1 e 3 c 45, e 1 c 15;
  b 30: e 3 c 15;
  b 31: -1 e 3 c 43, e 1 c 16;
  b 32: e 3 c 16;
  b 33: -1 e 2 c 46, e 1 c 17;
  b 34: e 3 c 17;
  b 35: -1 e 2 c 100, e 3 c 18;
  b 36: -1 e 1 c 136, e 0 c 18;
  b 37: -1 e 2 c 18, e 0 c 20;
  b 38: -1 e 0 c 139, e 0 c 19;
  b 39: -1 e 1 c 19, e 0 c 117;
  b 40: -1 e 2 c 19, e 0 c 21;
  b 41: -1 e 2 c 118, e 3 c 20;
  b 42: -1 e 2 c 20, e 0 c 58;
  b 43: -1 e 1 c 21, e 0 c 135;
  b 44: -1 e 2 c 21, e 1 c 59;
  b 45: -1 e 1 c 83, e 0 c 22;
  b 46: -1 e 0 c 137, e 1 c 22;
  b 47: -1 e 2 c 24, e 0 c 23;
  b 48: -1 e 1 c 137, e 0 c 83;
  b 49: -1 e 2 c 25, e 0 c 24;
  b 50: -1 e 3 c 24, e 1 c 84;
  b 51: -1 e 2 c 26, e 0 c 25;
  b 52: -1 e 3 c 25, e 1 c 85;
  b 53: -1 e 2 c 27, e 0 c 26;
  b 54: -1 e 3 c 26, e 1 c 86;
  b 55: -1 e 1 c 28, e 0 c 27;
  b 56: -1 e 3 c 27, e 1 c 87;
  b 57: -1 e 1 c 29, e 3 c 28;
  b 58: -1 e 2 c 28, e 1 c 88;
  b 59: -1 e 1 c 30, e 3 c 29;
  b 60: -1 e 2 c 29, e 1 c 89;
  b 61: -1 e 1 c 31, e 3 c 30;
  b 62: -1 e 2 c 30, e 0 c 90;
  b 63: -1 e 1 c 32, e 3 c 31;
  b 64: -1 e 2 c 31, e 0 c 91;
  b 65: -1 e 1 c 33, e 3 c 32;
  b 66: -1 e 2 c 32, e 0 c 92;
  b 67: -1 e 1 c 34, e 3 c 33;
  b 68: -1 e 2 c 33, e 1 c 93;
  b 69: -1 e 2 c 35, e 3 c 34;
  b 70: -1 e 2 c 34, e 1 c 94;
  b 71: -1 e 2 c 36, e 0 c 35;
  b 72: -1 e 3 c 35, e 1 c 95;
  b 73: -1 e 2 c 37, e 0 c 36;
  b 74: -1 e 3 c 36, e 1 c 96;
  b 75: -1 e 2 c 38, e 0 c 37;
  b 76: -1 e 3 c 37, e 1 c 97;
  b 77: -1 e 0 c 138, e 0 c 38;
  b 78: -1 e 3 c 38, e 1 c 98;
  b 79: -1 e 0 c 40, e 0 c 39;
  b 80: -1 e 1 c 138, e 0 c 99;
  b 81: -1 e 1 c 40, e 3 c 99;
  b 82: -1 e 2 c 42, e 0 c 41;
  b 83: -1 e 2 c 72, e 1 c 41;
  b 84: -1 e 0 c 140, e 0 c 142;
  b 85: -1 e 2 c 43, e 0 c 42;
  b 86: -1 e 3 c 73, e 1 c 42;
  b 87: -1 e 2 c 44, e 0 c 43;
  b 88: -1 e 3 c 74, e 1 c 43;
  b 89: -1 e 2 c 45, e 0 c 44;
  b 90: -1 e 3 c 75, e 1 c 44;
  b 91: -1 e 1 c 46, e 0 c 45;
  b 92: -1 e 3 c 76, e 1 c 45;
  b 93: -1 e 1 c 47, e 3 c 46;
  b 94: -1 e 1 c 156, e 0 c 46;
  b 95: -1 e 1 c 48, e 3 c 47;
  b 96: -1 e 1 c 157, e 0 c 47;
  b 97: -1 e 1 c 49, e 3 c 48;
  b 98: -1 e 2 c 126, e 0 c 48;
  b 99: -1 e 1 c 50, e 3 c 49;
  b 100: -1 e 3 c 127, e 0 c 49;
  b 101: -1 e 1 c 51, e 3 c 50;
  b 102: -1 e 2 c 128, e 0 c 50;
  b 103: -1 e 1 c 52, e 3 c 51;
  b 104: -1 e 1 c 158, e 0 c 51;
  b 105: -1 e 2 c 53, e 3 c 52;
  b 106: -1 e 1 c 149, e 0 c 52;
  b 107: -1 e 2 c 54, e 0 c 53;
  b 108: -1 e 3 c 78, e 1 c 53;
  b 109: -1 e 2 c 55, e 0 c 54;
  b 110: -1 e 3 c 79, e 1 c 54;
  b 111: -1 e 2 c 56, e 0 c 55;
  b 112: -1 e 3 c 80, e 1 c 55;
  b 113: -1 e 0 c 141, e 0 c 56;
  b 114: -1 e 3 c 81, e 1 c 56;
  b 115: -1 e 1 c 143, e 0 c 57;
  b 116: -1 e 2 c 82, e 1 c 57;
  b 117: -1 e 1 c 72, e 1 c 142;
  b 118: -1 e 0 c 143, e 3 c 82;
  b 119: -1 e 0 c 147, e 3 c 60;
  b 120: -1 e 2 c 91, e 0 c 60;
  b 121: -1 e 1 c 60, e 1 c 146;
  b 122: -1 e 2 c 60, e 1 c 109;
  b 123: -1 e 0 c 144, e 0 c 61;
  b 124: -1 e 1 c 61, e 2 c 70;
  b 125: -1 e 2 c 61, e 1 c 125;
  b 126: -1 e 2 c 63, e 0 c 62;
  b 127: -1 e 1 c 154, e 1 c 62;
  b 128: -1 e 1 c 144, e 0 c 126;
  b 129: -1 e 0 c 145, e 0 c 63;
  b 130: -1 e 3 c 109, e 1 c 63;
  b 131: -1 e 3 c 63, e 1 c 127;
  b 132: -1 e 0 c 65, e 0 c 64;
  b 133: -1 e 1 c 64, e 1 c 155;
  b 134: -1 e 1 c 145, e 0 c 128;
  b 135: -1 e 1 c 129, e 1 c 65;
  b 136: -1 e 1 c 148, e 2 c 65;
  b 137: -1 e 1 c 67, e 0 c 66;
  b 138: -1 e 1 c 66, e 1 c 151;
  b 139: -1 e 2 c 66, e 1 c 106;
  b 140: -1 e 2 c 90, e 0 c 67;
  b 141: -1 e 1 c 108, e 0 c 146;
  b 142: -1 e 1 c 69, e 0 c 68;
  b 143: -1 e 2 c 92, e 1 c 68;
  b 144: -1 e 1 c 147, e 1 c 110;
  b 145: -1 e 1 c 152, e 0 c 69;
  b 146: -1 e 1 c 111, e 2 c 69;
  b 147: -1 e 2 c 107, e 0 c 70;
  b 148: -1 e 1 c 70, e 1 c 123;
  b 149: -1 e 1 c 130, e 0 c 71;
  b 150: -1 e 2 c 111, e 1 c 71;
  b 151: -1 e 0 c 148, e 0 c 110;
  b 152: -1 e 2 c 73, e 3 c 72;
  b 153: -1 e 3 c 118, e 0 c 72;
  b 154: -1 e 2 c 74, e 0 c 73;
  b 155: -1 e 3 c 119, e 1 c 73;
  b 156: -1 e 2 c 75, e 0 c 74;
  b 157: -1 e 3 c 120, e 1 c 74;
  b 158: -1 e 2 c 76, e 0 c 75;
  b 159: -1 e 3 c 121, e 1 c 75;
  b 160: -1 e 0 c 156, e 0 c 76;
  b 161: -1 e 3 c 122, e 1 c 76;
  b 162: -1 e 2 c 78, e 0 c 77;
  b 163: -1 e 2 c 130, e 1 c 77;
  b 164: -1 e 0 c 149, e 0 c 129;
  b 165: -1 e 2 c 79, e 0 c 78;
  b 166: -1 e 3 c 131, e 1 c 78;
  b 167: -1 e 2 c 80, e 0 c 79;
  b 168: -1 e 3 c 132, e 1 c 79;
  b 169: -1 e 2 c 81, e 0 c 80;
  b 170: -1 e 3 c 133, e 1 c 80;
  b 171: -1 e 1 c 82, e 0 c 81;
  b 172: -1 e 3 c 134, e 1 c 81;
  b 173: -1 e 3 c 135, e 0 c 82;
  b 174: -1 e 2 c 84, e 3 c 83;
  b 175: -1 e 2 c 83, e 1 c 100;
  b 176: -1 e 2 c 85, e 0 c 84;
  b 177: -1 e 3 c 84, e 1 c 101;
  b 178: -1 e 2 c 86, e 0 c 85;
  b 179: -1 e 3 c 85, e 1 c 102;
  b 180: -1 e 2 c 87, e 0 c 86;
  b 181: -1 e 3 c 86, e 1 c 103;
  b 182: -1 e 0 c 150, e 0 c 87;
  b 183: -1 e 3 c 87, e 1 c 104;
  b 184: -1 e 0 c 151, e 0 c 88;
  b 185: -1 e 1 c 150, e 1 c 105;
  b 186: -1 e 1 c 90, e 0 c 89;
  b 187: -1 e 1 c 91, e 3 c 90;
  b 188: -1 e 1 c 92, e 3 c 91;
  b 189: -1 e 0 c 152, e 3 c 92;
  b 190: -1 e 0 c 153, e 0 c 93;
  b 191: -1 e 2 c 95, e 0 c 94;
  b 192: -1 e 1 c 112, e 1 c 153;
  b 193: -1 e 2 c 96, e 0 c 95;
  b 194: -1 e 3 c 95, e 1 c 113;
  b 195: -1 e 2 c 97, e 0 c 96;
  b 196: -1 e 3 c 96, e 1 c 114;
  b 197: -1 e 2 c 98, e 0 c 97;
  b 198: -1 e 3 c 97, e 1 c 115;
  b 199: -1 e 1 c 99, e 0 c 98;
  b 200: -1 e 3 c 98, e 1 c 116;
  b 201: -1 e 2 c 99, e 1 c 117;
  b 202: -1 e 2 c 101, e 0 c 100;
  b 203: -1 e 3 c 100, e 1 c 118;
  b 204: -1 e 2 c 102, e 0 c 101;
  b 205: -1 e 3 c 101, e 1 c 119;
  b 206: -1 e 2 c 103, e 0 c 102;
  b 207: -1 e 3 c 102, e 1 c 120;
  b 208: -1 e 2 c 104, e 0 c 103;
  b 209: -1 e 3 c 103, e 1 c 121;
  b 210: -1 e 2 c 105, e 0 c 104;
  b 211: -1 e 3 c 104, e 1 c 122;
  b 212: -1 e 2 c 106, e 0 c 105;
  b 213: -1 e 1 c 107, e 0 c 106;
  b 214: -1 e 0 c 154, e 0 c 107;
  b 215: -1 e 2 c 109, e 0 c 108;
  b 216: -1 e 0 c 155, e 0 c 109;
  b 217: -1 e 2 c 112, e 0 c 111;
  b 218: -1 e 2 c 113, e 0 c 112;
  b 219: -1 e 2 c 114, e 0 c 113;
  b 220: -1 e 3 c 113, e 1 c 131;
  b 221: -1 e 2 c 115, e 0 c 114;
  b 222: -1 e 3 c 114, e 1 c 132;
  b 223: -1 e 2 c 116, e 0 c 115;
  b 224: -1 e 3 c 115, e 1 c 133;
  b 225: -1 e 2 c 117, e 0 c 116;
  b 226: -1 e 3 c 116, e 1 c 134;
  b 227: -1 e 3 c 117, e 1 c 135;
  b 228: -1 e 2 c 119, e 0 c 118;
  b 229: -1 e 2 c 120, e 0 c 119;
  b 230: -1 e 2 c 121, e 0 c 120;
  b 231: -1 e 2 c 122, e 0 c 121;
  b 232: -1 e 2 c 123, e 0 c 122;
  b 233: -1 e 1 c 124, e 0 c 123;
  b 234: -1 e 0 c 157, e 0 c 124;
  b 235: -1 e 1 c 126, e 0 c 125;
  b 236: -1 e 2 c 127, e 3 c 126;
  b 237: -1 e 1 c 128, e 0 c 127;
  b 238: -1 e 0 c 158, e 3 c 128;
  b 239: -1 e 2 c 131, e 0 c 130;
  b 240: -1 e 2 c 132, e 0 c 131;
  b 241: -1 e 2 c 133, e 0 c 132;
  b 242: -1 e 2 c 134, e 0 c 133;
  b 243: -1 e 2 c 135, e 0 c 134;
  b 244: e 0 c 60;
  b 245: -1 e 2 c 1, e 0 c 14;
  b 246: -1 e 2 c 14, e 0 c 16;
  b 247: -1 e 0 c 13, e 2 c 16;
  b 248: -1 e 2 c 13, e 0 c 15;
  b 249: -1 e 2 c 15, e 0 c 17;
  b 250: -1 e 0 c 2, e 2 c 17;
  b 251: -1 e 2 c 2, e 0 c 7;
  b 252: -1 e 0 c 5, e 2 c 7;
  b 253: -1 e 0 c 4, e 2 c 5;
  b 254: -1 e 2 c 4, e 0 c 6;
  b 255: -1 e 0 c 3, e 2 c 6;
  b 256: -1 e 2 c 3, e 0 c 12;
  b 257: -1 e 0 c 10, e 2 c 12;
  b 258: -1 e 0 c 8, e 2 c 10;
  b 259: -1 e 2 c 8, e 0 c 11;
  b 260: -1 e 0 c 9, e 2 c 11;
  b 261: -1 e 2 c 22, e 2 c 136;
  b 262: -1 e 2 c 23, e 2 c 137;
  b 263: -1 e 2 c 39, e 2 c 138;
  b 264: -1 e 2 c 40, e 2 c 139;
  b 265: -1 e 2 c 41, e 2 c 140;
  b 266: -1 e 2 c 57, e 2 c 141;
  b 267: -1 e 2 c 58, e 2 c 142;
  b 268: -1 e 2 c 59, e 2 c 143;
  b 269: -1 e 2 c 62, e 2 c 144;
  b 270: -1 e 2 c 64, e 2 c 145;
  b 271: -1 e 2 c 67, e 2 c 146;
  b 272: -1 e 2 c 68, e 2 c 147;
  b 273: -1 e 2 c 71, e 2 c 148;
  b 274: -1 e 2 c 77, e 2 c 149;
  b 275: -1 e 2 c 88, e 2 c 150;
  b 276: -1 e 2 c 89, e 2 c 151;
  b 277: -1 e 2 c 93, e 2 c 152;
  b 278: -1 e 2 c 94, e 2 c 153;
  b 279: -1 e 2 c 108, e 2 c 154;
  b 280: -1 e 2 c 110, e 2 c 155;
  b 281: -1 e 2 c 124, e 2 c 156;
  b 282: -1 e 2 c 125, e 2 c 157;
  b 283: -1 e 2 c 129, e 2 c 158;
;
PdefRA 1 {
GdefRA 1 /Zd 1 {50 0} {
  Prt 1 : CrefRA 1 { 60 };
}
}
end_momMdl;
end_ckt proj;
