beg_ckt proj :
beg_layout :
  Units: m;
  EgsUnits: mm;
  Resolution: 2.5e-008 units;
  EgsResolution: 0.0001 egsunits;
end_layout;
beg_momMdl :
Mesh: 
  Freq: 4; 
  Cd: 0.003; 
  CpWl: 20; 
  Extraction: 1; 
  Expansion: 0; 
;
NdefIA 176: 
  p 1: -0.02057 -0.0093309 0.001524,
  p 2: -0.02057 -0.0065809 0.001524,
  p 3: -0.02057 -0.0041525 0.001524,
  p 4: -0.02057 -0.0024025 0.001524,
  p 5: -0.02057 0.0003475 0.001524,
  p 6: -0.02057 0.0033475 0.001524,
  p 7: -0.02057 0.0060975 0.001524,
  p 8: -0.02057 0.0078475 0.001524,
  p 9: -0.02057 0.0102758 0.001524,
  p 10: -0.02057 0.0130258 0.001524,
  p 11: -0.01957 -0.0083309 0.001524,
  p 12: -0.01957 -0.0065809 0.001524,
  p 13: -0.01957 -0.0041525 0.001524,
  p 14: -0.01957 -0.0024025 0.001524,
  p 15: -0.01957 0.0003475 0.001524,
  p 16: -0.01957 0.0033475 0.001524,
  p 17: -0.01957 0.0060975 0.001524,
  p 18: -0.01957 0.0078475 0.001524,
  p 19: -0.01957 0.0102758 0.001524,
  p 20: -0.01957 0.0120258 0.001524,
  p 21: -0.018 0.003 0.001524,
  p 22: -0.01782 -0.0093309 0.001524,
  p 23: -0.01782 -0.0083309 0.001524,
  p 24: -0.01782 0.0120258 0.001524,
  p 25: -0.01782 0.0130258 0.001524,
  p 26: -0.01782 -0.0065809 0.001524,
  p 27: -0.01782 -0.0041525 0.001524,
  p 28: -0.01782 -0.0024025 0.001524,
  p 29: -0.01782 0.0060975 0.001524,
  p 30: -0.01782 0.0078475 0.001524,
  p 31: -0.01782 0.0102758 0.001524,
  p 32: -0.01657 0.0003475 0.001524,
  p 33: -0.01657 0.0033475 0.001524,
  p 34: -0.01607 -0.0083309 0.001524,
  p 35: -0.01607 -0.0065809 0.001524,
  p 36: -0.01607 -0.0041525 0.001524,
  p 37: -0.01607 0.0078475 0.001524,
  p 38: -0.01607 0.0102758 0.001524,
  p 39: -0.01607 0.0120258 0.001524,
  p 40: -0.01507 -0.0093309 0.001524,
  p 41: -0.01507 -0.0081526 0.001524,
  p 42: -0.01507 -0.0051525 0.001524,
  p 43: -0.01507 0.0088475 0.001524,
  p 44: -0.01507 0.0118475 0.001524,
  p 45: -0.01507 0.0130258 0.001524,
  p 46: -0.01507 -0.0011525 0.001524,
  p 47: -0.01507 0.0048475 0.001524,
  p 48: -0.015 -0.003 0.001524,
  p 49: -0.015 0 0.001524,
  p 50: -0.015 0.003 0.001524,
  p 51: -0.015 0.006 0.001524,
  p 52: -0.0122128571428571 -0.0093309 0.001524,
  p 53: -0.0122128571428571 -0.0081526 0.001524,
  p 54: -0.0122128571428571 0.0118475 0.001524,
  p 55: -0.0122128571428571 0.0130258 0.001524,
  p 56: -0.012 -0.0051525 0.001524,
  p 57: -0.012 -0.0041525 0.001524,
  p 58: -0.012 -0.003 0.001524,
  p 59: -0.012 0 0.001524,
  p 60: -0.012 0.003 0.001524,
  p 61: -0.012 0.006 0.001524,
  p 62: -0.012 0.0078475 0.001524,
  p 63: -0.012 0.0088475 0.001524,
  p 64: -0.00935571428571428 -0.0093309 0.001524,
  p 65: -0.00935571428571428 -0.0081526 0.001524,
  p 66: -0.00935571428571428 0.0118475 0.001524,
  p 67: -0.00935571428571428 0.0130258 0.001524,
  p 68: -0.009 -0.0051525 0.001524,
  p 69: -0.009 -0.0041525 0.001524,
  p 70: -0.009 -0.003 0.001524,
  p 71: -0.009 0 0.001524,
  p 72: -0.009 0.003 0.001524,
  p 73: -0.009 0.006 0.001524,
  p 74: -0.009 0.0078475 0.001524,
  p 75: -0.009 0.0088475 0.001524,
  p 76: -0.00649857142857143 -0.0093309 0.001524,
  p 77: -0.00649857142857143 -0.0081526 0.001524,
  p 78: -0.00649857142857143 0.0118475 0.001524,
  p 79: -0.00649857142857143 0.0130258 0.001524,
  p 80: -0.006 -0.0051525 0.001524,
  p 81: -0.006 -0.0041525 0.001524,
  p 82: -0.006 -0.003 0.001524,
  p 83: -0.006 0 0.001524,
  p 84: -0.006 0.003 0.001524,
  p 85: -0.006 0.006 0.001524,
  p 86: -0.006 0.0078475 0.001524,
  p 87: -0.006 0.0088475 0.001524,
  p 88: -0.00364142857142857 -0.0093309 0.001524,
  p 89: -0.00364142857142857 -0.0081526 0.001524,
  p 90: -0.00364142857142857 0.0118475 0.001524,
  p 91: -0.00364142857142857 0.0130258 0.001524,
  p 92: -0.003 -0.0051525 0.001524,
  p 93: -0.003 -0.0041525 0.001524,
  p 94: -0.003 -0.003 0.001524,
  p 95: -0.003 0 0.001524,
  p 96: -0.003 0.003 0.001524,
  p 97: -0.003 0.006 0.001524,
  p 98: -0.003 0.0078475 0.001524,
  p 99: -0.003 0.0088475 0.001524,
  p 100: -0.000784285714285714 -0.0093309 0.001524,
  p 101: -0.000784285714285714 -0.0081526 0.001524,
  p 102: -0.000784285714285714 0.0118475 0.001524,
  p 103: -0.000784285714285714 0.0130258 0.001524,
  p 104: 0 -0.0051525 0.001524,
  p 105: 0 -0.0041525 0.001524,
  p 106: 0 -0.003 0.001524,
  p 107: 0 0 0.001524,
  p 108: 0 0.003 0.001524,
  p 109: 0 0.006 0.001524,
  p 110: 0 0.0078475 0.001524,
  p 111: 0 0.0088475 0.001524,
  p 112: 0.00193 -0.0041525 0.001524,
  p 113: 0.00193 -0.003 0.001524,
  p 114: 0.00193 0 0.001524,
  p 115: 0.00193 0.003 0.001524,
  p 116: 0.00193 0.006 0.001524,
  p 117: 0.00193 0.0078475 0.001524,
  p 118: 0.00207285714285714 -0.0093309 0.001524,
  p 119: 0.00207285714285714 -0.0081526 0.001524,
  p 120: 0.00207285714285714 0.0118475 0.001524,
  p 121: 0.00207285714285714 0.0130258 0.001524,
  p 122: 0.00293 -0.0051525 0.001524,
  p 123: 0.00293 -0.003 0.001524,
  p 124: 0.00293 0 0.001524,
  p 125: 0.00293 0.003 0.001524,
  p 126: 0.00293 0.006 0.001524,
  p 127: 0.00293 0.0088475 0.001524,
  p 128: 0.00493 -0.0093309 0.001524,
  p 129: 0.00493 -0.0081526 0.001524,
  p 130: 0.00493 -0.0058309 0.001524,
  p 131: 0.00493 -0.00327145 0.001524,
  p 132: 0.00493 -0.000711999999999999 0.001524,
  p 133: 0.00493 0.00184745 0.001524,
  p 134: 0.00493 0.0044069 0.001524,
  p 135: 0.00493 0.00696635 0.001524,
  p 136: 0.00493 0.0095258 0.001524,
  p 137: 0.00493 0.0118475 0.001524,
  p 138: 0.00493 0.0130258 0.001524,
  p 139: 0.00593 -0.0083309 0.001524,
  p 140: 0.00593 -0.0058309 0.001524,
  p 141: 0.00593 -0.00327145 0.001524,
  p 142: 0.00593 -0.000711999999999999 0.001524,
  p 143: 0.00593 0.00184745 0.001524,
  p 144: 0.00593 0.0044069 0.001524,
  p 145: 0.00593 0.00696635 0.001524,
  p 146: 0.00593 0.0095258 0.001524,
  p 147: 0.00593 0.0120258 0.001524,
  p 148: 0.00843 -0.0093309 0.001524,
  p 149: 0.00843 -0.0083309 0.001524,
  p 150: 0.00843 0.0120258 0.001524,
  p 151: 0.00843 0.0130258 0.001524,
  p 152: 0.00843 -0.0058309 0.001524,
  p 153: 0.00843 -0.00327145 0.001524,
  p 154: 0.00843 -0.000711999999999999 0.001524,
  p 155: 0.00843 0.00184745 0.001524,
  p 156: 0.00843 0.0044069 0.001524,
  p 157: 0.00843 0.00696635 0.001524,
  p 158: 0.00843 0.0095258 0.001524,
  p 159: 0.01093 -0.0083309 0.001524,
  p 160: 0.01093 -0.0058309 0.001524,
  p 161: 0.01093 -0.00327145 0.001524,
  p 162: 0.01093 -0.000711999999999999 0.001524,
  p 163: 0.01093 0.00184745 0.001524,
  p 164: 0.01093 0.0044069 0.001524,
  p 165: 0.01093 0.00696635 0.001524,
  p 166: 0.01093 0.0095258 0.001524,
  p 167: 0.01093 0.0120258 0.001524,
  p 168: 0.01193 -0.0093309 0.001524,
  p 169: 0.01193 -0.0058309 0.001524,
  p 170: 0.01193 -0.00327145 0.001524,
  p 171: 0.01193 -0.000711999999999999 0.001524,
  p 172: 0.01193 0.00184745 0.001524,
  p 173: 0.01193 0.0044069 0.001524,
  p 174: 0.01193 0.00696635 0.001524,
  p 175: 0.01193 0.0095258 0.001524,
  p 176: 0.01193 0.0130258 0.001524;
EdefIA 352: 
  s 1: 1 2,
  s 2: 1 11,
  s 3: 1 22,
  s 4: 2 3,
  s 5: 2 12,
  s 6: 3 4,
  s 7: 3 13,
  s 8: 4 5,
  s 9: 4 14,
  s 10: 5 6,
  s 11: 5 15,
  s 12: 6 7,
  s 13: 6 16,
  s 14: 7 8,
  s 15: 7 17,
  s 16: 8 9,
  s 17: 8 18,
  s 18: 9 10,
  s 19: 9 19,
  s 20: 10 20,
  s 21: 10 25,
  s 22: 11 12,
  s 23: 11 23,
  s 24: 12 13,
  s 25: 12 26,
  s 26: 13 14,
  s 27: 13 27,
  s 28: 14 15,
  s 29: 14 28,
  s 30: 15 16,
  s 31: 15 32,
  s 32: 16 17,
  s 33: 16 21,
  s 34: 17 18,
  s 35: 17 29,
  s 36: 18 19,
  s 37: 18 30,
  s 38: 19 20,
  s 39: 19 31,
  s 40: 20 24,
  s 41: 21 29,
  s 42: 21 32,
  s 43: 21 33,
  s 44: 22 23,
  s 45: 22 40,
  s 46: 23 26,
  s 47: 23 34,
  s 48: 24 25,
  s 49: 24 31,
  s 50: 24 39,
  s 51: 25 45,
  s 52: 26 27,
  s 53: 26 35,
  s 54: 27 28,
  s 55: 27 36,
  s 56: 28 32,
  s 57: 28 48,
  s 58: 29 30,
  s 59: 29 33,
  s 60: 29 51,
  s 61: 30 31,
  s 62: 30 37,
  s 63: 31 38,
  s 64: 32 33,
  s 65: 32 46,
  s 66: 32 49,
  s 67: 33 47,
  s 68: 33 50,
  s 69: 34 35,
  s 70: 34 40,
  s 71: 34 41,
  s 72: 35 36,
  s 73: 35 42,
  s 74: 36 42,
  s 75: 36 48,
  s 76: 36 57,
  s 77: 37 38,
  s 78: 37 43,
  s 79: 37 51,
  s 80: 37 62,
  s 81: 38 39,
  s 82: 38 43,
  s 83: 39 44,
  s 84: 39 45,
  s 85: 40 41,
  s 86: 40 52,
  s 87: 41 42,
  s 88: 41 53,
  s 89: 42 56,
  s 90: 43 44,
  s 91: 43 63,
  s 92: 44 45,
  s 93: 44 54,
  s 94: 45 55,
  s 95: 46 48,
  s 96: 46 49,
  s 97: 46 59,
  s 98: 47 50,
  s 99: 47 51,
  s 100: 47 61,
  s 101: 48 58,
  s 102: 49 50,
  s 103: 49 59,
  s 104: 50 60,
  s 105: 51 61,
  s 106: 52 53,
  s 107: 52 64,
  s 108: 53 65,
  s 109: 54 55,
  s 110: 54 66,
  s 111: 55 67,
  s 112: 56 57,
  s 113: 56 68,
  s 114: 57 58,
  s 115: 57 69,
  s 116: 58 59,
  s 117: 58 70,
  s 118: 59 60,
  s 119: 59 71,
  s 120: 60 61,
  s 121: 60 72,
  s 122: 61 62,
  s 123: 61 73,
  s 124: 62 63,
  s 125: 62 74,
  s 126: 63 75,
  s 127: 64 65,
  s 128: 64 76,
  s 129: 65 77,
  s 130: 66 67,
  s 131: 66 78,
  s 132: 67 79,
  s 133: 68 69,
  s 134: 68 80,
  s 135: 69 70,
  s 136: 69 81,
  s 137: 70 71,
  s 138: 70 82,
  s 139: 71 72,
  s 140: 71 83,
  s 141: 72 73,
  s 142: 72 84,
  s 143: 73 74,
  s 144: 73 85,
  s 145: 74 75,
  s 146: 74 86,
  s 147: 75 87,
  s 148: 76 77,
  s 149: 76 88,
  s 150: 77 89,
  s 151: 78 79,
  s 152: 78 90,
  s 153: 79 91,
  s 154: 80 81,
  s 155: 80 92,
  s 156: 81 82,
  s 157: 81 93,
  s 158: 82 83,
  s 159: 82 94,
  s 160: 83 84,
  s 161: 83 95,
  s 162: 84 85,
  s 163: 84 96,
  s 164: 85 86,
  s 165: 85 97,
  s 166: 86 87,
  s 167: 86 98,
  s 168: 87 99,
  s 169: 88 89,
  s 170: 88 100,
  s 171: 89 101,
  s 172: 90 91,
  s 173: 90 102,
  s 174: 91 103,
  s 175: 92 93,
  s 176: 92 104,
  s 177: 93 94,
  s 178: 93 105,
  s 179: 94 95,
  s 180: 94 106,
  s 181: 95 96,
  s 182: 95 107,
  s 183: 96 97,
  s 184: 96 108,
  s 185: 97 98,
  s 186: 97 109,
  s 187: 98 99,
  s 188: 98 110,
  s 189: 99 111,
  s 190: 100 101,
  s 191: 100 118,
  s 192: 101 119,
  s 193: 102 103,
  s 194: 102 120,
  s 195: 103 121,
  s 196: 104 105,
  s 197: 104 122,
  s 198: 105 106,
  s 199: 105 112,
  s 200: 106 107,
  s 201: 106 113,
  s 202: 107 108,
  s 203: 107 114,
  s 204: 108 109,
  s 205: 108 115,
  s 206: 109 110,
  s 207: 109 116,
  s 208: 110 111,
  s 209: 110 117,
  s 210: 111 127,
  s 211: 112 113,
  s 212: 112 122,
  s 213: 113 114,
  s 214: 113 123,
  s 215: 114 115,
  s 216: 114 124,
  s 217: 115 116,
  s 218: 115 125,
  s 219: 116 117,
  s 220: 116 126,
  s 221: 117 127,
  s 222: 118 119,
  s 223: 118 128,
  s 224: 119 129,
  s 225: 120 121,
  s 226: 120 137,
  s 227: 121 138,
  s 228: 122 123,
  s 229: 123 124,
  s 230: 124 125,
  s 231: 125 126,
  s 232: 126 127,
  s 233: 128 129,
  s 234: 128 139,
  s 235: 128 148,
  s 236: 129 130,
  s 237: 129 139,
  s 238: 130 131,
  s 239: 130 140,
  s 240: 131 132,
  s 241: 131 141,
  s 242: 132 133,
  s 243: 132 142,
  s 244: 133 134,
  s 245: 133 143,
  s 246: 134 135,
  s 247: 134 144,
  s 248: 135 136,
  s 249: 135 145,
  s 250: 136 137,
  s 251: 136 146,
  s 252: 137 138,
  s 253: 137 147,
  s 254: 138 147,
  s 255: 138 151,
  s 256: 139 140,
  s 257: 139 149,
  s 258: 140 141,
  s 259: 140 152,
  s 260: 141 142,
  s 261: 141 153,
  s 262: 142 143,
  s 263: 142 154,
  s 264: 143 144,
  s 265: 143 155,
  s 266: 144 145,
  s 267: 144 156,
  s 268: 145 146,
  s 269: 145 157,
  s 270: 146 147,
  s 271: 146 158,
  s 272: 147 150,
  s 273: 148 149,
  s 274: 148 168,
  s 275: 149 152,
  s 276: 149 159,
  s 277: 150 151,
  s 278: 150 158,
  s 279: 150 167,
  s 280: 151 176,
  s 281: 152 153,
  s 282: 152 160,
  s 283: 153 154,
  s 284: 153 161,
  s 285: 154 155,
  s 286: 154 162,
  s 287: 155 156,
  s 288: 155 163,
  s 289: 156 157,
  s 290: 156 164,
  s 291: 157 158,
  s 292: 157 165,
  s 293: 158 166,
  s 294: 159 160,
  s 295: 159 168,
  s 296: 160 161,
  s 297: 160 169,
  s 298: 161 162,
  s 299: 161 170,
  s 300: 162 163,
  s 301: 162 171,
  s 302: 163 164,
  s 303: 163 172,
  s 304: 164 165,
  s 305: 164 173,
  s 306: 165 166,
  s 307: 165 174,
  s 308: 166 167,
  s 309: 166 175,
  s 310: 167 176,
  s 311: 168 169,
  s 312: 169 170,
  s 313: 170 171,
  s 314: 171 172,
  s 315: 172 173,
  s 316: 173 174,
  s 317: 174 175,
  s 318: 175 176,
  s 319: 176 166,
  s 320: 169 159,
  s 321: 168 149,
  s 322: 176 150,
  s 323: 149 128,
  s 324: 151 147,
  s 325: 147 136,
  s 326: 140 129,
  s 327: 127 116,
  s 328: 123 112,
  s 329: 122 105,
  s 330: 127 110,
  s 331: 58 36,
  s 332: 61 50,
  s 333: 59 48,
  s 334: 48 32,
  s 335: 63 37,
  s 336: 44 38,
  s 337: 62 51,
  s 338: 51 30,
  s 339: 57 42,
  s 340: 42 34,
  s 341: 40 23,
  s 342: 50 32,
  s 343: 51 33,
  s 344: 48 27,
  s 345: 45 24,
  s 346: 32 16,
  s 347: 29 16,
  s 348: 32 14,
  s 349: 23 1,
  s 350: 25 20,
  s 351: 20 9,
  s 352: 12 1;
CdefIA 176: 
  c 1: -310 -308 -319,
  c 2: -309 -306 307 317,
  c 3: -307 -304 305 316,
  c 4: -305 -302 303 315,
  c 5: -303 -300 301 314,
  c 6: -301 -298 299 313,
  c 7: -299 -296 297 312,
  c 8: -297 -294 -320,
  c 9: -295 -276 -321,
  c 10: -293 -291 292 306,
  c 11: -292 -289 290 304,
  c 12: -290 -287 288 302,
  c 13: -288 -285 286 300,
  c 14: -286 -283 284 298,
  c 15: -284 -281 282 296,
  c 16: -275 276 294 -282,
  c 17: -280 -277 -322,
  c 18: 278 293 308 -279,
  c 19: -270 271 -278 -272,
  c 20: -271 -268 269 291,
  c 21: -269 -266 267 289,
  c 22: -267 -264 265 287,
  c 23: -265 -262 263 285,
  c 24: -263 -260 261 283,
  c 25: -261 -258 259 281,
  c 26: -256 257 275 -259,
  c 27: -257 -234 -323,
  c 28: -255 254 -324,
  c 29: -254 -252 253,
  c 30: -253 -250 -325,
  c 31: -251 -248 249 268,
  c 32: -249 -246 247 266,
  c 33: -247 -244 245 264,
  c 34: -245 -242 243 262,
  c 35: -243 -240 241 260,
  c 36: -241 -238 239 258,
  c 37: -239 -236 -326,
  c 38: -237 -233 234,
  c 39: -225 226 252 -227,
  c 40: -222 223 233 -224,
  c 41: -221 -219 -327,
  c 42: -220 -217 218 231,
  c 43: -218 -215 216 230,
  c 44: -216 -213 214 229,
  c 45: -214 -211 -328,
  c 46: -212 -199 -329,
  c 47: -210 -208 -330,
  c 48: -206 207 219 -209,
  c 49: -207 -204 205 217,
  c 50: -205 -202 203 215,
  c 51: -203 -200 201 213,
  c 52: -198 199 211 -201,
  c 53: -193 194 225 -195,
  c 54: -190 191 222 -192,
  c 55: -187 188 208 -189,
  c 56: -185 186 206 -188,
  c 57: -183 184 204 -186,
  c 58: -181 182 202 -184,
  c 59: -179 180 200 -182,
  c 60: -177 178 198 -180,
  c 61: -175 176 196 -178,
  c 62: -172 173 193 -174,
  c 63: -169 170 190 -171,
  c 64: -166 167 187 -168,
  c 65: -164 165 185 -167,
  c 66: -162 163 183 -165,
  c 67: -160 161 181 -163,
  c 68: -158 159 179 -161,
  c 69: -156 157 177 -159,
  c 70: -154 155 175 -157,
  c 71: -151 152 172 -153,
  c 72: -148 149 169 -150,
  c 73: -145 146 166 -147,
  c 74: -143 144 164 -146,
  c 75: -141 142 162 -144,
  c 76: -139 140 160 -142,
  c 77: -137 138 158 -140,
  c 78: -135 136 156 -138,
  c 79: -133 134 154 -136,
  c 80: -130 131 151 -132,
  c 81: -127 128 148 -129,
  c 82: -124 125 145 -126,
  c 83: -122 123 143 -125,
  c 84: -120 121 141 -123,
  c 85: -118 119 139 -121,
  c 86: -116 117 137 -119,
  c 87: -114 115 135 -117,
  c 88: -112 113 133 -115,
  c 89: -109 110 130 -111,
  c 90: -106 107 127 -108,
  c 91: -105 -99 100,
  c 92: -102 103 118 -104,
  c 93: -103 -96 97,
  c 94: -101 -75 -331,
  c 95: -100 98 -332,
  c 96: -98 -67 68,
  c 97: -97 95 -333,
  c 98: -95 -65 -334,
  c 99: -92 93 109 -94,
  c 100: -91 -78 -335,
  c 101: -85 86 106 -88,
  c 102: -84 83 92,
  c 103: -83 -81 -336,
  c 104: -82 -77 78,
  c 105: -80 79 -337,
  c 106: -79 -62 -338,
  c 107: -76 74 -339,
  c 108: -74 -72 73,
  c 109: -73 -69 -340,
  c 110: -71 70 85,
  c 111: -70 -47 -341,
  c 112: -68 -64 -342,
  c 113: -66 65 96,
  c 114: -63 -61 62 77,
  c 115: -60 59 -343,
  c 116: -59 -41 43,
  c 117: -57 -54 -344,
  c 118: -55 -52 53 72,
  c 119: -46 47 69 -53,
  c 120: -51 -48 -345,
  c 121: 49 63 81 -50,
  c 122: -38 39 -49 -40,
  c 123: -43 42 64,
  c 124: -42 -33 -346,
  c 125: -39 -36 37 61,
  c 126: -34 35 58 -37,
  c 127: -35 -32 -347,
  c 128: -31 -28 -348,
  c 129: -26 27 54 -29,
  c 130: -27 -24 25 52,
  c 131: -22 23 46 -25,
  c 132: -23 -2 -349,
  c 133: -21 20 -350,
  c 134: -20 -18 -351,
  c 135: -16 17 36 -19,
  c 136: -14 15 34 -17,
  c 137: -12 13 32 -15,
  c 138: -10 11 30 -13,
  c 139: -8 9 28 -11,
  c 140: -6 7 26 -9,
  c 141: -4 5 24 -7,
  c 142: -5 -1 -352,
  c 143: 309 318 319,
  c 144: 295 311 320,
  c 145: -273 274 321,
  c 146: 279 310 322,
  c 147: 235 273 323,
  c 148: 272 277 324,
  c 149: 251 270 325,
  c 150: 237 256 326,
  c 151: 220 232 327,
  c 152: 212 228 328,
  c 153: -196 197 329,
  c 154: 209 221 330,
  c 155: 76 114 331,
  c 156: 104 120 332,
  c 157: 101 116 333,
  c 158: -56 57 334,
  c 159: 80 124 335,
  c 160: 82 90 336,
  c 161: 105 122 337,
  c 162: -58 60 338,
  c 163: 89 112 339,
  c 164: 71 87 340,
  c 165: -44 45 341,
  c 166: 66 102 342,
  c 167: 67 99 343,
  c 168: 55 75 344,
  c 169: 50 84 345,
  c 170: -30 31 346,
  c 171: 33 41 347,
  c 172: 29 56 348,
  c 173: 3 44 349,
  c 174: 40 48 350,
  c 175: 19 38 351,
  c 176: 2 22 352;
beg_Xinfo :
beg_layer /1:
  Mask: 1;
  Type: metal;
  Level: 0;
  Plane: z = 0.001524;
  Fill: condthickness 58000000 3.5e-005 M precedence 0;
  CrefRA 176 { 
  1 143 17 146 28 148 29 39 53 62 71 80 89
  99 102 120 169 133 174 134 175 135 136 137 138 139
  140 141 142 176 132 173 131 119 111 165 110 109 164 108
  107 163 94 155 97 157 93 92 112 166 96 95 156 91 105 161
  100 159 104 103 160 121 122 125 126 127 171 124 170 123
  116 115 167 106 162 114 128 172 129 130 118 117 168 98 158
  113 82 83 84 85 86 87 88 79 70
  61 46 153 45 152 44 51 59 68 77 78 69
  60 52 76 67 58 50 43 42 49 57
  66 75 74 65 56 48 41 151 47 154 55 64
  73 101 90 81 72 63 54 40 38 37 150
  36 25 26 27 147 9 145 8 144 7 15 16 14
  24 35 34 23 13 5 6 4 12 22
  33 32 21 11 3 2 10 20 31 30 149
  19 18 }
  RGrid 0.00255945,0.001 -1.5707963267949 1: 
  0.01093,0.0095258 6,1 6:
    5,0 c 7, 4,0 c 6, 3,0 c 5, 2,0 c 4, 1,0 c 3, 
    0,0 c 2;
  RGrid 0.00255945,0.0025 -1.5707963267949 1: 
  0.00593,0.00952579999999999 6,2 12:
    5,0 c 25, 4,0 c 24, 3,0 c 23, 2,0 c 22, 1,0 c 21, 
    0,0 c 20, 5,1 c 15, 4,1 c 14, 3,1 c 13, 2,1 c 12, 
    1,1 c 11, 0,1 c 10;
  RGrid 0.0025,0.0025 0 1: 
  0.00593,-0.0083309 2,1 2:
    0,0 c 26, 1,0 c 16;
  RGrid 0.0025,0.0025 -5.20417042793042e-016 1: 
  0.00593,0.0095258 2,1 2:
    0,0 c 19, 1,0 c 18;
  RGrid 0.00255945,0.001 -1.5707963267949 1: 
  0.00493,0.0095258 6,1 6:
    5,0 c 36, 4,0 c 35, 3,0 c 34, 2,0 c 33, 1,0 c 32, 
    0,0 c 31;
  RGrid 0.00285714285714286,0.0011783 0 1: 
  -0.01507,0.0118475 7,1 7:
    0,0 c 99, 1,0 c 89, 2,0 c 80, 3,0 c 71, 4,0 c 62, 
    5,0 c 53, 6,0 c 39;
  RGrid 0.00285714285714286,0.0011783 0 1: 
  -0.01507,-0.0093309 7,1 7:
    0,0 c 101, 1,0 c 90, 2,0 c 81, 3,0 c 72, 4,0 c 63, 
    5,0 c 54, 6,0 c 40;
  RGrid 0.003,0.001 -1.5707963267949 1: 
  0.00193,0.006 3,1 3:
    2,0 c 44, 1,0 c 43, 0,0 c 42;
  RGrid 0.003,0.00193 -1.5707963267949 1: 
  0,0.006 3,1 3:
    2,0 c 51, 1,0 c 50, 0,0 c 49;
  RGrid 0.003,0.001 0 1: 
  -0.012,0.0078475 4,1 4:
    0,0 c 82, 1,0 c 73, 2,0 c 64, 3,0 c 55;
  RGrid 0.003,0.0018475 0 1: 
  -0.012,0.006 4,1 4:
    0,0 c 83, 1,0 c 74, 2,0 c 65, 3,0 c 56;
  RGrid 0.003,0.003 0 1: 
  -0.015,-0.003 5,3 13:
    0,1 c 92, 1,0 c 86, 1,1 c 85, 1,2 c 84, 2,0 c 77, 
    2,1 c 76, 2,2 c 75, 3,0 c 68, 3,1 c 67, 3,2 c 66, 
    4,0 c 59, 4,1 c 58, 4,2 c 57;
  RGrid 0.003,0.0011525 0 1: 
  -0.012,-0.0041525 4,1 4:
    0,0 c 87, 1,0 c 78, 2,0 c 69, 3,0 c 60;
  RGrid 0.003,0.001 0 1: 
  -0.012,-0.0051525 4,1 4:
    0,0 c 88, 1,0 c 79, 2,0 c 70, 3,0 c 61;
  RGrid 0.0024283,0.00175 -1.5707963267949 1: 
  -0.01957,0.0102758 1,2 2:
    0,0 c 125, 0,1 c 114;
  RGrid 0.0024284,0.00175 -1.5707963267949 1: 
  -0.01957,-0.0041525 1,2 2:
    0,0 c 130, 0,1 c 118;
  RGrid 0.00175,0.00175 0 1: 
  -0.01957,-0.0083309 2,1 2:
    0,0 c 131, 1,0 c 119;
  RGrid 0.00175,0.00175 0 1: 
  -0.01957,0.0102758 2,1 2:
    0,0 c 122, 1,0 c 121;
end_layer /1;
end_Xinfo;
Overlap: 
  ErefRA 142 { 
  1 3 4 6 8 10 12 14 16 18
  21 22 23 24 26 28 30 32 34 36
  38 40 45 47 50 51 69 72 76 77
  80 81 86 87 88 89 90 91 93 94
  107 108 110 111 113 115 118 119 121 125
  126 128 129 131 132 134 136 139 146 147
  149 150 152 153 155 157 167 168 170 171
  173 174 176 178 188 189 191 192 194 195
  197 199 209 210 211 213 215 217 219 223
  224 226 227 228 229 230 231 232 235 236
  238 240 242 244 246 248 250 255 256 257
  258 260 262 264 266 268 270 272 274 276
  279 280 294 296 298 300 302 304 306 308
  311 312 313 314 315 316 317 318 104 103
  140 142 };
BdefIA 273: 
  b 1: -1 e 0 c 176, e 1 c 132;
  b 2: -1 e 1 c 141, e 0 c 142;
  b 3: -1 e 1 c 140, e 3 c 141;
  b 4: -1 e 1 c 139, e 3 c 140;
  b 5: -1 e 1 c 138, e 3 c 139;
  b 6: -1 e 1 c 137, e 3 c 138;
  b 7: -1 e 1 c 136, e 3 c 137;
  b 8: -1 e 1 c 135, e 3 c 136;
  b 9: -1 e 0 c 175, e 3 c 135;
  b 10: -1 e 1 c 133, e 0 c 134;
  b 11: -1 e 1 c 176, e 0 c 131;
  b 12: -1 e 1 c 131, e 0 c 132;
  b 13: -1 e 2 c 141, e 1 c 130;
  b 14: -1 e 2 c 130, e 3 c 131;
  b 15: -1 e 2 c 140, e 0 c 129;
  b 16: -1 e 1 c 129, e 0 c 130;
  b 17: -1 e 2 c 139, e 1 c 128;
  b 18: -1 e 0 c 172, e 3 c 129;
  b 19: -1 e 2 c 138, e 0 c 170;
  b 20: -1 e 1 c 170, e 0 c 128;
  b 21: -1 e 2 c 137, e 1 c 127;
  b 22: -1 e 0 c 171, e 1 c 124;
  b 23: -1 e 2 c 136, e 0 c 126;
  b 24: -1 e 1 c 126, e 0 c 127;
  b 25: -1 e 2 c 135, e 1 c 125;
  b 26: -1 e 2 c 125, e 3 c 126;
  b 27: -1 e 1 c 175, e 0 c 122;
  b 28: -1 e 1 c 122, e 0 c 125;
  b 29: -1 e 0 c 174, e 3 c 122;
  b 30: -1 e 1 c 171, e 1 c 116;
  b 31: -1 e 1 c 123, e 0 c 124;
  b 32: -1 e 2 c 116, e 0 c 123;
  b 33: -1 e 1 c 173, e 0 c 165;
  b 34: -1 e 2 c 131, e 0 c 119;
  b 35: -1 e 1 c 119, e 1 c 111;
  b 36: -1 e 1 c 174, e 1 c 120;
  b 37: -1 e 0 c 121, e 2 c 122;
  b 38: -1 e 0 c 169, e 3 c 121;
  b 39: -1 e 3 c 130, e 1 c 118;
  b 40: -1 e 2 c 118, e 3 c 119;
  b 41: -1 e 2 c 129, e 1 c 117;
  b 42: -1 e 0 c 168, e 0 c 118;
  b 43: -1 e 1 c 172, e 0 c 158;
  b 44: -1 e 1 c 158, e 0 c 117;
  b 45: -1 e 2 c 126, e 0 c 162;
  b 46: -1 e 1 c 115, e 0 c 116;
  b 47: -1 e 1 c 162, e 0 c 115;
  b 48: -1 e 3 c 125, e 1 c 114;
  b 49: -1 e 2 c 114, e 1 c 106;
  b 50: -1 e 1 c 121, e 0 c 114;
  b 51: -1 e 2 c 123, e 1 c 112;
  b 52: -1 e 1 c 113, e 1 c 98;
  b 53: -1 e 0 c 166, e 0 c 113;
  b 54: -1 e 0 c 167, e 1 c 96;
  b 55: -1 e 2 c 96, e 0 c 112;
  b 56: -1 e 2 c 119, e 1 c 109;
  b 57: -1 e 1 c 110, e 0 c 111;
  b 58: -1 e 0 c 164, e 0 c 110;
  b 59: -1 e 3 c 118, e 1 c 108;
  b 60: -1 e 2 c 108, e 0 c 109;
  b 61: -1 e 1 c 107, e 0 c 108;
  b 62: -1 e 1 c 168, e 1 c 94;
  b 63: -1 e 0 c 155, e 0 c 107;
  b 64: -1 e 3 c 114, e 1 c 104;
  b 65: -1 e 2 c 104, e 1 c 100;
  b 66: -1 e 1 c 105, e 0 c 106;
  b 67: -1 e 0 c 159, e 0 c 105;
  b 68: -1 e 2 c 121, e 1 c 103;
  b 69: -1 e 0 c 160, e 0 c 104;
  b 70: -1 e 1 c 102, e 0 c 103;
  b 71: -1 e 1 c 169, e 0 c 102;
  b 72: -1 e 2 c 110, e 0 c 101;
  b 73: -1 e 2 c 102, e 0 c 99;
  b 74: -1 e 1 c 97, e 0 c 98;
  b 75: -1 e 2 c 113, e 1 c 93;
  b 76: -1 e 2 c 93, e 0 c 97;
  b 77: -1 e 1 c 95, e 0 c 96;
  b 78: -1 e 1 c 167, e 1 c 91;
  b 79: -1 e 2 c 91, e 0 c 95;
  b 80: -1 e 0 c 157, e 0 c 94;
  b 81: -1 e 1 c 166, e 0 c 92;
  b 82: -1 e 1 c 92, e 0 c 93;
  b 83: -1 e 0 c 156, e 3 c 92;
  b 84: -1 e 0 c 161, e 0 c 91;
  b 85: -1 e 2 c 101, e 0 c 90;
  b 86: -1 e 2 c 99, e 0 c 89;
  b 87: -1 e 1 c 163, e 0 c 88;
  b 88: -1 e 1 c 155, e 0 c 87;
  b 89: -1 e 1 c 87, e 3 c 88;
  b 90: -1 e 1 c 157, e 0 c 86;
  b 91: -1 e 1 c 86, e 3 c 87;
  b 92: -1 e 2 c 92, e 0 c 85;
  b 93: -1 e 1 c 85, e 3 c 86;
  b 94: -1 e 1 c 156, e 0 c 84;
  b 95: -1 e 1 c 84, e 3 c 85;
  b 96: -1 e 1 c 161, e 0 c 83;
  b 97: -1 e 1 c 83, e 3 c 84;
  b 98: -1 e 1 c 159, e 0 c 82;
  b 99: -1 e 1 c 82, e 3 c 83;
  b 100: -1 e 2 c 90, e 0 c 81;
  b 101: -1 e 2 c 89, e 0 c 80;
  b 102: -1 e 2 c 88, e 0 c 79;
  b 103: -1 e 2 c 87, e 0 c 78;
  b 104: -1 e 1 c 78, e 3 c 79;
  b 105: -1 e 2 c 86, e 0 c 77;
  b 106: -1 e 1 c 77, e 3 c 78;
  b 107: -1 e 2 c 85, e 0 c 76;
  b 108: -1 e 1 c 76, e 3 c 77;
  b 109: -1 e 2 c 84, e 0 c 75;
  b 110: -1 e 1 c 75, e 3 c 76;
  b 111: -1 e 2 c 83, e 0 c 74;
  b 112: -1 e 1 c 74, e 3 c 75;
  b 113: -1 e 2 c 82, e 0 c 73;
  b 114: -1 e 1 c 73, e 3 c 74;
  b 115: -1 e 2 c 81, e 0 c 72;
  b 116: -1 e 2 c 80, e 0 c 71;
  b 117: -1 e 2 c 79, e 0 c 70;
  b 118: -1 e 2 c 78, e 0 c 69;
  b 119: -1 e 1 c 69, e 3 c 70;
  b 120: -1 e 2 c 77, e 0 c 68;
  b 121: -1 e 1 c 68, e 3 c 69;
  b 122: -1 e 2 c 76, e 0 c 67;
  b 123: -1 e 1 c 67, e 3 c 68;
  b 124: -1 e 2 c 75, e 0 c 66;
  b 125: -1 e 1 c 66, e 3 c 67;
  b 126: -1 e 2 c 74, e 0 c 65;
  b 127: -1 e 1 c 65, e 3 c 66;
  b 128: -1 e 2 c 73, e 0 c 64;
  b 129: -1 e 1 c 64, e 3 c 65;
  b 130: -1 e 2 c 72, e 0 c 63;
  b 131: -1 e 2 c 71, e 0 c 62;
  b 132: -1 e 2 c 70, e 0 c 61;
  b 133: -1 e 2 c 69, e 0 c 60;
  b 134: -1 e 1 c 60, e 3 c 61;
  b 135: -1 e 2 c 68, e 0 c 59;
  b 136: -1 e 1 c 59, e 3 c 60;
  b 137: -1 e 2 c 67, e 0 c 58;
  b 138: -1 e 1 c 58, e 3 c 59;
  b 139: -1 e 2 c 66, e 0 c 57;
  b 140: -1 e 1 c 57, e 3 c 58;
  b 141: -1 e 2 c 65, e 0 c 56;
  b 142: -1 e 1 c 56, e 3 c 57;
  b 143: -1 e 2 c 64, e 0 c 55;
  b 144: -1 e 1 c 55, e 3 c 56;
  b 145: -1 e 2 c 63, e 0 c 54;
  b 146: -1 e 2 c 62, e 0 c 53;
  b 147: -1 e 2 c 61, e 0 c 153;
  b 148: -1 e 2 c 60, e 0 c 52;
  b 149: -1 e 1 c 52, e 1 c 46;
  b 150: -1 e 2 c 59, e 1 c 51;
  b 151: -1 e 2 c 51, e 3 c 52;
  b 152: -1 e 2 c 58, e 1 c 50;
  b 153: -1 e 2 c 50, e 0 c 51;
  b 154: -1 e 2 c 57, e 1 c 49;
  b 155: -1 e 2 c 49, e 0 c 50;
  b 156: -1 e 2 c 56, e 0 c 48;
  b 157: -1 e 1 c 48, e 0 c 49;
  b 158: -1 e 2 c 55, e 1 c 47;
  b 159: -1 e 0 c 154, e 3 c 48;
  b 160: -1 e 2 c 52, e 1 c 45;
  b 161: -1 e 0 c 152, e 0 c 46;
  b 162: -1 e 3 c 51, e 1 c 44;
  b 163: -1 e 2 c 44, e 0 c 45;
  b 164: -1 e 3 c 50, e 1 c 43;
  b 165: -1 e 2 c 43, e 0 c 44;
  b 166: -1 e 3 c 49, e 1 c 42;
  b 167: -1 e 2 c 42, e 0 c 43;
  b 168: -1 e 2 c 48, e 1 c 41;
  b 169: -1 e 0 c 151, e 0 c 42;
  b 170: -1 e 1 c 154, e 0 c 41;
  b 171: -1 e 2 c 54, e 0 c 40;
  b 172: -1 e 2 c 53, e 0 c 39;
  b 173: -1 e 2 c 40, e 1 c 38;
  b 174: -1 e 2 c 38, e 1 c 27;
  b 175: -1 e 0 c 150, e 0 c 38;
  b 176: -1 e 2 c 36, e 0 c 37;
  b 177: -1 e 2 c 35, e 0 c 36;
  b 178: -1 e 2 c 34, e 0 c 35;
  b 179: -1 e 2 c 33, e 0 c 34;
  b 180: -1 e 2 c 32, e 0 c 33;
  b 181: -1 e 2 c 31, e 0 c 32;
  b 182: -1 e 0 c 149, e 0 c 31;
  b 183: -1 e 2 c 39, e 1 c 29;
  b 184: -1 e 2 c 29, e 0 c 30;
  b 185: -1 e 1 c 28, e 0 c 29;
  b 186: -1 e 1 c 150, e 0 c 26;
  b 187: -1 e 1 c 26, e 0 c 27;
  b 188: -1 e 3 c 36, e 1 c 25;
  b 189: -1 e 2 c 25, e 3 c 26;
  b 190: -1 e 3 c 35, e 1 c 24;
  b 191: -1 e 2 c 24, e 0 c 25;
  b 192: -1 e 3 c 34, e 1 c 23;
  b 193: -1 e 2 c 23, e 0 c 24;
  b 194: -1 e 3 c 33, e 1 c 22;
  b 195: -1 e 2 c 22, e 0 c 23;
  b 196: -1 e 3 c 32, e 1 c 21;
  b 197: -1 e 2 c 21, e 0 c 22;
  b 198: -1 e 3 c 31, e 1 c 20;
  b 199: -1 e 2 c 20, e 0 c 21;
  b 200: -1 e 1 c 149, e 0 c 19;
  b 201: -1 e 1 c 19, e 0 c 20;
  b 202: -1 e 0 c 148, e 3 c 19;
  b 203: -1 e 1 c 147, e 0 c 145;
  b 204: -1 e 2 c 26, e 0 c 16;
  b 205: -1 e 1 c 16, e 1 c 9;
  b 206: -1 e 1 c 148, e 1 c 17;
  b 207: -1 e 0 c 18, e 2 c 19;
  b 208: -1 e 0 c 146, e 3 c 18;
  b 209: -1 e 3 c 25, e 1 c 15;
  b 210: -1 e 2 c 15, e 3 c 16;
  b 211: -1 e 3 c 24, e 1 c 14;
  b 212: -1 e 2 c 14, e 0 c 15;
  b 213: -1 e 3 c 23, e 1 c 13;
  b 214: -1 e 2 c 13, e 0 c 14;
  b 215: -1 e 3 c 22, e 1 c 12;
  b 216: -1 e 2 c 12, e 0 c 13;
  b 217: -1 e 3 c 21, e 1 c 11;
  b 218: -1 e 2 c 11, e 0 c 12;
  b 219: -1 e 3 c 20, e 1 c 10;
  b 220: -1 e 2 c 10, e 0 c 11;
  b 221: -1 e 1 c 18, e 0 c 10;
  b 222: -1 e 2 c 16, e 1 c 8;
  b 223: -1 e 0 c 144, e 0 c 9;
  b 224: -1 e 3 c 15, e 1 c 7;
  b 225: -1 e 2 c 7, e 0 c 8;
  b 226: -1 e 3 c 14, e 1 c 6;
  b 227: -1 e 2 c 6, e 0 c 7;
  b 228: -1 e 3 c 13, e 1 c 5;
  b 229: -1 e 2 c 5, e 0 c 6;
  b 230: -1 e 3 c 12, e 1 c 4;
  b 231: -1 e 2 c 4, e 0 c 5;
  b 232: -1 e 3 c 11, e 1 c 3;
  b 233: -1 e 2 c 3, e 0 c 4;
  b 234: -1 e 3 c 10, e 1 c 2;
  b 235: -1 e 2 c 2, e 0 c 3;
  b 236: -1 e 2 c 18, e 1 c 1;
  b 237: -1 e 0 c 143, e 0 c 2;
  b 238: -1 e 1 c 146, e 0 c 1;
  b 239: e 0 c 85;
  b 240: -1 e 2 c 1, e 2 c 143;
  b 241: -1 e 2 c 8, e 2 c 144;
  b 242: -1 e 2 c 9, e 2 c 145;
  b 243: -1 e 2 c 17, e 2 c 146;
  b 244: -1 e 2 c 27, e 2 c 147;
  b 245: -1 e 2 c 28, e 2 c 148;
  b 246: -1 e 2 c 30, e 2 c 149;
  b 247: -1 e 2 c 37, e 2 c 150;
  b 248: -1 e 2 c 41, e 2 c 151;
  b 249: -1 e 2 c 45, e 2 c 152;
  b 250: -1 e 2 c 46, e 2 c 153;
  b 251: -1 e 2 c 47, e 2 c 154;
  b 252: -1 e 2 c 94, e 2 c 155;
  b 253: -1 e 2 c 95, e 2 c 156;
  b 254: -1 e 2 c 97, e 2 c 157;
  b 255: -1 e 2 c 98, e 2 c 158;
  b 256: -1 e 2 c 100, e 2 c 159;
  b 257: -1 e 2 c 103, e 2 c 160;
  b 258: -1 e 2 c 105, e 2 c 161;
  b 259: -1 e 2 c 106, e 2 c 162;
  b 260: -1 e 2 c 107, e 2 c 163;
  b 261: -1 e 2 c 109, e 2 c 164;
  b 262: -1 e 2 c 111, e 2 c 165;
  b 263: -1 e 2 c 112, e 2 c 166;
  b 264: -1 e 2 c 115, e 2 c 167;
  b 265: -1 e 2 c 117, e 2 c 168;
  b 266: -1 e 2 c 120, e 2 c 169;
  b 267: -1 e 2 c 124, e 2 c 170;
  b 268: -1 e 2 c 127, e 2 c 171;
  b 269: -1 e 2 c 128, e 2 c 172;
  b 270: -1 e 2 c 132, e 2 c 173;
  b 271: -1 e 2 c 133, e 2 c 174;
  b 272: -1 e 2 c 134, e 2 c 175;
  b 273: -1 e 2 c 142, e 2 c 176;
;
PdefRA 1 {
GdefRA 1 /Zd 1 {50 0} {
  Prt 1 : CrefRA 1 { 85 };
}
}
end_momMdl;
end_ckt proj;
