beg_ckt proj :
beg_layout :
  Units: m;
  EgsUnits: mm;
  Resolution: 2.5e-008 units;
  EgsResolution: 0.0001 egsunits;
end_layout;
beg_momMdl :
Mesh: 
  Freq: 4; 
  Cd: 0.003; 
  CpWl: 20; 
  Extraction: 1; 
  Expansion: 0; 
;
NdefIA 312: 
  p 1: -0.02057 -0.0196525 0.001524,
  p 2: -0.02057 -0.018 0.001524,
  p 3: -0.02057 -0.0136525 0.001524,
  p 4: -0.02057 -0.0109025 0.001524,
  p 5: -0.02057 -0.0091525 0.001524,
  p 6: -0.02057 -0.0066525 0.001524,
  p 7: -0.02057 -0.0041525 0.001524,
  p 8: -0.02057 -0.0024025 0.001524,
  p 9: -0.02057 0.0003475 0.001524,
  p 10: -0.02057 0.0033475 0.001524,
  p 11: -0.02057 0.0060975 0.001524,
  p 12: -0.02057 0.0078475 0.001524,
  p 13: -0.02057 0.0103475 0.001524,
  p 14: -0.02057 0.0128475 0.001524,
  p 15: -0.02057 0.0145975 0.001524,
  p 16: -0.02057 0.0173475 0.001524,
  p 17: -0.02057 0.021 0.001524,
  p 18: -0.02057 0.0233475 0.001524,
  p 19: -0.01957 -0.0186525 0.001524,
  p 20: -0.01957 -0.018 0.001524,
  p 21: -0.01957 -0.015 0.001524,
  p 22: -0.01957 -0.0136525 0.001524,
  p 23: -0.01957 -0.0109025 0.001524,
  p 24: -0.01957 -0.0091525 0.001524,
  p 25: -0.01957 -0.0066525 0.001524,
  p 26: -0.01957 -0.0041525 0.001524,
  p 27: -0.01957 -0.0024025 0.001524,
  p 28: -0.01957 0.0003475 0.001524,
  p 29: -0.01957 0.0033475 0.001524,
  p 30: -0.01957 0.0060975 0.001524,
  p 31: -0.01957 0.0078475 0.001524,
  p 32: -0.01957 0.0103475 0.001524,
  p 33: -0.01957 0.0128475 0.001524,
  p 34: -0.01957 0.0145975 0.001524,
  p 35: -0.01957 0.0173475 0.001524,
  p 36: -0.01957 0.018 0.001524,
  p 37: -0.01957 0.021 0.001524,
  p 38: -0.01957 0.0223475 0.001524,
  p 39: -0.018 -0.0196525 0.001524,
  p 40: -0.018 -0.0186525 0.001524,
  p 41: -0.018 -0.018 0.001524,
  p 42: -0.018 -0.015 0.001524,
  p 43: -0.018 0.003 0.001524,
  p 44: -0.018 0.018 0.001524,
  p 45: -0.018 0.021 0.001524,
  p 46: -0.018 0.0223475 0.001524,
  p 47: -0.018 0.0233475 0.001524,
  p 48: -0.01782 -0.0109025 0.001524,
  p 49: -0.01782 -0.0091525 0.001524,
  p 50: -0.01782 -0.0066525 0.001524,
  p 51: -0.01782 -0.0041525 0.001524,
  p 52: -0.01782 -0.0024025 0.001524,
  p 53: -0.01782 0.0060975 0.001524,
  p 54: -0.01782 0.0078475 0.001524,
  p 55: -0.01782 0.0103475 0.001524,
  p 56: -0.01782 0.0128475 0.001524,
  p 57: -0.01782 0.0145975 0.001524,
  p 58: -0.01657 -0.0136525 0.001524,
  p 59: -0.01657 0.0003475 0.001524,
  p 60: -0.01657 0.0033475 0.001524,
  p 61: -0.01657 0.0173475 0.001524,
  p 62: -0.01607 -0.0091525 0.001524,
  p 63: -0.01607 -0.0066525 0.001524,
  p 64: -0.01607 -0.0041525 0.001524,
  p 65: -0.01607 0.0078475 0.001524,
  p 66: -0.01607 0.0103475 0.001524,
  p 67: -0.01607 0.0128475 0.001524,
  p 68: -0.01507 -0.0081525 0.001524,
  p 69: -0.01507 -0.0066525 0.001524,
  p 70: -0.01507 -0.0051525 0.001524,
  p 71: -0.01507 0.0088475 0.001524,
  p 72: -0.01507 0.0103475 0.001524,
  p 73: -0.01507 0.0118475 0.001524,
  p 74: -0.01507 -0.0121525 0.001524,
  p 75: -0.01507 -0.0011525 0.001524,
  p 76: -0.01507 0.0048475 0.001524,
  p 77: -0.01507 0.0158475 0.001524,
  p 78: -0.015 -0.0196525 0.001524,
  p 79: -0.015 -0.0186525 0.001524,
  p 80: -0.015 -0.018 0.001524,
  p 81: -0.015 -0.015 0.001524,
  p 82: -0.015 -0.003 0.001524,
  p 83: -0.015 0 0.001524,
  p 84: -0.015 0.003 0.001524,
  p 85: -0.015 0.006 0.001524,
  p 86: -0.015 0.015 0.001524,
  p 87: -0.015 0.018 0.001524,
  p 88: -0.015 0.021 0.001524,
  p 89: -0.015 0.0223475 0.001524,
  p 90: -0.015 0.0233475 0.001524,
  p 91: -0.012 -0.0196525 0.001524,
  p 92: -0.012 -0.0186525 0.001524,
  p 93: -0.012 -0.018 0.001524,
  p 94: -0.012 -0.015 0.001524,
  p 95: -0.012 -0.012 0.001524,
  p 96: -0.012 -0.0091525 0.001524,
  p 97: -0.012 -0.0081525 0.001524,
  p 98: -0.012 -0.0051525 0.001524,
  p 99: -0.012 -0.0041525 0.001524,
  p 100: -0.012 -0.003 0.001524,
  p 101: -0.012 0 0.001524,
  p 102: -0.012 0.003 0.001524,
  p 103: -0.012 0.006 0.001524,
  p 104: -0.012 0.0078475 0.001524,
  p 105: -0.012 0.0088475 0.001524,
  p 106: -0.012 0.0118475 0.001524,
  p 107: -0.012 0.0128475 0.001524,
  p 108: -0.012 0.015 0.001524,
  p 109: -0.012 0.018 0.001524,
  p 110: -0.012 0.021 0.001524,
  p 111: -0.012 0.0223475 0.001524,
  p 112: -0.012 0.0233475 0.001524,
  p 113: -0.009 -0.0196525 0.001524,
  p 114: -0.009 -0.0186525 0.001524,
  p 115: -0.009 -0.018 0.001524,
  p 116: -0.009 -0.015 0.001524,
  p 117: -0.009 -0.012 0.001524,
  p 118: -0.009 -0.0091525 0.001524,
  p 119: -0.009 -0.0081525 0.001524,
  p 120: -0.009 -0.0051525 0.001524,
  p 121: -0.009 -0.0041525 0.001524,
  p 122: -0.009 -0.003 0.001524,
  p 123: -0.009 0 0.001524,
  p 124: -0.009 0.003 0.001524,
  p 125: -0.009 0.006 0.001524,
  p 126: -0.009 0.0078475 0.001524,
  p 127: -0.009 0.0088475 0.001524,
  p 128: -0.009 0.0118475 0.001524,
  p 129: -0.009 0.0128475 0.001524,
  p 130: -0.009 0.015 0.001524,
  p 131: -0.009 0.018 0.001524,
  p 132: -0.009 0.021 0.001524,
  p 133: -0.009 0.0223475 0.001524,
  p 134: -0.009 0.0233475 0.001524,
  p 135: -0.006 -0.0196525 0.001524,
  p 136: -0.006 -0.0186525 0.001524,
  p 137: -0.006 -0.018 0.001524,
  p 138: -0.006 -0.015 0.001524,
  p 139: -0.006 -0.012 0.001524,
  p 140: -0.006 -0.0091525 0.001524,
  p 141: -0.006 -0.0081525 0.001524,
  p 142: -0.006 -0.0051525 0.001524,
  p 143: -0.006 -0.0041525 0.001524,
  p 144: -0.006 -0.003 0.001524,
  p 145: -0.006 0 0.001524,
  p 146: -0.006 0.003 0.001524,
  p 147: -0.006 0.006 0.001524,
  p 148: -0.006 0.0078475 0.001524,
  p 149: -0.006 0.0088475 0.001524,
  p 150: -0.006 0.0118475 0.001524,
  p 151: -0.006 0.0128475 0.001524,
  p 152: -0.006 0.015 0.001524,
  p 153: -0.006 0.018 0.001524,
  p 154: -0.006 0.021 0.001524,
  p 155: -0.006 0.0223475 0.001524,
  p 156: -0.006 0.0233475 0.001524,
  p 157: -0.003 -0.0196525 0.001524,
  p 158: -0.003 -0.0186525 0.001524,
  p 159: -0.003 -0.018 0.001524,
  p 160: -0.003 -0.015 0.001524,
  p 161: -0.003 -0.012 0.001524,
  p 162: -0.003 -0.0091525 0.001524,
  p 163: -0.003 -0.0081525 0.001524,
  p 164: -0.003 -0.0051525 0.001524,
  p 165: -0.003 -0.0041525 0.001524,
  p 166: -0.003 -0.003 0.001524,
  p 167: -0.003 0 0.001524,
  p 168: -0.003 0.003 0.001524,
  p 169: -0.003 0.006 0.001524,
  p 170: -0.003 0.0078475 0.001524,
  p 171: -0.003 0.0088475 0.001524,
  p 172: -0.003 0.0118475 0.001524,
  p 173: -0.003 0.0128475 0.001524,
  p 174: -0.003 0.015 0.001524,
  p 175: -0.003 0.018 0.001524,
  p 176: -0.003 0.021 0.001524,
  p 177: -0.003 0.0223475 0.001524,
  p 178: -0.003 0.0233475 0.001524,
  p 179: 0 -0.0196525 0.001524,
  p 180: 0 -0.0186525 0.001524,
  p 181: 0 -0.018 0.001524,
  p 182: 0 -0.015 0.001524,
  p 183: 0 -0.012 0.001524,
  p 184: 0 -0.0091525 0.001524,
  p 185: 0 -0.0081525 0.001524,
  p 186: 0 -0.0051525 0.001524,
  p 187: 0 -0.0041525 0.001524,
  p 188: 0 -0.003 0.001524,
  p 189: 0 0 0.001524,
  p 190: 0 0.003 0.001524,
  p 191: 0 0.006 0.001524,
  p 192: 0 0.0078475 0.001524,
  p 193: 0 0.0088475 0.001524,
  p 194: 0 0.0118475 0.001524,
  p 195: 0 0.0128475 0.001524,
  p 196: 0 0.015 0.001524,
  p 197: 0 0.018 0.001524,
  p 198: 0 0.021 0.001524,
  p 199: 0 0.0223475 0.001524,
  p 200: 0 0.0233475 0.001524,
  p 201: 0.00193 -0.0041525 0.001524,
  p 202: 0.00193 -0.003 0.001524,
  p 203: 0.00193 0 0.001524,
  p 204: 0.00193 0.003 0.001524,
  p 205: 0.00193 0.006 0.001524,
  p 206: 0.00193 0.0078475 0.001524,
  p 207: 0.00293 -0.0051525 0.001524,
  p 208: 0.00293 -0.003 0.001524,
  p 209: 0.00293 0 0.001524,
  p 210: 0.00293 0.003 0.001524,
  p 211: 0.00293 0.006 0.001524,
  p 212: 0.00293 0.0088475 0.001524,
  p 213: 0.003 -0.0196525 0.001524,
  p 214: 0.003 -0.0186525 0.001524,
  p 215: 0.003 -0.018 0.001524,
  p 216: 0.003 -0.015 0.001524,
  p 217: 0.003 -0.012 0.001524,
  p 218: 0.003 -0.0091525 0.001524,
  p 219: 0.003 -0.0081525 0.001524,
  p 220: 0.003 0.0118475 0.001524,
  p 221: 0.003 0.0128475 0.001524,
  p 222: 0.003 0.015 0.001524,
  p 223: 0.003 0.018 0.001524,
  p 224: 0.003 0.021 0.001524,
  p 225: 0.003 0.0223475 0.001524,
  p 226: 0.003 0.0233475 0.001524,
  p 227: 0.00493 -0.0081525 0.001524,
  p 228: 0.00493 -0.0064025 0.001524,
  p 229: 0.00493 -0.0036525 0.001524,
  p 230: 0.00493 -0.000902499999999999 0.001524,
  p 231: 0.00493 0.0018475 0.001524,
  p 232: 0.00493 0.0045975 0.001524,
  p 233: 0.00493 0.0073475 0.001524,
  p 234: 0.00493 0.0100975 0.001524,
  p 235: 0.00493 0.0118475 0.001524,
  p 236: 0.00593 -0.0091525 0.001524,
  p 237: 0.00593 -0.0064025 0.001524,
  p 238: 0.00593 -0.0036525 0.001524,
  p 239: 0.00593 -0.000902499999999999 0.001524,
  p 240: 0.00593 0.0018475 0.001524,
  p 241: 0.00593 0.0045975 0.001524,
  p 242: 0.00593 0.0073475 0.001524,
  p 243: 0.00593 0.0100975 0.001524,
  p 244: 0.00593 0.0128475 0.001524,
  p 245: 0.006 -0.0196525 0.001524,
  p 246: 0.006 -0.0186525 0.001524,
  p 247: 0.006 -0.018 0.001524,
  p 248: 0.006 -0.015 0.001524,
  p 249: 0.006 0.015 0.001524,
  p 250: 0.006 0.018 0.001524,
  p 251: 0.006 0.021 0.001524,
  p 252: 0.006 0.0223475 0.001524,
  p 253: 0.006 0.0233475 0.001524,
  p 254: 0.00643 0.0158475 0.001524,
  p 255: 0.00643 -0.0121525 0.001524,
  p 256: 0.00793 -0.0136525 0.001524,
  p 257: 0.00793 0.0173475 0.001524,
  p 258: 0.00843 -0.0116525 0.001524,
  p 259: 0.00843 -0.0091525 0.001524,
  p 260: 0.00843 -0.0064025 0.001524,
  p 261: 0.00843 -0.0036525 0.001524,
  p 262: 0.00843 -0.000902499999999999 0.001524,
  p 263: 0.00843 0.0018475 0.001524,
  p 264: 0.00843 0.0045975 0.001524,
  p 265: 0.00843 0.0073475 0.001524,
  p 266: 0.00843 0.0100975 0.001524,
  p 267: 0.00843 0.0128475 0.001524,
  p 268: 0.00843 0.0153475 0.001524,
  p 269: 0.009 -0.0196525 0.001524,
  p 270: 0.009 -0.0186525 0.001524,
  p 271: 0.009 -0.018 0.001524,
  p 272: 0.009 -0.015 0.001524,
  p 273: 0.009 0.018 0.001524,
  p 274: 0.009 0.021 0.001524,
  p 275: 0.009 0.0223475 0.001524,
  p 276: 0.009 0.0233475 0.001524,
  p 277: 0.01093 -0.0186525 0.001524,
  p 278: 0.01093 -0.018 0.001524,
  p 279: 0.01093 -0.015 0.001524,
  p 280: 0.01093 -0.0136525 0.001524,
  p 281: 0.01093 -0.0116525 0.001524,
  p 282: 0.01093 -0.0091525 0.001524,
  p 283: 0.01093 -0.0064025 0.001524,
  p 284: 0.01093 -0.0036525 0.001524,
  p 285: 0.01093 -0.000902499999999999 0.001524,
  p 286: 0.01093 0.0018475 0.001524,
  p 287: 0.01093 0.0045975 0.001524,
  p 288: 0.01093 0.0073475 0.001524,
  p 289: 0.01093 0.0100975 0.001524,
  p 290: 0.01093 0.0128475 0.001524,
  p 291: 0.01093 0.0153475 0.001524,
  p 292: 0.01093 0.0173475 0.001524,
  p 293: 0.01093 0.018 0.001524,
  p 294: 0.01093 0.021 0.001524,
  p 295: 0.01093 0.0223475 0.001524,
  p 296: 0.01193 -0.0196525 0.001524,
  p 297: 0.01193 -0.018 0.001524,
  p 298: 0.01193 -0.0136525 0.001524,
  p 299: 0.01193 -0.0116525 0.001524,
  p 300: 0.01193 -0.0091525 0.001524,
  p 301: 0.01193 -0.0064025 0.001524,
  p 302: 0.01193 -0.0036525 0.001524,
  p 303: 0.01193 -0.000902499999999999 0.001524,
  p 304: 0.01193 0.0018475 0.001524,
  p 305: 0.01193 0.0045975 0.001524,
  p 306: 0.01193 0.0073475 0.001524,
  p 307: 0.01193 0.0100975 0.001524,
  p 308: 0.01193 0.0128475 0.001524,
  p 309: 0.01193 0.0153475 0.001524,
  p 310: 0.01193 0.0173475 0.001524,
  p 311: 0.01193 0.021 0.001524,
  p 312: 0.01193 0.0233475 0.001524;
EdefIA 648: 
  s 1: 1 2,
  s 2: 1 19,
  s 3: 1 39,
  s 4: 2 3,
  s 5: 2 20,
  s 6: 3 4,
  s 7: 3 21,
  s 8: 3 22,
  s 9: 4 5,
  s 10: 4 23,
  s 11: 5 6,
  s 12: 5 24,
  s 13: 6 7,
  s 14: 6 25,
  s 15: 7 8,
  s 16: 7 26,
  s 17: 8 9,
  s 18: 8 27,
  s 19: 9 10,
  s 20: 9 28,
  s 21: 10 11,
  s 22: 10 29,
  s 23: 11 12,
  s 24: 11 30,
  s 25: 12 13,
  s 26: 12 31,
  s 27: 13 14,
  s 28: 13 32,
  s 29: 14 15,
  s 30: 14 33,
  s 31: 15 16,
  s 32: 15 34,
  s 33: 16 17,
  s 34: 16 35,
  s 35: 16 36,
  s 36: 17 18,
  s 37: 17 37,
  s 38: 18 38,
  s 39: 18 47,
  s 40: 19 20,
  s 41: 19 40,
  s 42: 20 21,
  s 43: 20 41,
  s 44: 21 22,
  s 45: 21 42,
  s 46: 22 23,
  s 47: 22 58,
  s 48: 23 24,
  s 49: 23 48,
  s 50: 24 25,
  s 51: 24 49,
  s 52: 25 26,
  s 53: 25 50,
  s 54: 26 27,
  s 55: 26 51,
  s 56: 27 28,
  s 57: 27 52,
  s 58: 28 29,
  s 59: 28 59,
  s 60: 29 30,
  s 61: 29 43,
  s 62: 30 31,
  s 63: 30 53,
  s 64: 31 32,
  s 65: 31 54,
  s 66: 32 33,
  s 67: 32 55,
  s 68: 33 34,
  s 69: 33 56,
  s 70: 34 35,
  s 71: 34 57,
  s 72: 35 36,
  s 73: 35 44,
  s 74: 36 37,
  s 75: 36 44,
  s 76: 37 38,
  s 77: 37 45,
  s 78: 38 46,
  s 79: 39 40,
  s 80: 39 78,
  s 81: 40 41,
  s 82: 40 79,
  s 83: 41 42,
  s 84: 41 80,
  s 85: 42 58,
  s 86: 42 81,
  s 87: 43 53,
  s 88: 43 59,
  s 89: 43 60,
  s 90: 44 45,
  s 91: 44 57,
  s 92: 44 61,
  s 93: 44 87,
  s 94: 45 46,
  s 95: 45 88,
  s 96: 46 47,
  s 97: 46 89,
  s 98: 47 90,
  s 99: 48 49,
  s 100: 48 58,
  s 101: 48 62,
  s 102: 49 50,
  s 103: 49 62,
  s 104: 50 51,
  s 105: 50 63,
  s 106: 51 52,
  s 107: 51 64,
  s 108: 52 59,
  s 109: 52 82,
  s 110: 53 54,
  s 111: 53 60,
  s 112: 53 85,
  s 113: 54 55,
  s 114: 54 65,
  s 115: 55 56,
  s 116: 55 66,
  s 117: 56 57,
  s 118: 56 67,
  s 119: 57 61,
  s 120: 57 77,
  s 121: 57 86,
  s 122: 58 74,
  s 123: 58 81,
  s 124: 59 60,
  s 125: 59 75,
  s 126: 59 83,
  s 127: 60 76,
  s 128: 60 84,
  s 129: 61 87,
  s 130: 62 63,
  s 131: 62 68,
  s 132: 62 74,
  s 133: 62 96,
  s 134: 63 64,
  s 135: 63 69,
  s 136: 64 70,
  s 137: 64 82,
  s 138: 64 99,
  s 139: 65 66,
  s 140: 65 71,
  s 141: 65 85,
  s 142: 65 104,
  s 143: 66 67,
  s 144: 66 72,
  s 145: 67 73,
  s 146: 67 86,
  s 147: 67 107,
  s 148: 68 69,
  s 149: 68 97,
  s 150: 69 70,
  s 151: 70 98,
  s 152: 71 72,
  s 153: 71 105,
  s 154: 72 73,
  s 155: 73 106,
  s 156: 74 81,
  s 157: 74 95,
  s 158: 75 82,
  s 159: 75 83,
  s 160: 75 101,
  s 161: 76 84,
  s 162: 76 85,
  s 163: 76 103,
  s 164: 77 86,
  s 165: 77 87,
  s 166: 77 108,
  s 167: 78 79,
  s 168: 78 91,
  s 169: 79 80,
  s 170: 79 92,
  s 171: 80 81,
  s 172: 80 93,
  s 173: 81 94,
  s 174: 82 100,
  s 175: 83 84,
  s 176: 83 101,
  s 177: 84 102,
  s 178: 85 103,
  s 179: 86 108,
  s 180: 87 88,
  s 181: 87 109,
  s 182: 88 89,
  s 183: 88 110,
  s 184: 89 90,
  s 185: 89 111,
  s 186: 90 112,
  s 187: 91 92,
  s 188: 91 113,
  s 189: 92 93,
  s 190: 92 114,
  s 191: 93 94,
  s 192: 93 115,
  s 193: 94 95,
  s 194: 94 116,
  s 195: 95 96,
  s 196: 95 117,
  s 197: 96 97,
  s 198: 96 118,
  s 199: 97 119,
  s 200: 98 99,
  s 201: 98 120,
  s 202: 99 100,
  s 203: 99 121,
  s 204: 100 101,
  s 205: 100 122,
  s 206: 101 102,
  s 207: 101 123,
  s 208: 102 103,
  s 209: 102 124,
  s 210: 103 104,
  s 211: 103 125,
  s 212: 104 105,
  s 213: 104 126,
  s 214: 105 127,
  s 215: 106 107,
  s 216: 106 128,
  s 217: 107 108,
  s 218: 107 129,
  s 219: 108 109,
  s 220: 108 130,
  s 221: 109 110,
  s 222: 109 131,
  s 223: 110 111,
  s 224: 110 132,
  s 225: 111 112,
  s 226: 111 133,
  s 227: 112 134,
  s 228: 113 114,
  s 229: 113 135,
  s 230: 114 115,
  s 231: 114 136,
  s 232: 115 116,
  s 233: 115 137,
  s 234: 116 117,
  s 235: 116 138,
  s 236: 117 118,
  s 237: 117 139,
  s 238: 118 119,
  s 239: 118 140,
  s 240: 119 141,
  s 241: 120 121,
  s 242: 120 142,
  s 243: 121 122,
  s 244: 121 143,
  s 245: 122 123,
  s 246: 122 144,
  s 247: 123 124,
  s 248: 123 145,
  s 249: 124 125,
  s 250: 124 146,
  s 251: 125 126,
  s 252: 125 147,
  s 253: 126 127,
  s 254: 126 148,
  s 255: 127 149,
  s 256: 128 129,
  s 257: 128 150,
  s 258: 129 130,
  s 259: 129 151,
  s 260: 130 131,
  s 261: 130 152,
  s 262: 131 132,
  s 263: 131 153,
  s 264: 132 133,
  s 265: 132 154,
  s 266: 133 134,
  s 267: 133 155,
  s 268: 134 156,
  s 269: 135 136,
  s 270: 135 157,
  s 271: 136 137,
  s 272: 136 158,
  s 273: 137 138,
  s 274: 137 159,
  s 275: 138 139,
  s 276: 138 160,
  s 277: 139 140,
  s 278: 139 161,
  s 279: 140 141,
  s 280: 140 162,
  s 281: 141 163,
  s 282: 142 143,
  s 283: 142 164,
  s 284: 143 144,
  s 285: 143 165,
  s 286: 144 145,
  s 287: 144 166,
  s 288: 145 146,
  s 289: 145 167,
  s 290: 146 147,
  s 291: 146 168,
  s 292: 147 148,
  s 293: 147 169,
  s 294: 148 149,
  s 295: 148 170,
  s 296: 149 171,
  s 297: 150 151,
  s 298: 150 172,
  s 299: 151 152,
  s 300: 151 173,
  s 301: 152 153,
  s 302: 152 174,
  s 303: 153 154,
  s 304: 153 175,
  s 305: 154 155,
  s 306: 154 176,
  s 307: 155 156,
  s 308: 155 177,
  s 309: 156 178,
  s 310: 157 158,
  s 311: 157 179,
  s 312: 158 159,
  s 313: 158 180,
  s 314: 159 160,
  s 315: 159 181,
  s 316: 160 161,
  s 317: 160 182,
  s 318: 161 162,
  s 319: 161 183,
  s 320: 162 163,
  s 321: 162 184,
  s 322: 163 185,
  s 323: 164 165,
  s 324: 164 186,
  s 325: 165 166,
  s 326: 165 187,
  s 327: 166 167,
  s 328: 166 188,
  s 329: 167 168,
  s 330: 167 189,
  s 331: 168 169,
  s 332: 168 190,
  s 333: 169 170,
  s 334: 169 191,
  s 335: 170 171,
  s 336: 170 192,
  s 337: 171 193,
  s 338: 172 173,
  s 339: 172 194,
  s 340: 173 174,
  s 341: 173 195,
  s 342: 174 175,
  s 343: 174 196,
  s 344: 175 176,
  s 345: 175 197,
  s 346: 176 177,
  s 347: 176 198,
  s 348: 177 178,
  s 349: 177 199,
  s 350: 178 200,
  s 351: 179 180,
  s 352: 179 213,
  s 353: 180 181,
  s 354: 180 214,
  s 355: 181 182,
  s 356: 181 215,
  s 357: 182 183,
  s 358: 182 216,
  s 359: 183 184,
  s 360: 183 217,
  s 361: 184 185,
  s 362: 184 218,
  s 363: 185 219,
  s 364: 186 187,
  s 365: 186 207,
  s 366: 187 188,
  s 367: 187 201,
  s 368: 188 189,
  s 369: 188 202,
  s 370: 189 190,
  s 371: 189 203,
  s 372: 190 191,
  s 373: 190 204,
  s 374: 191 192,
  s 375: 191 205,
  s 376: 192 193,
  s 377: 192 206,
  s 378: 193 212,
  s 379: 194 195,
  s 380: 194 220,
  s 381: 195 196,
  s 382: 195 221,
  s 383: 196 197,
  s 384: 196 222,
  s 385: 197 198,
  s 386: 197 223,
  s 387: 198 199,
  s 388: 198 224,
  s 389: 199 200,
  s 390: 199 225,
  s 391: 200 226,
  s 392: 201 202,
  s 393: 201 207,
  s 394: 202 203,
  s 395: 202 208,
  s 396: 203 204,
  s 397: 203 209,
  s 398: 204 205,
  s 399: 204 210,
  s 400: 205 206,
  s 401: 205 211,
  s 402: 206 212,
  s 403: 207 208,
  s 404: 208 209,
  s 405: 209 210,
  s 406: 210 211,
  s 407: 211 212,
  s 408: 213 214,
  s 409: 213 245,
  s 410: 214 215,
  s 411: 214 246,
  s 412: 215 216,
  s 413: 215 247,
  s 414: 216 217,
  s 415: 216 248,
  s 416: 217 218,
  s 417: 217 255,
  s 418: 218 219,
  s 419: 218 236,
  s 420: 219 227,
  s 421: 220 221,
  s 422: 220 235,
  s 423: 221 222,
  s 424: 221 244,
  s 425: 222 223,
  s 426: 222 249,
  s 427: 222 254,
  s 428: 223 224,
  s 429: 223 250,
  s 430: 224 225,
  s 431: 224 251,
  s 432: 225 226,
  s 433: 225 252,
  s 434: 226 253,
  s 435: 227 228,
  s 436: 227 236,
  s 437: 228 229,
  s 438: 228 237,
  s 439: 229 230,
  s 440: 229 238,
  s 441: 230 231,
  s 442: 230 239,
  s 443: 231 232,
  s 444: 231 240,
  s 445: 232 233,
  s 446: 232 241,
  s 447: 233 234,
  s 448: 233 242,
  s 449: 234 235,
  s 450: 234 243,
  s 451: 235 244,
  s 452: 236 237,
  s 453: 236 255,
  s 454: 236 259,
  s 455: 237 238,
  s 456: 237 260,
  s 457: 238 239,
  s 458: 238 261,
  s 459: 239 240,
  s 460: 239 262,
  s 461: 240 241,
  s 462: 240 263,
  s 463: 241 242,
  s 464: 241 264,
  s 465: 242 243,
  s 466: 242 265,
  s 467: 243 244,
  s 468: 243 266,
  s 469: 244 249,
  s 470: 244 267,
  s 471: 245 246,
  s 472: 245 269,
  s 473: 246 247,
  s 474: 246 270,
  s 475: 247 248,
  s 476: 247 271,
  s 477: 248 255,
  s 478: 248 256,
  s 479: 248 272,
  s 480: 249 254,
  s 481: 249 268,
  s 482: 250 251,
  s 483: 250 254,
  s 484: 250 257,
  s 485: 250 273,
  s 486: 251 252,
  s 487: 251 274,
  s 488: 252 253,
  s 489: 252 275,
  s 490: 253 276,
  s 491: 254 268,
  s 492: 255 258,
  s 493: 256 258,
  s 494: 256 272,
  s 495: 256 280,
  s 496: 257 268,
  s 497: 257 273,
  s 498: 258 259,
  s 499: 258 281,
  s 500: 259 260,
  s 501: 259 282,
  s 502: 260 261,
  s 503: 260 283,
  s 504: 261 262,
  s 505: 261 284,
  s 506: 262 263,
  s 507: 262 285,
  s 508: 263 264,
  s 509: 263 286,
  s 510: 264 265,
  s 511: 264 287,
  s 512: 265 266,
  s 513: 265 288,
  s 514: 266 267,
  s 515: 266 289,
  s 516: 267 268,
  s 517: 267 290,
  s 518: 268 273,
  s 519: 268 291,
  s 520: 269 270,
  s 521: 269 296,
  s 522: 270 271,
  s 523: 270 277,
  s 524: 271 272,
  s 525: 271 278,
  s 526: 272 279,
  s 527: 273 274,
  s 528: 273 292,
  s 529: 273 293,
  s 530: 274 275,
  s 531: 274 294,
  s 532: 275 276,
  s 533: 275 295,
  s 534: 276 312,
  s 535: 277 278,
  s 536: 277 296,
  s 537: 278 279,
  s 538: 278 297,
  s 539: 279 280,
  s 540: 279 298,
  s 541: 280 281,
  s 542: 280 298,
  s 543: 281 282,
  s 544: 281 299,
  s 545: 282 283,
  s 546: 282 300,
  s 547: 283 284,
  s 548: 283 301,
  s 549: 284 285,
  s 550: 284 302,
  s 551: 285 286,
  s 552: 285 303,
  s 553: 286 287,
  s 554: 286 304,
  s 555: 287 288,
  s 556: 287 305,
  s 557: 288 289,
  s 558: 288 306,
  s 559: 289 290,
  s 560: 289 307,
  s 561: 290 291,
  s 562: 290 308,
  s 563: 291 292,
  s 564: 291 309,
  s 565: 292 293,
  s 566: 292 310,
  s 567: 293 294,
  s 568: 293 310,
  s 569: 294 295,
  s 570: 294 311,
  s 571: 295 312,
  s 572: 296 297,
  s 573: 297 298,
  s 574: 298 299,
  s 575: 299 300,
  s 576: 300 301,
  s 577: 301 302,
  s 578: 302 303,
  s 579: 303 304,
  s 580: 304 305,
  s 581: 305 306,
  s 582: 306 307,
  s 583: 307 308,
  s 584: 308 309,
  s 585: 309 310,
  s 586: 310 311,
  s 587: 311 312,
  s 588: 312 294,
  s 589: 311 293,
  s 590: 298 278,
  s 591: 297 277,
  s 592: 296 270,
  s 593: 312 275,
  s 594: 292 268,
  s 595: 281 256,
  s 596: 268 250,
  s 597: 280 272,
  s 598: 258 248,
  s 599: 254 223,
  s 600: 268 244,
  s 601: 259 255,
  s 602: 255 218,
  s 603: 244 234,
  s 604: 237 227,
  s 605: 236 219,
  s 606: 249 221,
  s 607: 244 220,
  s 608: 255 216,
  s 609: 212 205,
  s 610: 208 201,
  s 611: 207 187,
  s 612: 212 192,
  s 613: 109 77,
  s 614: 108 67,
  s 615: 100 64,
  s 616: 103 84,
  s 617: 101 82,
  s 618: 82 59,
  s 619: 95 81,
  s 620: 105 65,
  s 621: 97 62,
  s 622: 107 73,
  s 623: 73 66,
  s 624: 72 65,
  s 625: 104 85,
  s 626: 85 54,
  s 627: 99 70,
  s 628: 70 63,
  s 629: 69 62,
  s 630: 96 74,
  s 631: 74 48,
  s 632: 87 57,
  s 633: 84 59,
  s 634: 86 56,
  s 635: 85 60,
  s 636: 82 51,
  s 637: 58 23,
  s 638: 57 35,
  s 639: 59 29,
  s 640: 53 29,
  s 641: 59 27,
  s 642: 58 21,
  s 643: 40 1,
  s 644: 47 38,
  s 645: 38 17,
  s 646: 37 16,
  s 647: 21 2,
  s 648: 20 1;
CdefIA 336: 
  c 1: -571 -569 -588,
  c 2: -570 -567 -589,
  c 3: -568 -565 566,
  c 4: -563 564 585 -566,
  c 5: -561 562 584 -564,
  c 6: -562 -559 560 583,
  c 7: -560 -557 558 582,
  c 8: -558 -555 556 581,
  c 9: -556 -553 554 580,
  c 10: -554 -551 552 579,
  c 11: -552 -549 550 578,
  c 12: -550 -547 548 577,
  c 13: -548 -545 546 576,
  c 14: -543 544 575 -546,
  c 15: -541 542 574 -544,
  c 16: -542 -539 540,
  c 17: -540 -537 -590,
  c 18: -538 -535 -591,
  c 19: -536 -523 -592,
  c 20: -534 -532 -593,
  c 21: -530 531 569 -533,
  c 22: -527 529 567 -531,
  c 23: -529 528 565,
  c 24: -528 -518 -594,
  c 25: -524 525 537 -526,
  c 26: -522 523 535 -525,
  c 27: -516 517 561 -519,
  c 28: -517 -514 515 559,
  c 29: -515 -512 513 557,
  c 30: -513 -510 511 555,
  c 31: -511 -508 509 553,
  c 32: -509 -506 507 551,
  c 33: -507 -504 505 549,
  c 34: -505 -502 503 547,
  c 35: -503 -500 501 545,
  c 36: -498 499 543 -501,
  c 37: -499 -493 -595,
  c 38: -497 496 518,
  c 39: -496 -484 -596,
  c 40: -495 494 -597,
  c 41: -494 -478 479,
  c 42: -492 -477 -598,
  c 43: -491 -480 481,
  c 44: -488 489 532 -490,
  c 45: -486 487 530 -489,
  c 46: -482 485 527 -487,
  c 47: -485 484 497,
  c 48: -483 -429 -599,
  c 49: -481 -469 -600,
  c 50: -475 476 524 -479,
  c 51: -473 474 522 -476,
  c 52: -471 472 520 -474,
  c 53: -470 -467 468 514,
  c 54: -468 -465 466 512,
  c 55: -466 -463 464 510,
  c 56: -464 -461 462 508,
  c 57: -462 -459 460 506,
  c 58: -460 -457 458 504,
  c 59: -458 -455 456 502,
  c 60: -456 -452 454 500,
  c 61: -454 453 -601,
  c 62: -453 -419 -602,
  c 63: -451 -449 -603,
  c 64: -450 -447 448 465,
  c 65: -448 -445 446 463,
  c 66: -446 -443 444 461,
  c 67: -444 -441 442 459,
  c 68: -442 -439 440 457,
  c 69: -440 -437 438 455,
  c 70: -438 -435 -604,
  c 71: -436 -420 -605,
  c 72: -432 433 488 -434,
  c 73: -430 431 486 -433,
  c 74: -428 429 482 -431,
  c 75: -427 426 480,
  c 76: -426 -423 -606,
  c 77: -424 -421 -607,
  c 78: -417 -414 -608,
  c 79: -412 413 475 -415,
  c 80: -410 411 473 -413,
  c 81: -408 409 471 -411,
  c 82: -402 -400 -609,
  c 83: -401 -398 399 406,
  c 84: -399 -396 397 405,
  c 85: -397 -394 395 404,
  c 86: -395 -392 -610,
  c 87: -393 -367 -611,
  c 88: -389 390 432 -391,
  c 89: -387 388 430 -390,
  c 90: -385 386 428 -388,
  c 91: -383 384 425 -386,
  c 92: -381 382 423 -384,
  c 93: -379 380 421 -382,
  c 94: -378 -376 -612,
  c 95: -374 375 400 -377,
  c 96: -375 -372 373 398,
  c 97: -373 -370 371 396,
  c 98: -371 -368 369 394,
  c 99: -366 367 392 -369,
  c 100: -361 362 418 -363,
  c 101: -359 360 416 -362,
  c 102: -357 358 414 -360,
  c 103: -355 356 412 -358,
  c 104: -353 354 410 -356,
  c 105: -351 352 408 -354,
  c 106: -348 349 389 -350,
  c 107: -346 347 387 -349,
  c 108: -344 345 385 -347,
  c 109: -342 343 383 -345,
  c 110: -340 341 381 -343,
  c 111: -338 339 379 -341,
  c 112: -335 336 376 -337,
  c 113: -333 334 374 -336,
  c 114: -331 332 372 -334,
  c 115: -329 330 370 -332,
  c 116: -327 328 368 -330,
  c 117: -325 326 366 -328,
  c 118: -323 324 364 -326,
  c 119: -320 321 361 -322,
  c 120: -318 319 359 -321,
  c 121: -316 317 357 -319,
  c 122: -314 315 355 -317,
  c 123: -312 313 353 -315,
  c 124: -310 311 351 -313,
  c 125: -307 308 348 -309,
  c 126: -305 306 346 -308,
  c 127: -303 304 344 -306,
  c 128: -301 302 342 -304,
  c 129: -299 300 340 -302,
  c 130: -297 298 338 -300,
  c 131: -294 295 335 -296,
  c 132: -292 293 333 -295,
  c 133: -290 291 331 -293,
  c 134: -288 289 329 -291,
  c 135: -286 287 327 -289,
  c 136: -284 285 325 -287,
  c 137: -282 283 323 -285,
  c 138: -279 280 320 -281,
  c 139: -277 278 318 -280,
  c 140: -275 276 316 -278,
  c 141: -273 274 314 -276,
  c 142: -271 272 312 -274,
  c 143: -269 270 310 -272,
  c 144: -266 267 307 -268,
  c 145: -264 265 305 -267,
  c 146: -262 263 303 -265,
  c 147: -260 261 301 -263,
  c 148: -258 259 299 -261,
  c 149: -256 257 297 -259,
  c 150: -253 254 294 -255,
  c 151: -251 252 292 -254,
  c 152: -249 250 290 -252,
  c 153: -247 248 288 -250,
  c 154: -245 246 286 -248,
  c 155: -243 244 284 -246,
  c 156: -241 242 282 -244,
  c 157: -238 239 279 -240,
  c 158: -236 237 277 -239,
  c 159: -234 235 275 -237,
  c 160: -232 233 273 -235,
  c 161: -230 231 271 -233,
  c 162: -228 229 269 -231,
  c 163: -225 226 266 -227,
  c 164: -223 224 264 -226,
  c 165: -221 222 262 -224,
  c 166: -219 220 260 -222,
  c 167: -217 218 258 -220,
  c 168: -215 216 256 -218,
  c 169: -212 213 253 -214,
  c 170: -210 211 251 -213,
  c 171: -208 209 249 -211,
  c 172: -206 207 247 -209,
  c 173: -204 205 245 -207,
  c 174: -202 203 243 -205,
  c 175: -200 201 241 -203,
  c 176: -197 198 238 -199,
  c 177: -195 196 236 -198,
  c 178: -193 194 234 -196,
  c 179: -191 192 232 -194,
  c 180: -189 190 230 -192,
  c 181: -187 188 228 -190,
  c 182: -184 185 225 -186,
  c 183: -182 183 223 -185,
  c 184: -180 181 221 -183,
  c 185: -181 -165 -613,
  c 186: -179 -146 -614,
  c 187: -178 -162 163,
  c 188: -175 176 206 -177,
  c 189: -176 -159 160,
  c 190: -174 -137 -615,
  c 191: -171 172 191 -173,
  c 192: -169 170 189 -172,
  c 193: -167 168 187 -170,
  c 194: -166 164 179,
  c 195: -164 -120 121,
  c 196: -163 161 -616,
  c 197: -161 -127 128,
  c 198: -160 158 -617,
  c 199: -158 -125 -618,
  c 200: -157 156 -619,
  c 201: -156 -122 123,
  c 202: -153 -140 -620,
  c 203: -149 -131 -621,
  c 204: -147 145 -622,
  c 205: -145 -143 -623,
  c 206: -144 -139 -624,
  c 207: -142 141 -625,
  c 208: -141 -114 -626,
  c 209: -138 136 -627,
  c 210: -136 -134 -628,
  c 211: -135 -130 -629,
  c 212: -133 132 -630,
  c 213: -132 -101 -631,
  c 214: -129 -119 -632,
  c 215: -128 -124 -633,
  c 216: -126 125 159,
  c 217: -123 -85 86,
  c 218: -121 -117 -634,
  c 219: -118 -115 116 143,
  c 220: -116 -113 114 139,
  c 221: -112 111 -635,
  c 222: -111 -87 89,
  c 223: -109 -106 -636,
  c 224: -107 -104 105 134,
  c 225: -105 -102 103 130,
  c 226: -103 -99 101,
  c 227: -100 -49 -637,
  c 228: -96 97 184 -98,
  c 229: -94 95 182 -97,
  c 230: -90 93 180 -95,
  c 231: -93 92 129,
  c 232: -92 91 119,
  c 233: -91 -73 -638,
  c 234: -89 88 124,
  c 235: -88 -61 -639,
  c 236: -83 84 171 -86,
  c 237: -81 82 169 -84,
  c 238: -79 80 167 -82,
  c 239: -76 77 94 -78,
  c 240: -74 75 90 -77,
  c 241: -75 -72 73,
  c 242: -68 69 117 -71,
  c 243: -69 -66 67 115,
  c 244: -67 -64 65 113,
  c 245: -62 63 110 -65,
  c 246: -63 -60 -640,
  c 247: -59 -56 -641,
  c 248: -54 55 106 -57,
  c 249: -55 -52 53 104,
  c 250: -53 -50 51 102,
  c 251: -48 49 99 -51,
  c 252: -47 -44 -642,
  c 253: -42 43 83 -45,
  c 254: -40 41 81 -43,
  c 255: -41 -2 -643,
  c 256: -39 38 -644,
  c 257: -38 -36 -645,
  c 258: -37 -33 -646,
  c 259: -35 34 72,
  c 260: -31 32 70 -34,
  c 261: -29 30 68 -32,
  c 262: -30 -27 28 66,
  c 263: -28 -25 26 64,
  c 264: -23 24 62 -26,
  c 265: -21 22 60 -24,
  c 266: -19 20 58 -22,
  c 267: -17 18 56 -20,
  c 268: -15 16 54 -18,
  c 269: -16 -13 14 52,
  c 270: -14 -11 12 50,
  c 271: -9 10 48 -12,
  c 272: -6 8 46 -10,
  c 273: -8 7 44,
  c 274: -7 -4 -647,
  c 275: -5 -1 -648,
  c 276: 570 587 588,
  c 277: 568 586 589,
  c 278: 538 573 590,
  c 279: 536 572 591,
  c 280: -520 521 592,
  c 281: 533 571 593,
  c 282: 519 563 594,
  c 283: 495 541 595,
  c 284: 483 491 596,
  c 285: 526 539 597,
  c 286: 478 493 598,
  c 287: -425 427 599,
  c 288: 470 516 600,
  c 289: 492 498 601,
  c 290: -416 417 602,
  c 291: 450 467 603,
  c 292: 436 452 604,
  c 293: -418 419 605,
  c 294: 424 469 606,
  c 295: 422 451 607,
  c 296: 415 477 608,
  c 297: 401 407 609,
  c 298: 393 403 610,
  c 299: -364 365 611,
  c 300: 377 402 612,
  c 301: 166 219 613,
  c 302: 147 217 614,
  c 303: 138 202 615,
  c 304: 177 208 616,
  c 305: 174 204 617,
  c 306: -108 109 618,
  c 307: 173 193 619,
  c 308: 142 212 620,
  c 309: 133 197 621,
  c 310: 155 215 622,
  c 311: 144 154 623,
  c 312: 140 152 624,
  c 313: 178 210 625,
  c 314: -110 112 626,
  c 315: 151 200 627,
  c 316: 135 150 628,
  c 317: 131 148 629,
  c 318: 157 195 630,
  c 319: 100 122 631,
  c 320: 120 165 632,
  c 321: 126 175 633,
  c 322: 118 146 634,
  c 323: 127 162 635,
  c 324: 107 137 636,
  c 325: -46 47 637,
  c 326: -70 71 638,
  c 327: -58 59 639,
  c 328: 61 87 640,
  c 329: 57 108 641,
  c 330: 45 85 642,
  c 331: 3 79 643,
  c 332: 78 96 644,
  c 333: 37 76 645,
  c 334: 35 74 646,
  c 335: 5 42 647,
  c 336: 2 40 648;
beg_Xinfo :
beg_layer /1:
  Mask: 1;
  Type: metal;
  Level: 0;
  Plane: z = 0.001524;
  Fill: condthickness 58000000 3.5e-005 M precedence 0;
  CrefRA 336 { 
  1 276 20 281 44 72 88 106 125 144 163 182
  228 256 332 257 333 258 334 259 260 261 262 263 264
  265 266 267 268 269 270 271 272 273 274 335
  275 336 255 331 254 237 238 193 181 162 143 124
  105 81 52 19 280 18 279 17 278 16 15 37 283 36
  61 289 60 70 292 69 59 34 35 13 14 12
  11 33 58 68 67 57 32 10 9 31
  56 66 65 55 30 8 7 29 54 64
  63 291 77 295 76 294 75 48 287 39 284 38 47 46 74
  90 108 127 146 165 184 230 240 241 233 326
  232 231 214 320 195 194 185 301 166 167 186 302 218 322
  242 243 244 245 246 328 235 327 234 222 221 323 208 314
  207 313 202 308 206 312 205 311 204 310 168 149 130 111 93
  92 110 129 148 147 128 109 91 219 220
  169 170 171 196 304 187 197 215 321 216 199 306 198 305
  189 188 172 173 174 190 303 223 324 248 249 250
  251 227 325 213 319 212 318 203 309 211 317 210 316 209 315 175 156
  137 118 87 299 86 298 85 98 116 135 154 155
  136 117 99 153 134 115 97 84 83 96
  114 133 152 151 132 113 95 82 297 94 300 112
  131 150 224 225 226 176 177 178 200 307 201
  217 252 330 253 236 191 192 180 161 142 123
  104 80 51 26 25 50 79 103 122 141
  160 179 159 140 121 102 78 296 62 290 71 293 100
  119 138 157 158 139 120 101 42 286 41 40 285
  247 329 239 229 183 164 145 126 107 89 73
  45 21 22 23 24 282 27 49 288 43 53 28
  6 5 4 3 2 277 }
  RGrid 0.00275,0.001 -1.5707963267949 1: 
  0.01093,0.0128475 8,1 8:
    7,0 c 13, 6,0 c 12, 5,0 c 11, 4,0 c 10, 3,0 c 9, 
    2,0 c 8, 1,0 c 7, 0,0 c 6;
  RGrid 0.00275,0.0025 -1.5707963267949 1: 
  0.00593,0.0128475 8,2 16:
    7,0 c 60, 6,0 c 59, 5,0 c 58, 4,0 c 57, 3,0 c 56, 
    2,0 c 55, 1,0 c 54, 0,0 c 53, 7,1 c 35, 6,1 c 34, 
    5,1 c 33, 4,1 c 32, 3,1 c 31, 2,1 c 30, 1,1 c 29, 
    0,1 c 28;
  RGrid 0.003,0.000999999999999997 0 1: 
  -0.018,0.0223475 9,1 9:
    0,0 c 228, 1,0 c 182, 2,0 c 163, 3,0 c 144, 4,0 c 125, 
    5,0 c 106, 6,0 c 88, 7,0 c 72, 8,0 c 44;
  RGrid 0.003,0.0013475 0 1: 
  -0.018,0.021 9,1 9:
    0,0 c 229, 1,0 c 183, 2,0 c 164, 3,0 c 145, 4,0 c 126, 
    5,0 c 107, 6,0 c 89, 7,0 c 73, 8,0 c 45;
  RGrid 0.003,0.003 0 1: 
  -0.018,0.015 9,2 14:
    0,1 c 230, 1,1 c 184, 2,0 c 166, 2,1 c 165, 3,0 c 147, 
    3,1 c 146, 4,0 c 128, 4,1 c 127, 5,0 c 109, 5,1 c 108, 
    6,0 c 91, 6,1 c 90, 7,1 c 74, 8,1 c 46;
  RGrid 0.003,0.003 0 1: 
  -0.018,-0.018 9,2 14:
    0,0 c 236, 1,0 c 191, 2,0 c 179, 2,1 c 178, 3,0 c 160, 
    3,1 c 159, 4,0 c 141, 4,1 c 140, 5,0 c 122, 5,1 c 121, 
    6,0 c 103, 6,1 c 102, 7,0 c 79, 8,0 c 50;
  RGrid 0.003,0.000652499999999999 0 1: 
  -0.018,-0.0186525 9,1 9:
    0,0 c 237, 1,0 c 192, 2,0 c 180, 3,0 c 161, 4,0 c 142, 
    5,0 c 123, 6,0 c 104, 7,0 c 80, 8,0 c 51;
  RGrid 0.003,0.001 0 1: 
  -0.018,-0.0196525 9,1 9:
    0,0 c 238, 1,0 c 193, 2,0 c 181, 3,0 c 162, 4,0 c 143, 
    5,0 c 124, 6,0 c 105, 7,0 c 81, 8,0 c 52;
  RGrid 0.00275,0.001 -1.5707963267949 1: 
  0.00493,0.0100975 6,1 6:
    5,0 c 69, 4,0 c 68, 3,0 c 67, 2,0 c 66, 1,0 c 65, 
    0,0 c 64;
  RGrid 0.003,0.001 -1.5707963267949 1: 
  0.00193,0.006 3,1 3:
    2,0 c 85, 1,0 c 84, 0,0 c 83;
  RGrid 0.003,0.0021525 0 1: 
  -0.012,0.0128475 5,1 5:
    0,0 c 167, 1,0 c 148, 2,0 c 129, 3,0 c 110, 4,0 c 92;
  RGrid 0.003,0.001 0 1: 
  -0.012,0.0118475 5,1 5:
    0,0 c 168, 1,0 c 149, 2,0 c 130, 3,0 c 111, 4,0 c 93;
  RGrid 0.003,0.00193 -1.5707963267949 1: 
  0,0.006 3,1 3:
    2,0 c 98, 1,0 c 97, 0,0 c 96;
  RGrid 0.003,0.000999999999999999 0 1: 
  -0.012,-0.0091525 5,1 5:
    0,0 c 176, 1,0 c 157, 2,0 c 138, 3,0 c 119, 4,0 c 100;
  RGrid 0.003,0.0028475 0 1: 
  -0.012,-0.012 5,1 5:
    0,0 c 177, 1,0 c 158, 2,0 c 139, 3,0 c 120, 4,0 c 101;
  RGrid 0.003,0.001 0 1: 
  -0.012,0.0078475 4,1 4:
    0,0 c 169, 1,0 c 150, 2,0 c 131, 3,0 c 112;
  RGrid 0.003,0.0018475 0 1: 
  -0.012,0.006 4,1 4:
    0,0 c 170, 1,0 c 151, 2,0 c 132, 3,0 c 113;
  RGrid 0.003,0.003 0 1: 
  -0.015,-0.003 5,3 13:
    0,1 c 188, 1,0 c 173, 1,1 c 172, 1,2 c 171, 2,0 c 154, 
    2,1 c 153, 2,2 c 152, 3,0 c 135, 3,1 c 134, 3,2 c 133, 
    4,0 c 116, 4,1 c 115, 4,2 c 114;
  RGrid 0.003,0.0011525 0 1: 
  -0.012,-0.0041525 4,1 4:
    0,0 c 174, 1,0 c 155, 2,0 c 136, 3,0 c 117;
  RGrid 0.003,0.001 0 1: 
  -0.012,-0.0051525 4,1 4:
    0,0 c 175, 1,0 c 156, 2,0 c 137, 3,0 c 118;
  RGrid 0.0025,0.00175 -1.5707963267949 1: 
  -0.01957,0.0128475 2,2 4:
    1,0 c 244, 0,0 c 243, 1,1 c 220, 0,1 c 219;
  RGrid 0.0025,0.00175 -1.5707963267949 1: 
  -0.01957,-0.0041525 2,2 4:
    1,0 c 250, 0,0 c 249, 1,1 c 225, 0,1 c 224;
  RGrid 0.0025,0.001 -1.5707963267949 1: 
  -0.02057,0.0128475 2,1 2:
    1,0 c 263, 0,0 c 262;
  RGrid 0.0025,0.001 -1.5707963267949 1: 
  -0.02057,-0.0041525 2,1 2:
    1,0 c 270, 0,0 c 269;
end_layer /1;
end_Xinfo;
Overlap: 
  ErefRA 208 { 
  1 3 4 6 9 11 13 15 17 19
  21 23 25 27 29 31 33 36 39 40
  41 42 44 46 48 50 52 54 56 58
  60 62 64 66 68 70 72 74 76 78
  80 82 97 98 130 133 134 138 139 142
  143 147 148 149 150 151 152 153 154 155
  168 170 185 186 188 190 198 199 201 203
  206 207 209 213 214 216 218 226 227 229
  231 239 240 242 244 247 254 255 257 259
  267 268 270 272 280 281 283 285 295 296
  298 300 308 309 311 313 321 322 324 326
  336 337 339 341 349 350 352 354 362 363
  365 367 377 378 380 382 390 391 392 394
  396 398 400 403 404 405 406 407 409 411
  419 420 422 424 433 434 435 437 439 441
  443 445 447 449 452 455 457 459 461 463
  465 467 472 474 489 490 521 523 533 534
  535 537 539 541 543 545 547 549 551 553
  555 557 559 561 563 565 567 569 572 573
  574 575 576 577 578 579 580 581 582 583
  584 585 586 587 177 176 248 250 };
BdefIA 551: 
  b 1: -1 e 0 c 336, e 1 c 255;
  b 2: -1 e 0 c 335, e 0 c 275;
  b 3: -1 e 1 c 273, e 0 c 274;
  b 4: -1 e 1 c 272, e 0 c 273;
  b 5: -1 e 1 c 271, e 3 c 272;
  b 6: -1 e 2 c 270, e 3 c 271;
  b 7: -1 e 2 c 269, e 0 c 270;
  b 8: -1 e 1 c 268, e 0 c 269;
  b 9: -1 e 1 c 267, e 3 c 268;
  b 10: -1 e 1 c 266, e 3 c 267;
  b 11: -1 e 1 c 265, e 3 c 266;
  b 12: -1 e 1 c 264, e 3 c 265;
  b 13: -1 e 2 c 263, e 3 c 264;
  b 14: -1 e 2 c 262, e 0 c 263;
  b 15: -1 e 1 c 261, e 0 c 262;
  b 16: -1 e 1 c 260, e 3 c 261;
  b 17: -1 e 1 c 259, e 3 c 260;
  b 18: -1 e 0 c 334, e 0 c 259;
  b 19: -1 e 0 c 333, e 0 c 258;
  b 20: -1 e 1 c 256, e 0 c 257;
  b 21: -1 e 1 c 336, e 0 c 254;
  b 22: -1 e 1 c 254, e 0 c 255;
  b 23: -1 e 1 c 335, e 0 c 253;
  b 24: -1 e 1 c 253, e 3 c 254;
  b 25: -1 e 2 c 273, e 1 c 252;
  b 26: -1 e 0 c 330, e 3 c 253;
  b 27: -1 e 2 c 272, e 0 c 325;
  b 28: -1 e 1 c 325, e 0 c 252;
  b 29: -1 e 2 c 271, e 0 c 251;
  b 30: -1 e 1 c 251, e 1 c 227;
  b 31: -1 e 3 c 270, e 1 c 250;
  b 32: -1 e 2 c 250, e 3 c 251;
  b 33: -1 e 3 c 269, e 1 c 249;
  b 34: -1 e 2 c 249, e 0 c 250;
  b 35: -1 e 2 c 268, e 0 c 248;
  b 36: -1 e 1 c 248, e 0 c 249;
  b 37: -1 e 2 c 267, e 1 c 247;
  b 38: -1 e 0 c 329, e 3 c 248;
  b 39: -1 e 2 c 266, e 0 c 327;
  b 40: -1 e 1 c 327, e 0 c 247;
  b 41: -1 e 2 c 265, e 1 c 246;
  b 42: -1 e 0 c 328, e 1 c 235;
  b 43: -1 e 2 c 264, e 0 c 245;
  b 44: -1 e 1 c 245, e 0 c 246;
  b 45: -1 e 3 c 263, e 1 c 244;
  b 46: -1 e 2 c 244, e 3 c 245;
  b 47: -1 e 3 c 262, e 1 c 243;
  b 48: -1 e 2 c 243, e 0 c 244;
  b 49: -1 e 2 c 261, e 0 c 242;
  b 50: -1 e 1 c 242, e 0 c 243;
  b 51: -1 e 2 c 260, e 0 c 326;
  b 52: -1 e 1 c 326, e 3 c 242;
  b 53: -1 e 2 c 259, e 1 c 241;
  b 54: -1 e 2 c 241, e 1 c 233;
  b 55: -1 e 1 c 334, e 0 c 240;
  b 56: -1 e 1 c 240, e 0 c 241;
  b 57: -1 e 1 c 333, e 0 c 239;
  b 58: -1 e 1 c 239, e 3 c 240;
  b 59: -1 e 0 c 332, e 3 c 239;
  b 60: -1 e 1 c 331, e 0 c 238;
  b 61: -1 e 2 c 254, e 0 c 237;
  b 62: -1 e 1 c 237, e 3 c 238;
  b 63: -1 e 2 c 253, e 0 c 236;
  b 64: -1 e 1 c 236, e 3 c 237;
  b 65: -1 e 1 c 330, e 1 c 217;
  b 66: -1 e 2 c 217, e 3 c 236;
  b 67: -1 e 1 c 328, e 1 c 222;
  b 68: -1 e 1 c 234, e 0 c 235;
  b 69: -1 e 2 c 222, e 0 c 234;
  b 70: -1 e 2 c 240, e 0 c 230;
  b 71: -1 e 1 c 232, e 0 c 233;
  b 72: -1 e 1 c 231, e 0 c 232;
  b 73: -1 e 1 c 230, e 0 c 231;
  b 74: -1 e 2 c 239, e 0 c 229;
  b 75: -1 e 1 c 229, e 3 c 230;
  b 76: -1 e 1 c 332, e 0 c 228;
  b 77: -1 e 1 c 228, e 3 c 229;
  b 78: -1 e 2 c 251, e 1 c 226;
  b 79: -1 e 0 c 319, e 0 c 227;
  b 80: -1 e 2 c 226, e 1 c 213;
  b 81: -1 e 3 c 250, e 1 c 225;
  b 82: -1 e 2 c 225, e 0 c 226;
  b 83: -1 e 3 c 249, e 1 c 224;
  b 84: -1 e 2 c 224, e 0 c 225;
  b 85: -1 e 2 c 248, e 1 c 223;
  b 86: -1 e 0 c 324, e 0 c 224;
  b 87: -1 e 1 c 329, e 0 c 306;
  b 88: -1 e 1 c 306, e 0 c 223;
  b 89: -1 e 2 c 245, e 0 c 314;
  b 90: -1 e 1 c 221, e 0 c 222;
  b 91: -1 e 1 c 314, e 0 c 221;
  b 92: -1 e 3 c 244, e 1 c 220;
  b 93: -1 e 2 c 220, e 1 c 208;
  b 94: -1 e 3 c 243, e 1 c 219;
  b 95: -1 e 2 c 219, e 0 c 220;
  b 96: -1 e 2 c 242, e 1 c 218;
  b 97: -1 e 0 c 322, e 0 c 219;
  b 98: -1 e 2 c 232, e 1 c 214;
  b 99: -1 e 0 c 320, e 1 c 195;
  b 100: -1 e 2 c 195, e 0 c 218;
  b 101: -1 e 1 c 319, e 1 c 201;
  b 102: -1 e 2 c 201, e 0 c 217;
  b 103: -1 e 2 c 234, e 1 c 215;
  b 104: -1 e 1 c 216, e 1 c 199;
  b 105: -1 e 0 c 321, e 0 c 216;
  b 106: -1 e 0 c 323, e 1 c 197;
  b 107: -1 e 2 c 197, e 0 c 215;
  b 108: -1 e 2 c 231, e 0 c 214;
  b 109: -1 e 3 c 225, e 1 c 211;
  b 110: -1 e 0 c 317, e 1 c 203;
  b 111: -1 e 1 c 212, e 0 c 213;
  b 112: -1 e 0 c 309, e 0 c 212;
  b 113: -1 e 3 c 224, e 1 c 210;
  b 114: -1 e 0 c 316, e 0 c 211;
  b 115: -1 e 1 c 209, e 0 c 210;
  b 116: -1 e 1 c 324, e 1 c 190;
  b 117: -1 e 0 c 303, e 0 c 209;
  b 118: -1 e 3 c 220, e 1 c 206;
  b 119: -1 e 0 c 312, e 1 c 202;
  b 120: -1 e 1 c 207, e 0 c 208;
  b 121: -1 e 0 c 308, e 0 c 207;
  b 122: -1 e 3 c 219, e 1 c 205;
  b 123: -1 e 0 c 311, e 0 c 206;
  b 124: -1 e 1 c 204, e 0 c 205;
  b 125: -1 e 1 c 322, e 1 c 186;
  b 126: -1 e 0 c 302, e 0 c 204;
  b 127: -1 e 1 c 200, e 0 c 201;
  b 128: -1 e 0 c 318, e 0 c 200;
  b 129: -1 e 1 c 198, e 0 c 199;
  b 130: -1 e 2 c 216, e 1 c 189;
  b 131: -1 e 2 c 189, e 0 c 198;
  b 132: -1 e 1 c 196, e 0 c 197;
  b 133: -1 e 1 c 323, e 1 c 187;
  b 134: -1 e 2 c 187, e 0 c 196;
  b 135: -1 e 1 c 194, e 0 c 195;
  b 136: -1 e 1 c 320, e 1 c 185;
  b 137: -1 e 0 c 301, e 0 c 194;
  b 138: -1 e 2 c 238, e 0 c 193;
  b 139: -1 e 2 c 237, e 0 c 192;
  b 140: -1 e 1 c 192, e 3 c 193;
  b 141: -1 e 2 c 236, e 0 c 191;
  b 142: -1 e 1 c 191, e 3 c 192;
  b 143: -1 e 0 c 307, e 3 c 191;
  b 144: -1 e 0 c 305, e 0 c 190;
  b 145: -1 e 1 c 321, e 0 c 188;
  b 146: -1 e 1 c 188, e 0 c 189;
  b 147: -1 e 0 c 304, e 3 c 188;
  b 148: -1 e 0 c 313, e 0 c 187;
  b 149: -1 e 2 c 194, e 0 c 186;
  b 150: -1 e 2 c 230, e 0 c 184;
  b 151: -1 e 1 c 184, e 0 c 185;
  b 152: -1 e 2 c 229, e 0 c 183;
  b 153: -1 e 1 c 183, e 3 c 184;
  b 154: -1 e 2 c 228, e 0 c 182;
  b 155: -1 e 1 c 182, e 3 c 183;
  b 156: -1 e 2 c 193, e 0 c 181;
  b 157: -1 e 2 c 192, e 0 c 180;
  b 158: -1 e 1 c 180, e 3 c 181;
  b 159: -1 e 2 c 191, e 0 c 179;
  b 160: -1 e 1 c 179, e 3 c 180;
  b 161: -1 e 1 c 307, e 0 c 178;
  b 162: -1 e 1 c 178, e 3 c 179;
  b 163: -1 e 1 c 318, e 0 c 177;
  b 164: -1 e 1 c 177, e 3 c 178;
  b 165: -1 e 1 c 309, e 0 c 176;
  b 166: -1 e 1 c 176, e 3 c 177;
  b 167: -1 e 1 c 315, e 0 c 175;
  b 168: -1 e 1 c 303, e 0 c 174;
  b 169: -1 e 1 c 174, e 3 c 175;
  b 170: -1 e 1 c 305, e 0 c 173;
  b 171: -1 e 1 c 173, e 3 c 174;
  b 172: -1 e 2 c 188, e 0 c 172;
  b 173: -1 e 1 c 172, e 3 c 173;
  b 174: -1 e 1 c 304, e 0 c 171;
  b 175: -1 e 1 c 171, e 3 c 172;
  b 176: -1 e 1 c 313, e 0 c 170;
  b 177: -1 e 1 c 170, e 3 c 171;
  b 178: -1 e 1 c 308, e 0 c 169;
  b 179: -1 e 1 c 169, e 3 c 170;
  b 180: -1 e 1 c 310, e 0 c 168;
  b 181: -1 e 1 c 302, e 0 c 167;
  b 182: -1 e 1 c 167, e 3 c 168;
  b 183: -1 e 1 c 301, e 0 c 166;
  b 184: -1 e 1 c 166, e 3 c 167;
  b 185: -1 e 2 c 184, e 0 c 165;
  b 186: -1 e 1 c 165, e 3 c 166;
  b 187: -1 e 2 c 183, e 0 c 164;
  b 188: -1 e 1 c 164, e 3 c 165;
  b 189: -1 e 2 c 182, e 0 c 163;
  b 190: -1 e 1 c 163, e 3 c 164;
  b 191: -1 e 2 c 181, e 0 c 162;
  b 192: -1 e 2 c 180, e 0 c 161;
  b 193: -1 e 1 c 161, e 3 c 162;
  b 194: -1 e 2 c 179, e 0 c 160;
  b 195: -1 e 1 c 160, e 3 c 161;
  b 196: -1 e 2 c 178, e 0 c 159;
  b 197: -1 e 1 c 159, e 3 c 160;
  b 198: -1 e 2 c 177, e 0 c 158;
  b 199: -1 e 1 c 158, e 3 c 159;
  b 200: -1 e 2 c 176, e 0 c 157;
  b 201: -1 e 1 c 157, e 3 c 158;
  b 202: -1 e 2 c 175, e 0 c 156;
  b 203: -1 e 2 c 174, e 0 c 155;
  b 204: -1 e 1 c 155, e 3 c 156;
  b 205: -1 e 2 c 173, e 0 c 154;
  b 206: -1 e 1 c 154, e 3 c 155;
  b 207: -1 e 2 c 172, e 0 c 153;
  b 208: -1 e 1 c 153, e 3 c 154;
  b 209: -1 e 2 c 171, e 0 c 152;
  b 210: -1 e 1 c 152, e 3 c 153;
  b 211: -1 e 2 c 170, e 0 c 151;
  b 212: -1 e 1 c 151, e 3 c 152;
  b 213: -1 e 2 c 169, e 0 c 150;
  b 214: -1 e 1 c 150, e 3 c 151;
  b 215: -1 e 2 c 168, e 0 c 149;
  b 216: -1 e 2 c 167, e 0 c 148;
  b 217: -1 e 1 c 148, e 3 c 149;
  b 218: -1 e 2 c 166, e 0 c 147;
  b 219: -1 e 1 c 147, e 3 c 148;
  b 220: -1 e 2 c 165, e 0 c 146;
  b 221: -1 e 1 c 146, e 3 c 147;
  b 222: -1 e 2 c 164, e 0 c 145;
  b 223: -1 e 1 c 145, e 3 c 146;
  b 224: -1 e 2 c 163, e 0 c 144;
  b 225: -1 e 1 c 144, e 3 c 145;
  b 226: -1 e 2 c 162, e 0 c 143;
  b 227: -1 e 2 c 161, e 0 c 142;
  b 228: -1 e 1 c 142, e 3 c 143;
  b 229: -1 e 2 c 160, e 0 c 141;
  b 230: -1 e 1 c 141, e 3 c 142;
  b 231: -1 e 2 c 159, e 0 c 140;
  b 232: -1 e 1 c 140, e 3 c 141;
  b 233: -1 e 2 c 158, e 0 c 139;
  b 234: -1 e 1 c 139, e 3 c 140;
  b 235: -1 e 2 c 157, e 0 c 138;
  b 236: -1 e 1 c 138, e 3 c 139;
  b 237: -1 e 2 c 156, e 0 c 137;
  b 238: -1 e 2 c 155, e 0 c 136;
  b 239: -1 e 1 c 136, e 3 c 137;
  b 240: -1 e 2 c 154, e 0 c 135;
  b 241: -1 e 1 c 135, e 3 c 136;
  b 242: -1 e 2 c 153, e 0 c 134;
  b 243: -1 e 1 c 134, e 3 c 135;
  b 244: -1 e 2 c 152, e 0 c 133;
  b 245: -1 e 1 c 133, e 3 c 134;
  b 246: -1 e 2 c 151, e 0 c 132;
  b 247: -1 e 1 c 132, e 3 c 133;
  b 248: -1 e 2 c 150, e 0 c 131;
  b 249: -1 e 1 c 131, e 3 c 132;
  b 250: -1 e 2 c 149, e 0 c 130;
  b 251: -1 e 2 c 148, e 0 c 129;
  b 252: -1 e 1 c 129, e 3 c 130;
  b 253: -1 e 2 c 147, e 0 c 128;
  b 254: -1 e 1 c 128, e 3 c 129;
  b 255: -1 e 2 c 146, e 0 c 127;
  b 256: -1 e 1 c 127, e 3 c 128;
  b 257: -1 e 2 c 145, e 0 c 126;
  b 258: -1 e 1 c 126, e 3 c 127;
  b 259: -1 e 2 c 144, e 0 c 125;
  b 260: -1 e 1 c 125, e 3 c 126;
  b 261: -1 e 2 c 143, e 0 c 124;
  b 262: -1 e 2 c 142, e 0 c 123;
  b 263: -1 e 1 c 123, e 3 c 124;
  b 264: -1 e 2 c 141, e 0 c 122;
  b 265: -1 e 1 c 122, e 3 c 123;
  b 266: -1 e 2 c 140, e 0 c 121;
  b 267: -1 e 1 c 121, e 3 c 122;
  b 268: -1 e 2 c 139, e 0 c 120;
  b 269: -1 e 1 c 120, e 3 c 121;
  b 270: -1 e 2 c 138, e 0 c 119;
  b 271: -1 e 1 c 119, e 3 c 120;
  b 272: -1 e 2 c 137, e 0 c 118;
  b 273: -1 e 2 c 136, e 0 c 117;
  b 274: -1 e 1 c 117, e 3 c 118;
  b 275: -1 e 2 c 135, e 0 c 116;
  b 276: -1 e 1 c 116, e 3 c 117;
  b 277: -1 e 2 c 134, e 0 c 115;
  b 278: -1 e 1 c 115, e 3 c 116;
  b 279: -1 e 2 c 133, e 0 c 114;
  b 280: -1 e 1 c 114, e 3 c 115;
  b 281: -1 e 2 c 132, e 0 c 113;
  b 282: -1 e 1 c 113, e 3 c 114;
  b 283: -1 e 2 c 131, e 0 c 112;
  b 284: -1 e 1 c 112, e 3 c 113;
  b 285: -1 e 2 c 130, e 0 c 111;
  b 286: -1 e 2 c 129, e 0 c 110;
  b 287: -1 e 1 c 110, e 3 c 111;
  b 288: -1 e 2 c 128, e 0 c 109;
  b 289: -1 e 1 c 109, e 3 c 110;
  b 290: -1 e 2 c 127, e 0 c 108;
  b 291: -1 e 1 c 108, e 3 c 109;
  b 292: -1 e 2 c 126, e 0 c 107;
  b 293: -1 e 1 c 107, e 3 c 108;
  b 294: -1 e 2 c 125, e 0 c 106;
  b 295: -1 e 1 c 106, e 3 c 107;
  b 296: -1 e 2 c 124, e 0 c 105;
  b 297: -1 e 2 c 123, e 0 c 104;
  b 298: -1 e 1 c 104, e 3 c 105;
  b 299: -1 e 2 c 122, e 0 c 103;
  b 300: -1 e 1 c 103, e 3 c 104;
  b 301: -1 e 2 c 121, e 0 c 102;
  b 302: -1 e 1 c 102, e 3 c 103;
  b 303: -1 e 2 c 120, e 0 c 101;
  b 304: -1 e 1 c 101, e 3 c 102;
  b 305: -1 e 2 c 119, e 0 c 100;
  b 306: -1 e 1 c 100, e 3 c 101;
  b 307: -1 e 2 c 118, e 0 c 299;
  b 308: -1 e 2 c 117, e 0 c 99;
  b 309: -1 e 1 c 99, e 1 c 87;
  b 310: -1 e 2 c 116, e 1 c 98;
  b 311: -1 e 2 c 98, e 3 c 99;
  b 312: -1 e 2 c 115, e 1 c 97;
  b 313: -1 e 2 c 97, e 0 c 98;
  b 314: -1 e 2 c 114, e 1 c 96;
  b 315: -1 e 2 c 96, e 0 c 97;
  b 316: -1 e 2 c 113, e 0 c 95;
  b 317: -1 e 1 c 95, e 0 c 96;
  b 318: -1 e 2 c 112, e 1 c 94;
  b 319: -1 e 0 c 300, e 3 c 95;
  b 320: -1 e 2 c 111, e 0 c 93;
  b 321: -1 e 2 c 110, e 0 c 92;
  b 322: -1 e 1 c 92, e 3 c 93;
  b 323: -1 e 2 c 109, e 0 c 91;
  b 324: -1 e 1 c 91, e 3 c 92;
  b 325: -1 e 2 c 108, e 0 c 90;
  b 326: -1 e 1 c 90, e 3 c 91;
  b 327: -1 e 2 c 107, e 0 c 89;
  b 328: -1 e 1 c 89, e 3 c 90;
  b 329: -1 e 2 c 106, e 0 c 88;
  b 330: -1 e 1 c 88, e 3 c 89;
  b 331: -1 e 2 c 99, e 1 c 86;
  b 332: -1 e 0 c 298, e 0 c 87;
  b 333: -1 e 3 c 98, e 1 c 85;
  b 334: -1 e 2 c 85, e 0 c 86;
  b 335: -1 e 3 c 97, e 1 c 84;
  b 336: -1 e 2 c 84, e 0 c 85;
  b 337: -1 e 3 c 96, e 1 c 83;
  b 338: -1 e 2 c 83, e 0 c 84;
  b 339: -1 e 2 c 95, e 1 c 82;
  b 340: -1 e 0 c 297, e 0 c 83;
  b 341: -1 e 1 c 300, e 0 c 82;
  b 342: -1 e 2 c 105, e 0 c 81;
  b 343: -1 e 2 c 104, e 0 c 80;
  b 344: -1 e 1 c 80, e 3 c 81;
  b 345: -1 e 2 c 103, e 0 c 79;
  b 346: -1 e 1 c 79, e 3 c 80;
  b 347: -1 e 2 c 102, e 1 c 78;
  b 348: -1 e 0 c 296, e 3 c 79;
  b 349: -1 e 2 c 101, e 0 c 290;
  b 350: -1 e 1 c 290, e 0 c 78;
  b 351: -1 e 2 c 100, e 0 c 293;
  b 352: -1 e 1 c 293, e 1 c 62;
  b 353: -1 e 2 c 93, e 1 c 77;
  b 354: -1 e 2 c 92, e 1 c 76;
  b 355: -1 e 0 c 294, e 0 c 77;
  b 356: -1 e 2 c 91, e 0 c 287;
  b 357: -1 e 1 c 75, e 0 c 76;
  b 358: -1 e 1 c 287, e 0 c 75;
  b 359: -1 e 2 c 90, e 0 c 74;
  b 360: -1 e 1 c 74, e 1 c 48;
  b 361: -1 e 2 c 89, e 0 c 73;
  b 362: -1 e 1 c 73, e 3 c 74;
  b 363: -1 e 2 c 88, e 0 c 72;
  b 364: -1 e 1 c 72, e 3 c 73;
  b 365: -1 e 0 c 292, e 0 c 71;
  b 366: -1 e 2 c 69, e 0 c 70;
  b 367: -1 e 2 c 68, e 0 c 69;
  b 368: -1 e 2 c 67, e 0 c 68;
  b 369: -1 e 2 c 66, e 0 c 67;
  b 370: -1 e 2 c 65, e 0 c 66;
  b 371: -1 e 2 c 64, e 0 c 65;
  b 372: -1 e 0 c 291, e 0 c 64;
  b 373: -1 e 1 c 295, e 0 c 63;
  b 374: -1 e 1 c 292, e 1 c 60;
  b 375: -1 e 1 c 61, e 0 c 62;
  b 376: -1 e 2 c 60, e 0 c 61;
  b 377: -1 e 3 c 69, e 1 c 59;
  b 378: -1 e 2 c 59, e 0 c 60;
  b 379: -1 e 3 c 68, e 1 c 58;
  b 380: -1 e 2 c 58, e 0 c 59;
  b 381: -1 e 3 c 67, e 1 c 57;
  b 382: -1 e 2 c 57, e 0 c 58;
  b 383: -1 e 3 c 66, e 1 c 56;
  b 384: -1 e 2 c 56, e 0 c 57;
  b 385: -1 e 3 c 65, e 1 c 55;
  b 386: -1 e 2 c 55, e 0 c 56;
  b 387: -1 e 3 c 64, e 1 c 54;
  b 388: -1 e 2 c 54, e 0 c 55;
  b 389: -1 e 1 c 291, e 1 c 53;
  b 390: -1 e 2 c 53, e 0 c 54;
  b 391: -1 e 1 c 294, e 1 c 49;
  b 392: -1 e 0 c 288, e 0 c 53;
  b 393: -1 e 2 c 81, e 0 c 52;
  b 394: -1 e 2 c 80, e 0 c 51;
  b 395: -1 e 1 c 51, e 3 c 52;
  b 396: -1 e 2 c 79, e 0 c 50;
  b 397: -1 e 1 c 50, e 3 c 51;
  b 398: -1 e 1 c 296, e 1 c 42;
  b 399: -1 e 0 c 286, e 1 c 41;
  b 400: -1 e 2 c 41, e 3 c 50;
  b 401: -1 e 2 c 75, e 1 c 43;
  b 402: -1 e 2 c 43, e 0 c 49;
  b 403: -1 e 2 c 74, e 0 c 46;
  b 404: -1 e 0 c 284, e 0 c 48;
  b 405: -1 e 1 c 47, e 1 c 39;
  b 406: -1 e 1 c 46, e 0 c 47;
  b 407: -1 e 2 c 73, e 0 c 45;
  b 408: -1 e 1 c 45, e 3 c 46;
  b 409: -1 e 2 c 72, e 0 c 44;
  b 410: -1 e 1 c 44, e 3 c 45;
  b 411: -1 e 1 c 284, e 0 c 43;
  b 412: -1 e 0 c 289, e 0 c 42;
  b 413: -1 e 1 c 286, e 1 c 37;
  b 414: -1 e 1 c 40, e 0 c 41;
  b 415: -1 e 0 c 283, e 0 c 40;
  b 416: -1 e 1 c 38, e 0 c 39;
  b 417: -1 e 2 c 47, e 0 c 38;
  b 418: -1 e 1 c 289, e 0 c 36;
  b 419: -1 e 1 c 36, e 0 c 37;
  b 420: -1 e 3 c 60, e 1 c 35;
  b 421: -1 e 2 c 35, e 3 c 36;
  b 422: -1 e 3 c 59, e 1 c 34;
  b 423: -1 e 2 c 34, e 0 c 35;
  b 424: -1 e 3 c 58, e 1 c 33;
  b 425: -1 e 2 c 33, e 0 c 34;
  b 426: -1 e 3 c 57, e 1 c 32;
  b 427: -1 e 2 c 32, e 0 c 33;
  b 428: -1 e 3 c 56, e 1 c 31;
  b 429: -1 e 2 c 31, e 0 c 32;
  b 430: -1 e 3 c 55, e 1 c 30;
  b 431: -1 e 2 c 30, e 0 c 31;
  b 432: -1 e 3 c 54, e 1 c 29;
  b 433: -1 e 2 c 29, e 0 c 30;
  b 434: -1 e 3 c 53, e 1 c 28;
  b 435: -1 e 2 c 28, e 0 c 29;
  b 436: -1 e 1 c 288, e 0 c 27;
  b 437: -1 e 1 c 27, e 0 c 28;
  b 438: -1 e 2 c 38, e 1 c 24;
  b 439: -1 e 0 c 282, e 3 c 27;
  b 440: -1 e 2 c 52, e 0 c 280;
  b 441: -1 e 2 c 51, e 0 c 26;
  b 442: -1 e 1 c 26, e 1 c 19;
  b 443: -1 e 2 c 50, e 0 c 25;
  b 444: -1 e 1 c 25, e 3 c 26;
  b 445: -1 e 0 c 285, e 3 c 25;
  b 446: -1 e 2 c 46, e 0 c 22;
  b 447: -1 e 1 c 23, e 0 c 24;
  b 448: -1 e 1 c 22, e 0 c 23;
  b 449: -1 e 2 c 45, e 0 c 21;
  b 450: -1 e 1 c 21, e 3 c 22;
  b 451: -1 e 2 c 44, e 1 c 20;
  b 452: -1 e 0 c 281, e 3 c 21;
  b 453: -1 e 2 c 26, e 1 c 18;
  b 454: -1 e 0 c 279, e 0 c 19;
  b 455: -1 e 2 c 25, e 1 c 17;
  b 456: -1 e 0 c 278, e 0 c 18;
  b 457: -1 e 1 c 285, e 1 c 16;
  b 458: -1 e 2 c 16, e 0 c 17;
  b 459: -1 e 1 c 283, e 0 c 15;
  b 460: -1 e 1 c 15, e 0 c 16;
  b 461: -1 e 2 c 36, e 0 c 14;
  b 462: -1 e 1 c 14, e 3 c 15;
  b 463: -1 e 3 c 35, e 1 c 13;
  b 464: -1 e 2 c 13, e 3 c 14;
  b 465: -1 e 3 c 34, e 1 c 12;
  b 466: -1 e 2 c 12, e 0 c 13;
  b 467: -1 e 3 c 33, e 1 c 11;
  b 468: -1 e 2 c 11, e 0 c 12;
  b 469: -1 e 3 c 32, e 1 c 10;
  b 470: -1 e 2 c 10, e 0 c 11;
  b 471: -1 e 3 c 31, e 1 c 9;
  b 472: -1 e 2 c 9, e 0 c 10;
  b 473: -1 e 3 c 30, e 1 c 8;
  b 474: -1 e 2 c 8, e 0 c 9;
  b 475: -1 e 3 c 29, e 1 c 7;
  b 476: -1 e 2 c 7, e 0 c 8;
  b 477: -1 e 3 c 28, e 1 c 6;
  b 478: -1 e 2 c 6, e 0 c 7;
  b 479: -1 e 2 c 27, e 0 c 5;
  b 480: -1 e 1 c 5, e 0 c 6;
  b 481: -1 e 1 c 282, e 0 c 4;
  b 482: -1 e 1 c 4, e 3 c 5;
  b 483: -1 e 2 c 23, e 1 c 3;
  b 484: -1 e 2 c 3, e 3 c 4;
  b 485: -1 e 2 c 22, e 1 c 2;
  b 486: -1 e 0 c 277, e 0 c 3;
  b 487: -1 e 2 c 21, e 1 c 1;
  b 488: -1 e 0 c 276, e 0 c 2;
  b 489: -1 e 1 c 281, e 0 c 1;
  b 490: e 0 c 172;
  b 491: -1 e 2 c 1, e 2 c 276;
  b 492: -1 e 2 c 2, e 2 c 277;
  b 493: -1 e 2 c 17, e 2 c 278;
  b 494: -1 e 2 c 18, e 2 c 279;
  b 495: -1 e 2 c 19, e 2 c 280;
  b 496: -1 e 2 c 20, e 2 c 281;
  b 497: -1 e 2 c 24, e 2 c 282;
  b 498: -1 e 2 c 37, e 2 c 283;
  b 499: -1 e 2 c 39, e 2 c 284;
  b 500: -1 e 2 c 40, e 2 c 285;
  b 501: -1 e 2 c 42, e 2 c 286;
  b 502: -1 e 2 c 48, e 2 c 287;
  b 503: -1 e 2 c 49, e 2 c 288;
  b 504: -1 e 2 c 61, e 2 c 289;
  b 505: -1 e 2 c 62, e 2 c 290;
  b 506: -1 e 2 c 63, e 2 c 291;
  b 507: -1 e 2 c 70, e 2 c 292;
  b 508: -1 e 2 c 71, e 2 c 293;
  b 509: -1 e 2 c 76, e 2 c 294;
  b 510: -1 e 2 c 77, e 2 c 295;
  b 511: -1 e 2 c 78, e 2 c 296;
  b 512: -1 e 2 c 82, e 2 c 297;
  b 513: -1 e 2 c 86, e 2 c 298;
  b 514: -1 e 2 c 87, e 2 c 299;
  b 515: -1 e 2 c 94, e 2 c 300;
  b 516: -1 e 2 c 185, e 2 c 301;
  b 517: -1 e 2 c 186, e 2 c 302;
  b 518: -1 e 2 c 190, e 2 c 303;
  b 519: -1 e 2 c 196, e 2 c 304;
  b 520: -1 e 2 c 198, e 2 c 305;
  b 521: -1 e 2 c 199, e 2 c 306;
  b 522: -1 e 2 c 200, e 2 c 307;
  b 523: -1 e 2 c 202, e 2 c 308;
  b 524: -1 e 2 c 203, e 2 c 309;
  b 525: -1 e 2 c 204, e 2 c 310;
  b 526: -1 e 2 c 205, e 2 c 311;
  b 527: -1 e 2 c 206, e 2 c 312;
  b 528: -1 e 2 c 207, e 2 c 313;
  b 529: -1 e 2 c 208, e 2 c 314;
  b 530: -1 e 2 c 209, e 2 c 315;
  b 531: -1 e 2 c 210, e 2 c 316;
  b 532: -1 e 2 c 211, e 2 c 317;
  b 533: -1 e 2 c 212, e 2 c 318;
  b 534: -1 e 2 c 213, e 2 c 319;
  b 535: -1 e 2 c 214, e 2 c 320;
  b 536: -1 e 2 c 215, e 2 c 321;
  b 537: -1 e 2 c 218, e 2 c 322;
  b 538: -1 e 2 c 221, e 2 c 323;
  b 539: -1 e 2 c 223, e 2 c 324;
  b 540: -1 e 2 c 227, e 2 c 325;
  b 541: -1 e 2 c 233, e 2 c 326;
  b 542: -1 e 2 c 235, e 2 c 327;
  b 543: -1 e 2 c 246, e 2 c 328;
  b 544: -1 e 2 c 247, e 2 c 329;
  b 545: -1 e 2 c 252, e 2 c 330;
  b 546: -1 e 2 c 255, e 2 c 331;
  b 547: -1 e 2 c 256, e 2 c 332;
  b 548: -1 e 2 c 257, e 2 c 333;
  b 549: -1 e 2 c 258, e 2 c 334;
  b 550: -1 e 2 c 274, e 2 c 335;
  b 551: -1 e 2 c 275, e 2 c 336;
;
PdefRA 1 {
GdefRA 1 /Zd 1 {50 0} {
  Prt 1 : CrefRA 1 { 172 };
}
}
end_momMdl;
end_ckt proj;
