beg_ckt proj :
beg_layout :
  Units: m;
  EgsUnits: mm;
  Resolution: 2.5e-008 units;
  EgsResolution: 0.0001 egsunits;
end_layout;
beg_momMdl :
Mesh: 
  Freq: 4; 
  Cd: 0.003; 
  CpWl: 20; 
  Extraction: 1; 
  Expansion: 0; 
;
NdefIA 303: 
  p 1: -0.02057 -0.0181525 0.001524,
  p 2: -0.02057 -0.0144858333333333 0.001524,
  p 3: -0.02057 -0.0126525 0.001524,
  p 4: -0.02057 -0.0109025 0.001524,
  p 5: -0.02057 -0.0091525 0.001524,
  p 6: -0.02057 -0.0066525 0.001524,
  p 7: -0.02057 -0.0041525 0.001524,
  p 8: -0.02057 -0.0024025 0.001524,
  p 9: -0.02057 0.0003475 0.001524,
  p 10: -0.02057 0.0033475 0.001524,
  p 11: -0.02057 0.0060975 0.001524,
  p 12: -0.02057 0.0078475 0.001524,
  p 13: -0.02057 0.0103475 0.001524,
  p 14: -0.02057 0.0128475 0.001524,
  p 15: -0.02057 0.0145975 0.001524,
  p 16: -0.02057 0.0163475 0.001524,
  p 17: -0.02057 0.0181808333333333 0.001524,
  p 18: -0.02057 0.0218475 0.001524,
  p 19: -0.01957 -0.0171525 0.001524,
  p 20: -0.01957 -0.0144858333333333 0.001524,
  p 21: -0.01957 -0.0126525 0.001524,
  p 22: -0.01957 -0.0109025 0.001524,
  p 23: -0.01957 -0.0091525 0.001524,
  p 24: -0.01957 -0.0066525 0.001524,
  p 25: -0.01957 -0.0041525 0.001524,
  p 26: -0.01957 -0.0024025 0.001524,
  p 27: -0.01957 0.0003475 0.001524,
  p 28: -0.01957 0.0033475 0.001524,
  p 29: -0.01957 0.0060975 0.001524,
  p 30: -0.01957 0.0078475 0.001524,
  p 31: -0.01957 0.0103475 0.001524,
  p 32: -0.01957 0.0128475 0.001524,
  p 33: -0.01957 0.0145975 0.001524,
  p 34: -0.01957 0.0163475 0.001524,
  p 35: -0.01957 0.0181808333333333 0.001524,
  p 36: -0.01957 0.0208475 0.001524,
  p 37: -0.018 0.003 0.001524,
  p 38: -0.01782 -0.0109025 0.001524,
  p 39: -0.01782 -0.0091525 0.001524,
  p 40: -0.01782 -0.0066525 0.001524,
  p 41: -0.01782 -0.0041525 0.001524,
  p 42: -0.01782 -0.0024025 0.001524,
  p 43: -0.01782 0.0060975 0.001524,
  p 44: -0.01782 0.0078475 0.001524,
  p 45: -0.01782 0.0103475 0.001524,
  p 46: -0.01782 0.0128475 0.001524,
  p 47: -0.01782 0.0145975 0.001524,
  p 48: -0.0172366666666667 -0.0126525 0.001524,
  p 49: -0.0172366666666667 0.0163475 0.001524,
  p 50: -0.0169033333333333 -0.0144858333333333 0.001524,
  p 51: -0.0169033333333333 -0.0181525 0.001524,
  p 52: -0.0169033333333333 -0.0171525 0.001524,
  p 53: -0.0169033333333333 0.0208475 0.001524,
  p 54: -0.0169033333333333 0.0218475 0.001524,
  p 55: -0.0169033333333333 0.0181808333333333 0.001524,
  p 56: -0.01657 0.0003475 0.001524,
  p 57: -0.01657 0.0033475 0.001524,
  p 58: -0.01607 -0.0091525 0.001524,
  p 59: -0.01607 -0.0066525 0.001524,
  p 60: -0.01607 -0.0041525 0.001524,
  p 61: -0.01607 0.0078475 0.001524,
  p 62: -0.01607 0.0103475 0.001524,
  p 63: -0.01607 0.0128475 0.001524,
  p 64: -0.01557 -0.0118191666666667 0.001524,
  p 65: -0.01557 0.0155141666666667 0.001524,
  p 66: -0.01507 -0.0081525 0.001524,
  p 67: -0.01507 -0.0066525 0.001524,
  p 68: -0.01507 -0.0051525 0.001524,
  p 69: -0.01507 0.0088475 0.001524,
  p 70: -0.01507 0.0103475 0.001524,
  p 71: -0.01507 0.0118475 0.001524,
  p 72: -0.01507 -0.0011525 0.001524,
  p 73: -0.01507 0.0048475 0.001524,
  p 74: -0.015 -0.003 0.001524,
  p 75: -0.015 0 0.001524,
  p 76: -0.015 0.003 0.001524,
  p 77: -0.015 0.006 0.001524,
  p 78: -0.0140491666666667 -0.0181525 0.001524,
  p 79: -0.0140491666666667 -0.0171525 0.001524,
  p 80: -0.0140491666666667 0.0208475 0.001524,
  p 81: -0.0140491666666667 0.0218475 0.001524,
  p 82: -0.0140491666666667 -0.0144858333333333 0.001524,
  p 83: -0.0140491666666667 0.0181808333333333 0.001524,
  p 84: -0.0133825 -0.0091525 0.001524,
  p 85: -0.0133825 -0.0081525 0.001524,
  p 86: -0.0133825 0.0118475 0.001524,
  p 87: -0.0133825 0.0128475 0.001524,
  p 88: -0.0133825 -0.0118191666666667 0.001524,
  p 89: -0.0133825 0.0155141666666667 0.001524,
  p 90: -0.012 -0.0051525 0.001524,
  p 91: -0.012 -0.0041525 0.001524,
  p 92: -0.012 -0.003 0.001524,
  p 93: -0.012 0 0.001524,
  p 94: -0.012 0.003 0.001524,
  p 95: -0.012 0.006 0.001524,
  p 96: -0.012 0.0078475 0.001524,
  p 97: -0.012 0.0088475 0.001524,
  p 98: -0.011195 -0.0181525 0.001524,
  p 99: -0.011195 -0.0171525 0.001524,
  p 100: -0.011195 -0.0091525 0.001524,
  p 101: -0.011195 -0.0081525 0.001524,
  p 102: -0.011195 0.0118475 0.001524,
  p 103: -0.011195 0.0128475 0.001524,
  p 104: -0.011195 0.0208475 0.001524,
  p 105: -0.011195 0.0218475 0.001524,
  p 106: -0.011195 -0.0144858333333333 0.001524,
  p 107: -0.011195 -0.0118191666666667 0.001524,
  p 108: -0.011195 0.0155141666666667 0.001524,
  p 109: -0.011195 0.0181808333333333 0.001524,
  p 110: -0.009 -0.0051525 0.001524,
  p 111: -0.009 -0.0041525 0.001524,
  p 112: -0.009 -0.003 0.001524,
  p 113: -0.009 0 0.001524,
  p 114: -0.009 0.003 0.001524,
  p 115: -0.009 0.006 0.001524,
  p 116: -0.009 0.0078475 0.001524,
  p 117: -0.009 0.0088475 0.001524,
  p 118: -0.00834083333333333 -0.0181525 0.001524,
  p 119: -0.00834083333333333 -0.0171525 0.001524,
  p 120: -0.00834083333333333 -0.0091525 0.001524,
  p 121: -0.00834083333333333 -0.0081525 0.001524,
  p 122: -0.00834083333333333 0.0118475 0.001524,
  p 123: -0.00834083333333333 0.0128475 0.001524,
  p 124: -0.00834083333333333 0.0208475 0.001524,
  p 125: -0.00834083333333333 0.0218475 0.001524,
  p 126: -0.00834083333333333 -0.0144858333333333 0.001524,
  p 127: -0.00834083333333333 -0.0118191666666667 0.001524,
  p 128: -0.00834083333333333 0.0155141666666667 0.001524,
  p 129: -0.00834083333333333 0.0181808333333333 0.001524,
  p 130: -0.006 -0.0051525 0.001524,
  p 131: -0.006 -0.0041525 0.001524,
  p 132: -0.006 -0.003 0.001524,
  p 133: -0.006 0 0.001524,
  p 134: -0.006 0.003 0.001524,
  p 135: -0.006 0.006 0.001524,
  p 136: -0.006 0.0078475 0.001524,
  p 137: -0.006 0.0088475 0.001524,
  p 138: -0.00548666666666666 -0.0181525 0.001524,
  p 139: -0.00548666666666666 -0.0171525 0.001524,
  p 140: -0.00548666666666666 -0.0091525 0.001524,
  p 141: -0.00548666666666666 -0.0081525 0.001524,
  p 142: -0.00548666666666666 0.0118475 0.001524,
  p 143: -0.00548666666666666 0.0128475 0.001524,
  p 144: -0.00548666666666666 0.0208475 0.001524,
  p 145: -0.00548666666666666 0.0218475 0.001524,
  p 146: -0.00548666666666666 -0.0144858333333333 0.001524,
  p 147: -0.00548666666666666 -0.0118191666666667 0.001524,
  p 148: -0.00548666666666666 0.0155141666666667 0.001524,
  p 149: -0.00548666666666666 0.0181808333333333 0.001524,
  p 150: -0.003 -0.0051525 0.001524,
  p 151: -0.003 -0.0041525 0.001524,
  p 152: -0.003 -0.003 0.001524,
  p 153: -0.003 0 0.001524,
  p 154: -0.003 0.003 0.001524,
  p 155: -0.003 0.006 0.001524,
  p 156: -0.003 0.0078475 0.001524,
  p 157: -0.003 0.0088475 0.001524,
  p 158: -0.0026325 -0.0181525 0.001524,
  p 159: -0.0026325 -0.0171525 0.001524,
  p 160: -0.0026325 -0.0091525 0.001524,
  p 161: -0.0026325 -0.0081525 0.001524,
  p 162: -0.0026325 0.0118475 0.001524,
  p 163: -0.0026325 0.0128475 0.001524,
  p 164: -0.0026325 0.0208475 0.001524,
  p 165: -0.0026325 0.0218475 0.001524,
  p 166: -0.0026325 -0.0144858333333333 0.001524,
  p 167: -0.0026325 -0.0118191666666667 0.001524,
  p 168: -0.0026325 0.0155141666666667 0.001524,
  p 169: -0.0026325 0.0181808333333333 0.001524,
  p 170: 0 -0.0051525 0.001524,
  p 171: 0 -0.0041525 0.001524,
  p 172: 0 -0.003 0.001524,
  p 173: 0 0 0.001524,
  p 174: 0 0.003 0.001524,
  p 175: 0 0.006 0.001524,
  p 176: 0 0.0078475 0.001524,
  p 177: 0 0.0088475 0.001524,
  p 178: 0.000221666666666668 -0.0181525 0.001524,
  p 179: 0.000221666666666668 -0.0171525 0.001524,
  p 180: 0.000221666666666668 -0.0144858333333333 0.001524,
  p 181: 0.000221666666666668 -0.0118191666666667 0.001524,
  p 182: 0.000221666666666668 -0.0091525 0.001524,
  p 183: 0.000221666666666668 -0.0081525 0.001524,
  p 184: 0.000221666666666668 0.0118475 0.001524,
  p 185: 0.000221666666666668 0.0128475 0.001524,
  p 186: 0.000221666666666668 0.0208475 0.001524,
  p 187: 0.000221666666666668 0.0218475 0.001524,
  p 188: 0.000221666666666668 0.0155141666666667 0.001524,
  p 189: 0.000221666666666668 0.0181808333333333 0.001524,
  p 190: 0.00193 -0.0041525 0.001524,
  p 191: 0.00193 -0.003 0.001524,
  p 192: 0.00193 0 0.001524,
  p 193: 0.00193 0.003 0.001524,
  p 194: 0.00193 0.006 0.001524,
  p 195: 0.00193 0.0078475 0.001524,
  p 196: 0.00293 -0.0051525 0.001524,
  p 197: 0.00293 -0.003 0.001524,
  p 198: 0.00293 0 0.001524,
  p 199: 0.00293 0.003 0.001524,
  p 200: 0.00293 0.006 0.001524,
  p 201: 0.00293 0.0088475 0.001524,
  p 202: 0.00307583333333333 -0.0181525 0.001524,
  p 203: 0.00307583333333333 -0.0171525 0.001524,
  p 204: 0.00307583333333333 -0.0091525 0.001524,
  p 205: 0.00307583333333333 -0.0081525 0.001524,
  p 206: 0.00307583333333333 0.0118475 0.001524,
  p 207: 0.00307583333333333 0.0128475 0.001524,
  p 208: 0.00307583333333333 0.0208475 0.001524,
  p 209: 0.00307583333333333 0.0218475 0.001524,
  p 210: 0.00307583333333333 -0.0144858333333333 0.001524,
  p 211: 0.00307583333333333 -0.0118191666666667 0.001524,
  p 212: 0.00307583333333333 0.0155141666666667 0.001524,
  p 213: 0.00307583333333333 0.0181808333333333 0.001524,
  p 214: 0.00493 -0.0081525 0.001524,
  p 215: 0.00493 -0.0064025 0.001524,
  p 216: 0.00493 -0.0036525 0.001524,
  p 217: 0.00493 -0.000902499999999999 0.001524,
  p 218: 0.00493 0.0018475 0.001524,
  p 219: 0.00493 0.0045975 0.001524,
  p 220: 0.00493 0.0073475 0.001524,
  p 221: 0.00493 0.0100975 0.001524,
  p 222: 0.00493 0.0118475 0.001524,
  p 223: 0.00593 -0.0181525 0.001524,
  p 224: 0.00593 -0.0171525 0.001524,
  p 225: 0.00593 -0.0144858333333333 0.001524,
  p 226: 0.00593 -0.0118191666666667 0.001524,
  p 227: 0.00593 -0.0091525 0.001524,
  p 228: 0.00593 -0.0064025 0.001524,
  p 229: 0.00593 -0.0036525 0.001524,
  p 230: 0.00593 -0.000902499999999999 0.001524,
  p 231: 0.00593 0.0018475 0.001524,
  p 232: 0.00593 0.0045975 0.001524,
  p 233: 0.00593 0.0073475 0.001524,
  p 234: 0.00593 0.0100975 0.001524,
  p 235: 0.00593 0.0128475 0.001524,
  p 236: 0.00593 0.0155141666666667 0.001524,
  p 237: 0.00593 0.0181808333333333 0.001524,
  p 238: 0.00593 0.0208475 0.001524,
  p 239: 0.00593 0.0218475 0.001524,
  p 240: 0.00759666666666667 -0.0091525 0.001524,
  p 241: 0.00759666666666667 -0.0064025 0.001524,
  p 242: 0.00759666666666667 -0.0036525 0.001524,
  p 243: 0.00759666666666667 -0.000902499999999999 0.001524,
  p 244: 0.00759666666666667 0.0018475 0.001524,
  p 245: 0.00759666666666667 0.0045975 0.001524,
  p 246: 0.00759666666666667 0.0073475 0.001524,
  p 247: 0.00759666666666667 0.0100975 0.001524,
  p 248: 0.00759666666666667 0.0128475 0.001524,
  p 249: 0.00759666666666667 -0.0108191666666667 0.001524,
  p 250: 0.00759666666666667 0.0145141666666667 0.001524,
  p 251: 0.00826333333333333 0.0208475 0.001524,
  p 252: 0.00826333333333333 0.0218475 0.001524,
  p 253: 0.00826333333333333 -0.0181525 0.001524,
  p 254: 0.00826333333333333 -0.0171525 0.001524,
  p 255: 0.00826333333333334 0.0181808333333333 0.001524,
  p 256: 0.00826333333333334 -0.0144858333333333 0.001524,
  p 257: 0.00870777777777778 -0.0124858333333333 0.001524,
  p 258: 0.00870777777777778 0.0161808333333333 0.001524,
  p 259: 0.00926333333333333 -0.0108191666666667 0.001524,
  p 260: 0.00926333333333333 -0.0091525 0.001524,
  p 261: 0.00926333333333333 -0.0064025 0.001524,
  p 262: 0.00926333333333333 -0.0036525 0.001524,
  p 263: 0.00926333333333333 -0.000902499999999999 0.001524,
  p 264: 0.00926333333333333 0.0018475 0.001524,
  p 265: 0.00926333333333333 0.0045975 0.001524,
  p 266: 0.00926333333333333 0.0073475 0.001524,
  p 267: 0.00926333333333333 0.0100975 0.001524,
  p 268: 0.00926333333333333 0.0128475 0.001524,
  p 269: 0.00926333333333333 0.0145141666666667 0.001524,
  p 270: 0.01093 -0.0171525 0.001524,
  p 271: 0.01093 -0.0144858333333333 0.001524,
  p 272: 0.01093 -0.0124858333333333 0.001524,
  p 273: 0.01093 -0.0108191666666667 0.001524,
  p 274: 0.01093 -0.0091525 0.001524,
  p 275: 0.01093 -0.0064025 0.001524,
  p 276: 0.01093 -0.0036525 0.001524,
  p 277: 0.01093 -0.000902499999999999 0.001524,
  p 278: 0.01093 0.0018475 0.001524,
  p 279: 0.01093 0.0045975 0.001524,
  p 280: 0.01093 0.0073475 0.001524,
  p 281: 0.01093 0.0100975 0.001524,
  p 282: 0.01093 0.0128475 0.001524,
  p 283: 0.01093 0.0145141666666667 0.001524,
  p 284: 0.01093 0.0161808333333333 0.001524,
  p 285: 0.01093 0.0181808333333333 0.001524,
  p 286: 0.01093 0.0208475 0.001524,
  p 287: 0.01193 -0.0181525 0.001524,
  p 288: 0.01193 -0.0144858333333333 0.001524,
  p 289: 0.01193 -0.0124858333333333 0.001524,
  p 290: 0.01193 -0.0108191666666667 0.001524,
  p 291: 0.01193 -0.0091525 0.001524,
  p 292: 0.01193 -0.0064025 0.001524,
  p 293: 0.01193 -0.0036525 0.001524,
  p 294: 0.01193 -0.000902499999999999 0.001524,
  p 295: 0.01193 0.0018475 0.001524,
  p 296: 0.01193 0.0045975 0.001524,
  p 297: 0.01193 0.0073475 0.001524,
  p 298: 0.01193 0.0100975 0.001524,
  p 299: 0.01193 0.0128475 0.001524,
  p 300: 0.01193 0.0145141666666667 0.001524,
  p 301: 0.01193 0.0161808333333333 0.001524,
  p 302: 0.01193 0.0181808333333333 0.001524,
  p 303: 0.01193 0.0218475 0.001524;
EdefIA 619: 
  s 1: 1 2,
  s 2: 1 19,
  s 3: 1 51,
  s 4: 2 3,
  s 5: 2 20,
  s 6: 3 4,
  s 7: 3 21,
  s 8: 4 5,
  s 9: 4 22,
  s 10: 5 6,
  s 11: 5 23,
  s 12: 6 7,
  s 13: 6 24,
  s 14: 7 8,
  s 15: 7 25,
  s 16: 8 9,
  s 17: 8 26,
  s 18: 9 10,
  s 19: 9 27,
  s 20: 10 11,
  s 21: 10 28,
  s 22: 11 12,
  s 23: 11 29,
  s 24: 12 13,
  s 25: 12 30,
  s 26: 13 14,
  s 27: 13 31,
  s 28: 14 15,
  s 29: 14 32,
  s 30: 15 16,
  s 31: 15 33,
  s 32: 16 17,
  s 33: 16 34,
  s 34: 17 18,
  s 35: 17 35,
  s 36: 18 36,
  s 37: 18 54,
  s 38: 19 20,
  s 39: 19 52,
  s 40: 20 21,
  s 41: 20 50,
  s 42: 21 22,
  s 43: 21 48,
  s 44: 22 23,
  s 45: 22 38,
  s 46: 23 24,
  s 47: 23 39,
  s 48: 24 25,
  s 49: 24 40,
  s 50: 25 26,
  s 51: 25 41,
  s 52: 26 27,
  s 53: 26 42,
  s 54: 27 28,
  s 55: 27 56,
  s 56: 28 29,
  s 57: 28 37,
  s 58: 29 30,
  s 59: 29 43,
  s 60: 30 31,
  s 61: 30 44,
  s 62: 31 32,
  s 63: 31 45,
  s 64: 32 33,
  s 65: 32 46,
  s 66: 33 34,
  s 67: 33 47,
  s 68: 34 35,
  s 69: 34 49,
  s 70: 35 36,
  s 71: 35 55,
  s 72: 36 53,
  s 73: 37 43,
  s 74: 37 56,
  s 75: 37 57,
  s 76: 38 39,
  s 77: 38 48,
  s 78: 38 64,
  s 79: 39 40,
  s 80: 39 58,
  s 81: 40 41,
  s 82: 40 59,
  s 83: 41 42,
  s 84: 41 60,
  s 85: 42 56,
  s 86: 42 74,
  s 87: 43 44,
  s 88: 43 57,
  s 89: 43 77,
  s 90: 44 45,
  s 91: 44 61,
  s 92: 45 46,
  s 93: 45 62,
  s 94: 46 47,
  s 95: 46 63,
  s 96: 47 49,
  s 97: 47 65,
  s 98: 48 50,
  s 99: 48 64,
  s 100: 49 55,
  s 101: 49 65,
  s 102: 50 52,
  s 103: 50 64,
  s 104: 50 82,
  s 105: 51 52,
  s 106: 51 78,
  s 107: 52 79,
  s 108: 53 54,
  s 109: 53 55,
  s 110: 53 80,
  s 111: 54 81,
  s 112: 55 65,
  s 113: 55 83,
  s 114: 56 57,
  s 115: 56 72,
  s 116: 56 75,
  s 117: 57 73,
  s 118: 57 76,
  s 119: 58 59,
  s 120: 58 64,
  s 121: 58 66,
  s 122: 58 84,
  s 123: 59 60,
  s 124: 59 67,
  s 125: 60 68,
  s 126: 60 74,
  s 127: 60 91,
  s 128: 61 62,
  s 129: 61 69,
  s 130: 61 77,
  s 131: 61 96,
  s 132: 62 63,
  s 133: 62 70,
  s 134: 63 65,
  s 135: 63 71,
  s 136: 63 87,
  s 137: 64 88,
  s 138: 65 89,
  s 139: 66 67,
  s 140: 66 85,
  s 141: 67 68,
  s 142: 68 90,
  s 143: 69 70,
  s 144: 69 97,
  s 145: 70 71,
  s 146: 71 86,
  s 147: 72 74,
  s 148: 72 75,
  s 149: 72 93,
  s 150: 73 76,
  s 151: 73 77,
  s 152: 73 95,
  s 153: 74 92,
  s 154: 75 76,
  s 155: 75 93,
  s 156: 76 94,
  s 157: 77 95,
  s 158: 78 79,
  s 159: 78 98,
  s 160: 79 82,
  s 161: 79 99,
  s 162: 80 81,
  s 163: 80 83,
  s 164: 80 104,
  s 165: 81 105,
  s 166: 82 88,
  s 167: 82 106,
  s 168: 83 89,
  s 169: 83 109,
  s 170: 84 85,
  s 171: 84 88,
  s 172: 84 100,
  s 173: 85 101,
  s 174: 86 87,
  s 175: 86 102,
  s 176: 87 89,
  s 177: 87 103,
  s 178: 88 107,
  s 179: 89 108,
  s 180: 90 91,
  s 181: 90 110,
  s 182: 91 92,
  s 183: 91 111,
  s 184: 92 93,
  s 185: 92 112,
  s 186: 93 94,
  s 187: 93 113,
  s 188: 94 95,
  s 189: 94 114,
  s 190: 95 96,
  s 191: 95 115,
  s 192: 96 97,
  s 193: 96 116,
  s 194: 97 117,
  s 195: 98 99,
  s 196: 98 118,
  s 197: 99 106,
  s 198: 99 119,
  s 199: 100 101,
  s 200: 100 107,
  s 201: 100 120,
  s 202: 101 121,
  s 203: 102 103,
  s 204: 102 122,
  s 205: 103 108,
  s 206: 103 123,
  s 207: 104 105,
  s 208: 104 109,
  s 209: 104 124,
  s 210: 105 125,
  s 211: 106 107,
  s 212: 106 126,
  s 213: 107 127,
  s 214: 108 109,
  s 215: 108 128,
  s 216: 109 129,
  s 217: 110 111,
  s 218: 110 130,
  s 219: 111 112,
  s 220: 111 131,
  s 221: 112 113,
  s 222: 112 132,
  s 223: 113 114,
  s 224: 113 133,
  s 225: 114 115,
  s 226: 114 134,
  s 227: 115 116,
  s 228: 115 135,
  s 229: 116 117,
  s 230: 116 136,
  s 231: 117 137,
  s 232: 118 119,
  s 233: 118 138,
  s 234: 119 126,
  s 235: 119 139,
  s 236: 120 121,
  s 237: 120 127,
  s 238: 120 140,
  s 239: 121 141,
  s 240: 122 123,
  s 241: 122 142,
  s 242: 123 128,
  s 243: 123 143,
  s 244: 124 125,
  s 245: 124 129,
  s 246: 124 144,
  s 247: 125 145,
  s 248: 126 127,
  s 249: 126 146,
  s 250: 127 147,
  s 251: 128 129,
  s 252: 128 148,
  s 253: 129 149,
  s 254: 130 131,
  s 255: 130 150,
  s 256: 131 132,
  s 257: 131 151,
  s 258: 132 133,
  s 259: 132 152,
  s 260: 133 134,
  s 261: 133 153,
  s 262: 134 135,
  s 263: 134 154,
  s 264: 135 136,
  s 265: 135 155,
  s 266: 136 137,
  s 267: 136 156,
  s 268: 137 157,
  s 269: 138 139,
  s 270: 138 158,
  s 271: 139 146,
  s 272: 139 159,
  s 273: 140 141,
  s 274: 140 147,
  s 275: 140 160,
  s 276: 141 161,
  s 277: 142 143,
  s 278: 142 162,
  s 279: 143 148,
  s 280: 143 163,
  s 281: 144 145,
  s 282: 144 149,
  s 283: 144 164,
  s 284: 145 165,
  s 285: 146 147,
  s 286: 146 166,
  s 287: 147 167,
  s 288: 148 149,
  s 289: 148 168,
  s 290: 149 169,
  s 291: 150 151,
  s 292: 150 170,
  s 293: 151 152,
  s 294: 151 171,
  s 295: 152 153,
  s 296: 152 172,
  s 297: 153 154,
  s 298: 153 173,
  s 299: 154 155,
  s 300: 154 174,
  s 301: 155 156,
  s 302: 155 175,
  s 303: 156 157,
  s 304: 156 176,
  s 305: 157 177,
  s 306: 158 159,
  s 307: 158 178,
  s 308: 159 166,
  s 309: 159 179,
  s 310: 160 161,
  s 311: 160 167,
  s 312: 160 182,
  s 313: 161 183,
  s 314: 162 163,
  s 315: 162 184,
  s 316: 163 168,
  s 317: 163 185,
  s 318: 164 165,
  s 319: 164 169,
  s 320: 164 186,
  s 321: 165 187,
  s 322: 166 167,
  s 323: 166 180,
  s 324: 167 181,
  s 325: 168 169,
  s 326: 168 188,
  s 327: 169 189,
  s 328: 170 171,
  s 329: 170 196,
  s 330: 171 172,
  s 331: 171 190,
  s 332: 172 173,
  s 333: 172 191,
  s 334: 173 174,
  s 335: 173 192,
  s 336: 174 175,
  s 337: 174 193,
  s 338: 175 176,
  s 339: 175 194,
  s 340: 176 177,
  s 341: 176 195,
  s 342: 177 201,
  s 343: 178 179,
  s 344: 178 202,
  s 345: 179 180,
  s 346: 179 203,
  s 347: 180 181,
  s 348: 180 210,
  s 349: 181 182,
  s 350: 181 211,
  s 351: 182 183,
  s 352: 182 204,
  s 353: 183 205,
  s 354: 184 185,
  s 355: 184 206,
  s 356: 185 188,
  s 357: 185 207,
  s 358: 186 187,
  s 359: 186 189,
  s 360: 186 208,
  s 361: 187 209,
  s 362: 188 189,
  s 363: 188 212,
  s 364: 189 213,
  s 365: 190 191,
  s 366: 190 196,
  s 367: 191 192,
  s 368: 191 197,
  s 369: 192 193,
  s 370: 192 198,
  s 371: 193 194,
  s 372: 193 199,
  s 373: 194 195,
  s 374: 194 200,
  s 375: 195 201,
  s 376: 196 197,
  s 377: 197 198,
  s 378: 198 199,
  s 379: 199 200,
  s 380: 200 201,
  s 381: 202 203,
  s 382: 202 223,
  s 383: 203 210,
  s 384: 203 224,
  s 385: 204 205,
  s 386: 204 211,
  s 387: 204 227,
  s 388: 205 214,
  s 389: 206 207,
  s 390: 206 222,
  s 391: 207 212,
  s 392: 207 235,
  s 393: 208 209,
  s 394: 208 213,
  s 395: 208 238,
  s 396: 209 239,
  s 397: 210 211,
  s 398: 210 225,
  s 399: 211 226,
  s 400: 212 213,
  s 401: 212 236,
  s 402: 213 237,
  s 403: 214 215,
  s 404: 214 227,
  s 405: 215 216,
  s 406: 215 228,
  s 407: 216 217,
  s 408: 216 229,
  s 409: 217 218,
  s 410: 217 230,
  s 411: 218 219,
  s 412: 218 231,
  s 413: 219 220,
  s 414: 219 232,
  s 415: 220 221,
  s 416: 220 233,
  s 417: 221 222,
  s 418: 221 234,
  s 419: 222 235,
  s 420: 223 224,
  s 421: 223 253,
  s 422: 224 225,
  s 423: 224 254,
  s 424: 225 226,
  s 425: 225 256,
  s 426: 226 227,
  s 427: 226 249,
  s 428: 226 257,
  s 429: 227 228,
  s 430: 227 240,
  s 431: 228 229,
  s 432: 228 241,
  s 433: 229 230,
  s 434: 229 242,
  s 435: 230 231,
  s 436: 230 243,
  s 437: 231 232,
  s 438: 231 244,
  s 439: 232 233,
  s 440: 232 245,
  s 441: 233 234,
  s 442: 233 246,
  s 443: 234 235,
  s 444: 234 247,
  s 445: 235 236,
  s 446: 235 248,
  s 447: 236 237,
  s 448: 236 250,
  s 449: 236 258,
  s 450: 237 238,
  s 451: 237 255,
  s 452: 238 239,
  s 453: 238 251,
  s 454: 239 252,
  s 455: 240 241,
  s 456: 240 249,
  s 457: 240 260,
  s 458: 241 242,
  s 459: 241 261,
  s 460: 242 243,
  s 461: 242 262,
  s 462: 243 244,
  s 463: 243 263,
  s 464: 244 245,
  s 465: 244 264,
  s 466: 245 246,
  s 467: 245 265,
  s 468: 246 247,
  s 469: 246 266,
  s 470: 247 248,
  s 471: 247 267,
  s 472: 248 250,
  s 473: 248 268,
  s 474: 249 257,
  s 475: 249 259,
  s 476: 250 258,
  s 477: 250 269,
  s 478: 251 252,
  s 479: 251 255,
  s 480: 251 286,
  s 481: 252 303,
  s 482: 253 254,
  s 483: 253 287,
  s 484: 254 256,
  s 485: 254 270,
  s 486: 255 258,
  s 487: 255 285,
  s 488: 256 257,
  s 489: 256 271,
  s 490: 257 259,
  s 491: 257 272,
  s 492: 258 269,
  s 493: 258 284,
  s 494: 259 260,
  s 495: 259 273,
  s 496: 260 261,
  s 497: 260 274,
  s 498: 261 262,
  s 499: 261 275,
  s 500: 262 263,
  s 501: 262 276,
  s 502: 263 264,
  s 503: 263 277,
  s 504: 264 265,
  s 505: 264 278,
  s 506: 265 266,
  s 507: 265 279,
  s 508: 266 267,
  s 509: 266 280,
  s 510: 267 268,
  s 511: 267 281,
  s 512: 268 269,
  s 513: 268 282,
  s 514: 269 283,
  s 515: 270 271,
  s 516: 270 287,
  s 517: 271 272,
  s 518: 271 288,
  s 519: 272 273,
  s 520: 272 289,
  s 521: 273 274,
  s 522: 273 290,
  s 523: 274 275,
  s 524: 274 291,
  s 525: 275 276,
  s 526: 275 292,
  s 527: 276 277,
  s 528: 276 293,
  s 529: 277 278,
  s 530: 277 294,
  s 531: 278 279,
  s 532: 278 295,
  s 533: 279 280,
  s 534: 279 296,
  s 535: 280 281,
  s 536: 280 297,
  s 537: 281 282,
  s 538: 281 298,
  s 539: 282 283,
  s 540: 282 299,
  s 541: 283 284,
  s 542: 283 300,
  s 543: 284 285,
  s 544: 284 301,
  s 545: 285 286,
  s 546: 285 302,
  s 547: 286 303,
  s 548: 287 288,
  s 549: 288 289,
  s 550: 289 290,
  s 551: 290 291,
  s 552: 291 292,
  s 553: 292 293,
  s 554: 293 294,
  s 555: 294 295,
  s 556: 295 296,
  s 557: 296 297,
  s 558: 297 298,
  s 559: 298 299,
  s 560: 299 300,
  s 561: 300 301,
  s 562: 301 302,
  s 563: 302 303,
  s 564: 303 285,
  s 565: 288 270,
  s 566: 287 254,
  s 567: 273 257,
  s 568: 284 269,
  s 569: 272 256,
  s 570: 285 258,
  s 571: 258 237,
  s 572: 303 251,
  s 573: 249 227,
  s 574: 250 235,
  s 575: 257 225,
  s 576: 235 221,
  s 577: 228 214,
  s 578: 227 205,
  s 579: 235 206,
  s 580: 201 194,
  s 581: 197 190,
  s 582: 196 171,
  s 583: 201 176,
  s 584: 107 82,
  s 585: 88 58,
  s 586: 109 89,
  s 587: 89 55,
  s 588: 92 60,
  s 589: 95 76,
  s 590: 93 74,
  s 591: 74 56,
  s 592: 97 61,
  s 593: 85 58,
  s 594: 89 63,
  s 595: 88 50,
  s 596: 87 71,
  s 597: 71 62,
  s 598: 70 61,
  s 599: 96 77,
  s 600: 77 44,
  s 601: 91 68,
  s 602: 68 59,
  s 603: 67 58,
  s 604: 64 39,
  s 605: 76 56,
  s 606: 50 21,
  s 607: 65 46,
  s 608: 77 57,
  s 609: 74 41,
  s 610: 48 22,
  s 611: 56 28,
  s 612: 55 34,
  s 613: 49 33,
  s 614: 43 28,
  s 615: 56 26,
  s 616: 52 1,
  s 617: 54 36,
  s 618: 36 17,
  s 619: 20 1;
CdefIA 316: 
  c 1: -547 -545 -564,
  c 2: -543 544 562 -546,
  c 3: -544 -541 542 561,
  c 4: -542 -539 540 560,
  c 5: -540 -537 538 559,
  c 6: -538 -535 536 558,
  c 7: -536 -533 534 557,
  c 8: -534 -531 532 556,
  c 9: -532 -529 530 555,
  c 10: -530 -527 528 554,
  c 11: -528 -525 526 553,
  c 12: -526 -523 524 552,
  c 13: -524 -521 522 551,
  c 14: -522 -519 520 550,
  c 15: -517 518 549 -520,
  c 16: -518 -515 -565,
  c 17: -516 -485 -566,
  c 18: -512 513 539 -514,
  c 19: -513 -510 511 537,
  c 20: -511 -508 509 535,
  c 21: -509 -506 507 533,
  c 22: -507 -504 505 531,
  c 23: -505 -502 503 529,
  c 24: -503 -500 501 527,
  c 25: -501 -498 499 525,
  c 26: -499 -496 497 523,
  c 27: -494 495 521 -497,
  c 28: -495 -490 -567,
  c 29: -493 492 -568,
  c 30: -492 -476 477,
  c 31: -491 -488 -569,
  c 32: -484 485 515 -489,
  c 33: -487 486 -570,
  c 34: -486 -451 -571,
  c 35: -481 -478 -572,
  c 36: 479 487 545 -480,
  c 37: -450 451 -479 -453,
  c 38: -472 473 512 -477,
  c 39: -475 474 490,
  c 40: -474 -427 428,
  c 41: -473 -470 471 510,
  c 42: -471 -468 469 508,
  c 43: -469 -466 467 506,
  c 44: -467 -464 465 504,
  c 45: -465 -462 463 502,
  c 46: -463 -460 461 500,
  c 47: -461 -458 459 498,
  c 48: -459 -455 457 496,
  c 49: 456 475 494 -457,
  c 50: -456 -430 -573,
  c 51: -452 453 478 -454,
  c 52: -449 448 476,
  c 53: -448 -445 -574,
  c 54: -446 -443 444 470,
  c 55: -444 -441 442 468,
  c 56: -442 -439 440 466,
  c 57: -440 -437 438 464,
  c 58: -438 -435 436 462,
  c 59: -436 -433 434 460,
  c 60: -434 -431 432 458,
  c 61: -432 -429 430 455,
  c 62: -428 -424 -575,
  c 63: -422 423 484 -425,
  c 64: -420 421 482 -423,
  c 65: -419 -417 -576,
  c 66: -418 -415 416 441,
  c 67: -416 -413 414 439,
  c 68: -414 -411 412 437,
  c 69: -412 -409 410 435,
  c 70: -410 -407 408 433,
  c 71: -408 -405 406 431,
  c 72: -406 -403 -577,
  c 73: -404 -388 -578,
  c 74: -400 401 447 -402,
  c 75: -391 392 445 -401,
  c 76: -397 398 424 -399,
  c 77: -383 384 422 -398,
  c 78: -393 395 452 -396,
  c 79: 394 402 450 -395,
  c 80: 359 364 -394 -360,
  c 81: -392 -389 -579,
  c 82: 386 399 426 -387,
  c 83: -349 350 -386 -352,
  c 84: -381 382 420 -384,
  c 85: -375 -373 -580,
  c 86: -374 -371 372 379,
  c 87: -372 -369 370 378,
  c 88: -370 -367 368 377,
  c 89: -368 -365 -581,
  c 90: -366 -331 -582,
  c 91: -362 363 400 -364,
  c 92: -356 357 391 -363,
  c 93: -358 360 393 -361,
  c 94: 319 327 -359 -320,
  c 95: -354 355 389 -357,
  c 96: -351 352 385 -353,
  c 97: -347 348 397 -350,
  c 98: -345 346 383 -348,
  c 99: -343 344 381 -346,
  c 100: -342 -340 -583,
  c 101: -338 339 373 -341,
  c 102: -339 -336 337 371,
  c 103: -337 -334 335 369,
  c 104: -335 -332 333 367,
  c 105: -330 331 365 -333,
  c 106: -325 326 362 -327,
  c 107: -316 317 356 -326,
  c 108: -322 323 347 -324,
  c 109: -308 309 345 -323,
  c 110: -318 320 358 -321,
  c 111: 282 290 -319 -283,
  c 112: -314 315 354 -317,
  c 113: -310 312 351 -313,
  c 114: 311 324 349 -312,
  c 115: 274 287 -311 -275,
  c 116: -306 307 343 -309,
  c 117: -303 304 340 -305,
  c 118: -301 302 338 -304,
  c 119: -299 300 336 -302,
  c 120: -297 298 334 -300,
  c 121: -295 296 332 -298,
  c 122: -293 294 330 -296,
  c 123: -291 292 328 -294,
  c 124: -288 289 325 -290,
  c 125: -279 280 316 -289,
  c 126: -285 286 322 -287,
  c 127: -271 272 308 -286,
  c 128: -281 283 318 -284,
  c 129: 245 253 -282 -246,
  c 130: -277 278 314 -280,
  c 131: -273 275 310 -276,
  c 132: 237 250 -274 -238,
  c 133: -269 270 306 -272,
  c 134: -266 267 303 -268,
  c 135: -264 265 301 -267,
  c 136: -262 263 299 -265,
  c 137: -260 261 297 -263,
  c 138: -258 259 295 -261,
  c 139: -256 257 293 -259,
  c 140: -254 255 291 -257,
  c 141: -251 252 288 -253,
  c 142: -242 243 279 -252,
  c 143: -248 249 285 -250,
  c 144: -234 235 271 -249,
  c 145: -244 246 281 -247,
  c 146: 208 216 -245 -209,
  c 147: -240 241 277 -243,
  c 148: -236 238 273 -239,
  c 149: 200 213 -237 -201,
  c 150: -232 233 269 -235,
  c 151: -229 230 266 -231,
  c 152: -227 228 264 -230,
  c 153: -225 226 262 -228,
  c 154: -223 224 260 -226,
  c 155: -221 222 258 -224,
  c 156: -219 220 256 -222,
  c 157: -217 218 254 -220,
  c 158: -214 215 251 -216,
  c 159: -205 206 242 -215,
  c 160: -211 212 248 -213,
  c 161: -197 198 234 -212,
  c 162: -207 209 244 -210,
  c 163: 163 169 -208 -164,
  c 164: -203 204 240 -206,
  c 165: -199 201 236 -202,
  c 166: 171 178 -200 -172,
  c 167: -195 196 232 -198,
  c 168: -192 193 229 -194,
  c 169: -190 191 227 -193,
  c 170: -188 189 225 -191,
  c 171: -186 187 223 -189,
  c 172: -184 185 221 -187,
  c 173: -182 183 219 -185,
  c 174: -180 181 217 -183,
  c 175: -176 177 205 -179,
  c 176: -178 -166 -584,
  c 177: -174 175 203 -177,
  c 178: -170 172 199 -173,
  c 179: -171 -122 -585,
  c 180: -169 168 -586,
  c 181: -168 -113 -587,
  c 182: -160 161 197 -167,
  c 183: -162 164 207 -165,
  c 184: 109 113 -163 -110,
  c 185: -158 159 195 -161,
  c 186: -157 -151 152,
  c 187: -154 155 186 -156,
  c 188: -155 -148 149,
  c 189: -153 -126 -588,
  c 190: -152 150 -589,
  c 191: -150 -117 118,
  c 192: -149 147 -590,
  c 193: -147 -115 -591,
  c 194: -144 -129 -592,
  c 195: -140 -121 -593,
  c 196: -138 -134 -594,
  c 197: -137 -103 -595,
  c 198: -136 135 -596,
  c 199: -135 -132 -597,
  c 200: -133 -128 -598,
  c 201: -131 130 -599,
  c 202: -130 -91 -600,
  c 203: -127 125 -601,
  c 204: -125 -123 -602,
  c 205: -124 -119 -603,
  c 206: -120 -80 -604,
  c 207: -118 -114 -605,
  c 208: -116 115 148,
  c 209: -112 -100 101,
  c 210: -108 110 162 -111,
  c 211: -70 71 -109 -72,
  c 212: -105 106 158 -107,
  c 213: 102 107 160 -104,
  c 214: -38 39 -102 -41,
  c 215: -101 -96 97,
  c 216: -99 98 103,
  c 217: -98 -43 -606,
  c 218: -97 -94 -607,
  c 219: -95 -92 93 132,
  c 220: -93 -90 91 128,
  c 221: -89 88 -608,
  c 222: -88 -73 75,
  c 223: -86 -83 -609,
  c 224: -84 -81 82 123,
  c 225: -82 -79 80 119,
  c 226: -78 77 99,
  c 227: -77 -45 -610,
  c 228: -75 74 114,
  c 229: -74 -57 -611,
  c 230: -71 -68 -612,
  c 231: -69 -66 -613,
  c 232: -64 65 94 -67,
  c 233: -65 -62 63 92,
  c 234: -63 -60 61 90,
  c 235: -58 59 87 -61,
  c 236: -59 -56 -614,
  c 237: -55 -52 -615,
  c 238: -50 51 83 -53,
  c 239: -51 -48 49 81,
  c 240: -49 -46 47 79,
  c 241: -44 45 76 -47,
  c 242: -39 -2 -616,
  c 243: -37 36 -617,
  c 244: -36 -34 -618,
  c 245: -32 33 68 -35,
  c 246: -33 -30 31 66,
  c 247: -31 -28 29 64,
  c 248: -29 -26 27 62,
  c 249: -27 -24 25 60,
  c 250: -22 23 58 -25,
  c 251: -20 21 56 -23,
  c 252: -18 19 54 -21,
  c 253: -16 17 52 -19,
  c 254: -14 15 50 -17,
  c 255: -15 -12 13 48,
  c 256: -13 -10 11 46,
  c 257: -11 -8 9 44,
  c 258: -9 -6 7 42,
  c 259: -4 5 40 -7,
  c 260: -5 -1 -619,
  c 261: 546 563 564,
  c 262: 516 548 565,
  c 263: -482 483 566,
  c 264: 491 519 567,
  c 265: 514 541 568,
  c 266: 489 517 569,
  c 267: 493 543 570,
  c 268: -447 449 571,
  c 269: 480 547 572,
  c 270: -426 427 573,
  c 271: 446 472 574,
  c 272: 425 488 575,
  c 273: 418 443 576,
  c 274: 404 429 577,
  c 275: -385 387 578,
  c 276: 390 419 579,
  c 277: 374 380 580,
  c 278: 366 376 581,
  c 279: -328 329 582,
  c 280: 341 375 583,
  c 281: 167 211 584,
  c 282: 120 137 585,
  c 283: 179 214 586,
  c 284: 112 138 587,
  c 285: 127 182 588,
  c 286: 156 188 589,
  c 287: 153 184 590,
  c 288: -85 86 591,
  c 289: 131 192 592,
  c 290: 122 170 593,
  c 291: 136 176 594,
  c 292: 104 166 595,
  c 293: 146 174 596,
  c 294: 133 145 597,
  c 295: 129 143 598,
  c 296: 157 190 599,
  c 297: -87 89 600,
  c 298: 142 180 601,
  c 299: 124 141 602,
  c 300: 121 139 603,
  c 301: -76 78 604,
  c 302: 116 154 605,
  c 303: -40 41 606,
  c 304: 95 134 607,
  c 305: 117 151 608,
  c 306: 84 126 609,
  c 307: -42 43 610,
  c 308: -54 55 611,
  c 309: 69 100 612,
  c 310: 67 96 613,
  c 311: 57 73 614,
  c 312: 53 85 615,
  c 313: 3 105 616,
  c 314: 72 108 617,
  c 315: 35 70 618,
  c 316: 2 38 619;
beg_Xinfo :
beg_layer /1:
  Mask: 1;
  Type: metal;
  Level: 0;
  Plane: z = 0.001524;
  Fill: condthickness 58000000 3.5e-005 M precedence 0;
  CrefRA 316 { 
  1 261 35 269 51 78 93 110 128 145 162 183
  210 243 314 244 315 245 246 247 248 249 250 251
  252 253 254 255 256 257 258 259 260 316 242 313
  214 213 212 185 167 150 133 116 99 84
  64 17 263 16 262 15 31 266 28 264 27 49 50 270 61
  72 274 71 60 47 48 26 12 13 14 11
  25 24 46 59 70 69 58 45 23 9
  10 8 22 44 57 68 67 56 43 21
  7 6 20 42 55 66 65 273 81 276 75 92
  107 125 142 159 175 196 291 181 284 180 283 163 184
  211 230 309 231 310 232 233 234 235 236 311 229 308 228
  222 221 305 202 297 201 296 194 289 200 295 199 294 198 293 177 164
  147 130 112 95 219 220 218 304 215 209 168
  169 170 190 286 186 191 207 302 208 193 288 192 287 188
  187 171 172 173 189 285 223 306 238 239 240 241
  227 307 226 206 301 179 282 166 176 281 197 292 216 217 303 182
  161 144 127 109 98 77 63 32 62 272 40
  39 76 97 108 126 143 160 149 132 115
  114 83 82 73 275 96 113 131 148 165 178
  195 290 205 300 204 299 203 298 174 157 140 123 90 279 89 278
  88 104 121 138 155 156 139 122 105 154
  137 120 103 87 86 102 119 136 153 152
  135 118 101 85 277 100 280 117 134 151 224 225
  237 312 146 158 141 124 106 91 74 34 268 33 267
  36 37 79 80 94 111 129 29 265 30 52
  53 271 54 41 19 5 4 18 38 3 2 }
  RGrid 0.00166666666666667,0.001 -1.5707963267949 1: 
  0.01093,0.0161808333333333 2,1 2:
    1,0 c 4, 0,0 c 3;
  RGrid 0.00275,0.001 -1.5707963267949 1: 
  0.01093,0.0128475 8,1 8:
    7,0 c 12, 6,0 c 11, 5,0 c 10, 4,0 c 9, 3,0 c 8, 
    2,0 c 7, 1,0 c 6, 0,0 c 5;
  RGrid 0.00166666666666667,0.001 -1.5707963267949 1: 
  0.01093,-0.00915249999999996 2,1 2:
    1,0 c 14, 0,0 c 13;
  RGrid 0.00166666666666667,0.00166666666666667 0 1: 
  0.00759666666666667,0.0128475 2,1 2:
    0,0 c 38, 1,0 c 18;
  RGrid 0.00275,0.00166666666666667 -1.5707963267949 1: 
  0.00593,0.0128475 8,3 24:
    7,0 c 61, 6,0 c 60, 5,0 c 59, 4,0 c 58, 3,0 c 57, 
    2,0 c 56, 1,0 c 55, 0,0 c 54, 7,1 c 48, 6,1 c 47, 
    5,1 c 46, 4,1 c 45, 3,1 c 44, 2,1 c 43, 1,1 c 42, 
    0,1 c 41, 7,2 c 26, 6,2 c 25, 5,2 c 24, 4,2 c 23, 
    3,2 c 22, 2,2 c 21, 1,2 c 20, 0,2 c 19;
  RGrid 0.00166666666666667,0.00166666666666667 -8.67361737988403e-016 1: 
  0.00759666666666667,-0.0108191666666667 2,1 2:
    0,0 c 49, 1,0 c 27;
  RGrid 0.00275,0.001 -1.5707963267949 1: 
  0.00493,0.0100975 6,1 6:
    5,0 c 71, 4,0 c 70, 3,0 c 69, 2,0 c 68, 1,0 c 67, 
    0,0 c 66;
  RGrid 0.00285416666666667,0.00266666666666667 0 1: 
  -0.0169033333333333,0.0128475 8,3 20:
    0,2 c 184, 1,2 c 163, 2,0 c 159, 2,1 c 158, 2,2 c 146, 
    3,0 c 142, 3,1 c 141, 3,2 c 129, 4,0 c 125, 4,1 c 124, 
    4,2 c 111, 5,0 c 107, 5,1 c 106, 5,2 c 94, 6,0 c 92, 
    6,1 c 91, 6,2 c 80, 7,0 c 75, 7,1 c 74, 7,2 c 79;
  RGrid 0.00285416666666667,0.00266666666666667 0 1: 
  -0.0169033333333333,-0.0171525 8,3 20:
    0,0 c 213, 1,0 c 182, 2,0 c 161, 2,1 c 160, 2,2 c 149, 
    3,0 c 144, 3,1 c 143, 3,2 c 132, 4,0 c 127, 4,1 c 126, 
    4,2 c 115, 5,0 c 109, 5,1 c 108, 5,2 c 114, 6,0 c 98, 
    6,1 c 97, 6,2 c 83, 7,0 c 77, 7,1 c 76, 7,2 c 82;
  RGrid 0.00285416666666667,0.000999999999999999 0 1: 
  -0.0169033333333333,0.0208475 8,1 8:
    0,0 c 210, 1,0 c 183, 2,0 c 162, 3,0 c 145, 4,0 c 128, 
    5,0 c 110, 6,0 c 93, 7,0 c 78;
  RGrid 0.00285416666666667,0.001 0 1: 
  -0.0169033333333333,-0.0181525 8,1 8:
    0,0 c 212, 1,0 c 185, 2,0 c 167, 3,0 c 150, 4,0 c 133, 
    5,0 c 116, 6,0 c 99, 7,0 c 84;
  RGrid 0.003,0.001 -1.5707963267949 1: 
  0.00193,0.006 3,1 3:
    2,0 c 88, 1,0 c 87, 0,0 c 86;
  RGrid 0.00285416666666667,0.001 0 1: 
  -0.011195,0.0118475 5,1 5:
    0,0 c 164, 1,0 c 147, 2,0 c 130, 3,0 c 112, 4,0 c 95;
  RGrid 0.00285416666666667,0.000999999999999999 0 1: 
  -0.011195,-0.0091525 5,1 5:
    0,0 c 165, 1,0 c 148, 2,0 c 131, 3,0 c 113, 4,0 c 96;
  RGrid 0.003,0.00193 -1.5707963267949 1: 
  0,0.006 3,1 3:
    2,0 c 104, 1,0 c 103, 0,0 c 102;
  RGrid 0.003,0.001 0 1: 
  -0.012,0.0078475 4,1 4:
    0,0 c 168, 1,0 c 151, 2,0 c 134, 3,0 c 117;
  RGrid 0.003,0.0018475 0 1: 
  -0.012,0.006 4,1 4:
    0,0 c 169, 1,0 c 152, 2,0 c 135, 3,0 c 118;
  RGrid 0.003,0.003 0 1: 
  -0.015,-0.003 5,3 13:
    0,1 c 187, 1,0 c 172, 1,1 c 171, 1,2 c 170, 2,0 c 155, 
    2,1 c 154, 2,2 c 153, 3,0 c 138, 3,1 c 137, 3,2 c 136, 
    4,0 c 121, 4,1 c 120, 4,2 c 119;
  RGrid 0.003,0.0011525 0 1: 
  -0.012,-0.0041525 4,1 4:
    0,0 c 173, 1,0 c 156, 2,0 c 139, 3,0 c 122;
  RGrid 0.003,0.001 0 1: 
  -0.012,-0.0051525 4,1 4:
    0,0 c 174, 1,0 c 157, 2,0 c 140, 3,0 c 123;
  RGrid 0.0025,0.00175 -1.5707963267949 1: 
  -0.01957,0.0128475 2,2 4:
    1,0 c 234, 0,0 c 233, 1,1 c 220, 0,1 c 219;
  RGrid 0.0025,0.00175 -1.5707963267949 1: 
  -0.01957,-0.0041525 2,2 4:
    1,0 c 240, 0,0 c 239, 1,1 c 225, 0,1 c 224;
  RGrid 0.00175,0.001 -1.5707963267949 1: 
  -0.02057,0.0163475 2,1 2:
    1,0 c 247, 0,0 c 246;
  RGrid 0.0025,0.001 -1.5707963267949 1: 
  -0.02057,0.0128475 2,1 2:
    1,0 c 249, 0,0 c 248;
  RGrid 0.0025,0.001 -1.5707963267949 1: 
  -0.02057,-0.0041525 2,1 2:
    1,0 c 256, 0,0 c 255;
  RGrid 0.00175,0.001 -1.5707963267949 1: 
  -0.02057,-0.0091525 2,1 2:
    1,0 c 258, 0,0 c 257;
end_layer /1;
end_Xinfo;
Overlap: 
  ErefRA 208 { 
  1 3 4 6 8 10 12 14 16 18
  20 22 24 26 28 30 32 34 37 38
  39 40 42 44 46 48 50 52 54 56
  58 60 62 64 66 68 70 72 106 107
  110 111 119 122 123 127 128 131 132 136
  139 140 141 142 143 144 145 146 159 161
  164 165 172 173 175 177 181 183 186 187
  189 193 194 196 198 201 202 204 206 209
  210 218 220 223 230 231 233 235 238 239
  241 243 246 247 255 257 267 268 270 272
  275 276 278 280 283 284 292 294 304 305
  307 309 312 313 315 317 320 321 329 331
  341 342 344 346 352 353 355 357 360 361
  365 367 369 371 373 376 377 378 379 380
  382 384 387 388 390 392 395 396 403 405
  407 409 411 413 415 417 421 423 429 431
  433 435 437 439 441 443 453 454 480 481
  483 485 515 517 519 521 523 525 527 529
  531 533 535 537 539 541 543 545 548 549
  550 551 552 553 554 555 556 557 558 559
  560 561 562 563 156 155 224 226 };
BdefIA 520: 
  b 1: -1 e 0 c 316, e 1 c 242;
  b 2: -1 e 1 c 259, e 0 c 260;
  b 3: -1 e 2 c 258, e 3 c 259;
  b 4: -1 e 2 c 257, e 0 c 258;
  b 5: -1 e 2 c 256, e 0 c 257;
  b 6: -1 e 2 c 255, e 0 c 256;
  b 7: -1 e 1 c 254, e 0 c 255;
  b 8: -1 e 1 c 253, e 3 c 254;
  b 9: -1 e 1 c 252, e 3 c 253;
  b 10: -1 e 1 c 251, e 3 c 252;
  b 11: -1 e 1 c 250, e 3 c 251;
  b 12: -1 e 2 c 249, e 3 c 250;
  b 13: -1 e 2 c 248, e 0 c 249;
  b 14: -1 e 2 c 247, e 0 c 248;
  b 15: -1 e 2 c 246, e 0 c 247;
  b 16: -1 e 1 c 245, e 0 c 246;
  b 17: -1 e 0 c 315, e 3 c 245;
  b 18: -1 e 1 c 243, e 0 c 244;
  b 19: -1 e 1 c 316, e 0 c 214;
  b 20: -1 e 1 c 214, e 0 c 242;
  b 21: -1 e 2 c 259, e 0 c 303;
  b 22: -1 e 1 c 303, e 3 c 214;
  b 23: -1 e 3 c 258, e 0 c 307;
  b 24: -1 e 1 c 307, e 1 c 217;
  b 25: -1 e 3 c 257, e 0 c 241;
  b 26: -1 e 1 c 241, e 1 c 227;
  b 27: -1 e 3 c 256, e 1 c 240;
  b 28: -1 e 2 c 240, e 3 c 241;
  b 29: -1 e 3 c 255, e 1 c 239;
  b 30: -1 e 2 c 239, e 0 c 240;
  b 31: -1 e 2 c 254, e 0 c 238;
  b 32: -1 e 1 c 238, e 0 c 239;
  b 33: -1 e 2 c 253, e 1 c 237;
  b 34: -1 e 0 c 312, e 3 c 238;
  b 35: -1 e 2 c 252, e 0 c 308;
  b 36: -1 e 1 c 308, e 0 c 237;
  b 37: -1 e 2 c 251, e 1 c 236;
  b 38: -1 e 0 c 311, e 1 c 229;
  b 39: -1 e 2 c 250, e 0 c 235;
  b 40: -1 e 1 c 235, e 0 c 236;
  b 41: -1 e 3 c 249, e 1 c 234;
  b 42: -1 e 2 c 234, e 3 c 235;
  b 43: -1 e 3 c 248, e 1 c 233;
  b 44: -1 e 2 c 233, e 0 c 234;
  b 45: -1 e 3 c 247, e 0 c 232;
  b 46: -1 e 1 c 232, e 0 c 233;
  b 47: -1 e 3 c 246, e 1 c 231;
  b 48: -1 e 0 c 310, e 3 c 232;
  b 49: -1 e 2 c 245, e 1 c 230;
  b 50: -1 e 0 c 309, e 0 c 231;
  b 51: -1 e 1 c 315, e 0 c 211;
  b 52: -1 e 1 c 211, e 0 c 230;
  b 53: -1 e 0 c 314, e 3 c 211;
  b 54: -1 e 1 c 311, e 1 c 222;
  b 55: -1 e 1 c 228, e 0 c 229;
  b 56: -1 e 2 c 222, e 0 c 228;
  b 57: -1 e 2 c 241, e 0 c 301;
  b 58: -1 e 1 c 226, e 0 c 227;
  b 59: -1 e 1 c 301, e 0 c 226;
  b 60: -1 e 3 c 240, e 1 c 225;
  b 61: -1 e 2 c 225, e 1 c 206;
  b 62: -1 e 3 c 239, e 1 c 224;
  b 63: -1 e 2 c 224, e 0 c 225;
  b 64: -1 e 2 c 238, e 1 c 223;
  b 65: -1 e 0 c 306, e 0 c 224;
  b 66: -1 e 1 c 312, e 0 c 288;
  b 67: -1 e 1 c 288, e 0 c 223;
  b 68: -1 e 2 c 235, e 0 c 297;
  b 69: -1 e 1 c 221, e 0 c 222;
  b 70: -1 e 1 c 297, e 0 c 221;
  b 71: -1 e 3 c 234, e 1 c 220;
  b 72: -1 e 2 c 220, e 1 c 202;
  b 73: -1 e 3 c 233, e 1 c 219;
  b 74: -1 e 2 c 219, e 0 c 220;
  b 75: -1 e 2 c 232, e 1 c 218;
  b 76: -1 e 0 c 304, e 0 c 219;
  b 77: -1 e 1 c 310, e 1 c 215;
  b 78: -1 e 2 c 215, e 0 c 218;
  b 79: -1 e 1 c 216, e 0 c 217;
  b 80: -1 e 2 c 226, e 0 c 216;
  b 81: -1 e 1 c 309, e 1 c 209;
  b 82: -1 e 2 c 209, e 0 c 215;
  b 83: -1 e 0 c 213, e 2 c 214;
  b 84: -1 e 2 c 216, e 1 c 197;
  b 85: -1 e 0 c 292, e 3 c 213;
  b 86: -1 e 1 c 313, e 0 c 212;
  b 87: -1 e 1 c 213, e 3 c 212;
  b 88: -1 e 1 c 314, e 0 c 210;
  b 89: -1 e 0 c 184, e 2 c 211;
  b 90: -1 e 1 c 210, e 3 c 184;
  b 91: -1 e 0 c 284, e 0 c 209;
  b 92: -1 e 1 c 184, e 1 c 181;
  b 93: -1 e 2 c 228, e 1 c 207;
  b 94: -1 e 1 c 208, e 1 c 193;
  b 95: -1 e 0 c 302, e 0 c 208;
  b 96: -1 e 0 c 305, e 1 c 191;
  b 97: -1 e 2 c 191, e 0 c 207;
  b 98: -1 e 3 c 225, e 1 c 205;
  b 99: -1 e 0 c 282, e 0 c 206;
  b 100: -1 e 0 c 300, e 1 c 195;
  b 101: -1 e 0 c 290, e 1 c 179;
  b 102: -1 e 3 c 224, e 1 c 204;
  b 103: -1 e 0 c 299, e 0 c 205;
  b 104: -1 e 1 c 203, e 0 c 204;
  b 105: -1 e 1 c 306, e 1 c 189;
  b 106: -1 e 0 c 285, e 0 c 203;
  b 107: -1 e 3 c 220, e 1 c 200;
  b 108: -1 e 0 c 295, e 1 c 194;
  b 109: -1 e 1 c 201, e 0 c 202;
  b 110: -1 e 0 c 289, e 0 c 201;
  b 111: -1 e 3 c 219, e 1 c 199;
  b 112: -1 e 0 c 294, e 0 c 200;
  b 113: -1 e 1 c 304, e 1 c 196;
  b 114: -1 e 1 c 198, e 0 c 199;
  b 115: -1 e 0 c 291, e 0 c 198;
  b 116: -1 e 1 c 282, e 0 c 197;
  b 117: -1 e 1 c 284, e 0 c 196;
  b 118: -1 e 1 c 192, e 0 c 193;
  b 119: -1 e 2 c 208, e 1 c 188;
  b 120: -1 e 2 c 188, e 0 c 192;
  b 121: -1 e 1 c 190, e 0 c 191;
  b 122: -1 e 1 c 305, e 1 c 186;
  b 123: -1 e 2 c 186, e 0 c 190;
  b 124: -1 e 0 c 287, e 0 c 189;
  b 125: -1 e 1 c 302, e 0 c 187;
  b 126: -1 e 1 c 187, e 0 c 188;
  b 127: -1 e 0 c 286, e 3 c 187;
  b 128: -1 e 0 c 296, e 0 c 186;
  b 129: -1 e 2 c 212, e 0 c 185;
  b 130: -1 e 2 c 213, e 0 c 182;
  b 131: -1 e 1 c 182, e 3 c 185;
  b 132: -1 e 2 c 210, e 0 c 183;
  b 133: -1 e 0 c 163, e 2 c 184;
  b 134: -1 e 1 c 183, e 3 c 163;
  b 135: -1 e 1 c 292, e 1 c 176;
  b 136: -1 e 0 c 281, e 3 c 182;
  b 137: -1 e 1 c 180, e 0 c 181;
  b 138: -1 e 1 c 163, e 0 c 180;
  b 139: -1 e 1 c 290, e 0 c 178;
  b 140: -1 e 0 c 166, e 0 c 179;
  b 141: -1 e 1 c 178, e 3 c 166;
  b 142: -1 e 1 c 293, e 0 c 177;
  b 143: -1 e 1 c 291, e 0 c 175;
  b 144: -1 e 1 c 175, e 3 c 177;
  b 145: -1 e 1 c 166, e 0 c 176;
  b 146: -1 e 0 c 283, e 3 c 175;
  b 147: -1 e 1 c 298, e 0 c 174;
  b 148: -1 e 1 c 285, e 0 c 173;
  b 149: -1 e 1 c 173, e 3 c 174;
  b 150: -1 e 1 c 287, e 0 c 172;
  b 151: -1 e 1 c 172, e 3 c 173;
  b 152: -1 e 2 c 187, e 0 c 171;
  b 153: -1 e 1 c 171, e 3 c 172;
  b 154: -1 e 1 c 286, e 0 c 170;
  b 155: -1 e 1 c 170, e 3 c 171;
  b 156: -1 e 1 c 296, e 0 c 169;
  b 157: -1 e 1 c 169, e 3 c 170;
  b 158: -1 e 1 c 289, e 0 c 168;
  b 159: -1 e 1 c 168, e 3 c 169;
  b 160: -1 e 2 c 185, e 0 c 167;
  b 161: -1 e 2 c 182, e 0 c 161;
  b 162: -1 e 1 c 161, e 3 c 167;
  b 163: -1 e 2 c 178, e 0 c 165;
  b 164: -1 e 0 c 149, e 2 c 166;
  b 165: -1 e 1 c 165, e 3 c 149;
  b 166: -1 e 2 c 177, e 0 c 164;
  b 167: -1 e 2 c 175, e 0 c 159;
  b 168: -1 e 1 c 159, e 3 c 164;
  b 169: -1 e 2 c 183, e 0 c 162;
  b 170: -1 e 0 c 146, e 2 c 163;
  b 171: -1 e 1 c 162, e 3 c 146;
  b 172: -1 e 1 c 281, e 0 c 160;
  b 173: -1 e 1 c 160, e 3 c 161;
  b 174: -1 e 1 c 149, e 3 c 160;
  b 175: -1 e 1 c 283, e 0 c 158;
  b 176: -1 e 1 c 158, e 3 c 159;
  b 177: -1 e 1 c 146, e 3 c 158;
  b 178: -1 e 2 c 174, e 0 c 157;
  b 179: -1 e 2 c 173, e 0 c 156;
  b 180: -1 e 1 c 156, e 3 c 157;
  b 181: -1 e 2 c 172, e 0 c 155;
  b 182: -1 e 1 c 155, e 3 c 156;
  b 183: -1 e 2 c 171, e 0 c 154;
  b 184: -1 e 1 c 154, e 3 c 155;
  b 185: -1 e 2 c 170, e 0 c 153;
  b 186: -1 e 1 c 153, e 3 c 154;
  b 187: -1 e 2 c 169, e 0 c 152;
  b 188: -1 e 1 c 152, e 3 c 153;
  b 189: -1 e 2 c 168, e 0 c 151;
  b 190: -1 e 1 c 151, e 3 c 152;
  b 191: -1 e 2 c 167, e 0 c 150;
  b 192: -1 e 2 c 161, e 0 c 144;
  b 193: -1 e 1 c 144, e 3 c 150;
  b 194: -1 e 2 c 165, e 0 c 148;
  b 195: -1 e 0 c 132, e 2 c 149;
  b 196: -1 e 1 c 148, e 3 c 132;
  b 197: -1 e 2 c 164, e 0 c 147;
  b 198: -1 e 2 c 159, e 0 c 142;
  b 199: -1 e 1 c 142, e 3 c 147;
  b 200: -1 e 2 c 162, e 0 c 145;
  b 201: -1 e 0 c 129, e 2 c 146;
  b 202: -1 e 1 c 145, e 3 c 129;
  b 203: -1 e 2 c 160, e 0 c 143;
  b 204: -1 e 1 c 143, e 3 c 144;
  b 205: -1 e 1 c 132, e 3 c 143;
  b 206: -1 e 2 c 158, e 0 c 141;
  b 207: -1 e 1 c 141, e 3 c 142;
  b 208: -1 e 1 c 129, e 3 c 141;
  b 209: -1 e 2 c 157, e 0 c 140;
  b 210: -1 e 2 c 156, e 0 c 139;
  b 211: -1 e 1 c 139, e 3 c 140;
  b 212: -1 e 2 c 155, e 0 c 138;
  b 213: -1 e 1 c 138, e 3 c 139;
  b 214: -1 e 2 c 154, e 0 c 137;
  b 215: -1 e 1 c 137, e 3 c 138;
  b 216: -1 e 2 c 153, e 0 c 136;
  b 217: -1 e 1 c 136, e 3 c 137;
  b 218: -1 e 2 c 152, e 0 c 135;
  b 219: -1 e 1 c 135, e 3 c 136;
  b 220: -1 e 2 c 151, e 0 c 134;
  b 221: -1 e 1 c 134, e 3 c 135;
  b 222: -1 e 2 c 150, e 0 c 133;
  b 223: -1 e 2 c 144, e 0 c 127;
  b 224: -1 e 1 c 127, e 3 c 133;
  b 225: -1 e 2 c 148, e 0 c 131;
  b 226: -1 e 0 c 115, e 2 c 132;
  b 227: -1 e 1 c 131, e 3 c 115;
  b 228: -1 e 2 c 147, e 0 c 130;
  b 229: -1 e 2 c 142, e 0 c 125;
  b 230: -1 e 1 c 125, e 3 c 130;
  b 231: -1 e 2 c 145, e 0 c 128;
  b 232: -1 e 0 c 111, e 2 c 129;
  b 233: -1 e 1 c 128, e 3 c 111;
  b 234: -1 e 2 c 143, e 0 c 126;
  b 235: -1 e 1 c 126, e 3 c 127;
  b 236: -1 e 1 c 115, e 3 c 126;
  b 237: -1 e 2 c 141, e 0 c 124;
  b 238: -1 e 1 c 124, e 3 c 125;
  b 239: -1 e 1 c 111, e 3 c 124;
  b 240: -1 e 2 c 140, e 0 c 123;
  b 241: -1 e 2 c 139, e 0 c 122;
  b 242: -1 e 1 c 122, e 3 c 123;
  b 243: -1 e 2 c 138, e 0 c 121;
  b 244: -1 e 1 c 121, e 3 c 122;
  b 245: -1 e 2 c 137, e 0 c 120;
  b 246: -1 e 1 c 120, e 3 c 121;
  b 247: -1 e 2 c 136, e 0 c 119;
  b 248: -1 e 1 c 119, e 3 c 120;
  b 249: -1 e 2 c 135, e 0 c 118;
  b 250: -1 e 1 c 118, e 3 c 119;
  b 251: -1 e 2 c 134, e 0 c 117;
  b 252: -1 e 1 c 117, e 3 c 118;
  b 253: -1 e 2 c 133, e 0 c 116;
  b 254: -1 e 2 c 127, e 0 c 109;
  b 255: -1 e 1 c 109, e 3 c 116;
  b 256: -1 e 2 c 131, e 0 c 113;
  b 257: -1 e 0 c 114, e 2 c 115;
  b 258: -1 e 1 c 113, e 3 c 114;
  b 259: -1 e 2 c 130, e 0 c 112;
  b 260: -1 e 2 c 125, e 0 c 107;
  b 261: -1 e 1 c 107, e 3 c 112;
  b 262: -1 e 2 c 128, e 0 c 110;
  b 263: -1 e 0 c 94, e 2 c 111;
  b 264: -1 e 1 c 110, e 3 c 94;
  b 265: -1 e 2 c 126, e 0 c 108;
  b 266: -1 e 1 c 108, e 3 c 109;
  b 267: -1 e 1 c 114, e 3 c 108;
  b 268: -1 e 2 c 124, e 0 c 106;
  b 269: -1 e 1 c 106, e 3 c 107;
  b 270: -1 e 1 c 94, e 3 c 106;
  b 271: -1 e 2 c 123, e 0 c 279;
  b 272: -1 e 2 c 122, e 0 c 105;
  b 273: -1 e 1 c 105, e 1 c 90;
  b 274: -1 e 2 c 121, e 1 c 104;
  b 275: -1 e 2 c 104, e 3 c 105;
  b 276: -1 e 2 c 120, e 1 c 103;
  b 277: -1 e 2 c 103, e 0 c 104;
  b 278: -1 e 2 c 119, e 1 c 102;
  b 279: -1 e 2 c 102, e 0 c 103;
  b 280: -1 e 2 c 118, e 0 c 101;
  b 281: -1 e 1 c 101, e 0 c 102;
  b 282: -1 e 2 c 117, e 1 c 100;
  b 283: -1 e 0 c 280, e 3 c 101;
  b 284: -1 e 2 c 116, e 0 c 99;
  b 285: -1 e 2 c 109, e 0 c 98;
  b 286: -1 e 1 c 98, e 3 c 99;
  b 287: -1 e 2 c 108, e 0 c 97;
  b 288: -1 e 1 c 97, e 3 c 98;
  b 289: -1 e 2 c 114, e 0 c 83;
  b 290: -1 e 1 c 83, e 3 c 97;
  b 291: -1 e 2 c 113, e 0 c 96;
  b 292: -1 e 1 c 96, e 3 c 83;
  b 293: -1 e 2 c 112, e 0 c 95;
  b 294: -1 e 2 c 107, e 0 c 92;
  b 295: -1 e 1 c 92, e 3 c 95;
  b 296: -1 e 2 c 110, e 0 c 93;
  b 297: -1 e 0 c 80, e 2 c 94;
  b 298: -1 e 1 c 93, e 3 c 80;
  b 299: -1 e 2 c 106, e 0 c 91;
  b 300: -1 e 1 c 91, e 3 c 92;
  b 301: -1 e 1 c 80, e 3 c 91;
  b 302: -1 e 2 c 105, e 1 c 89;
  b 303: -1 e 0 c 278, e 0 c 90;
  b 304: -1 e 3 c 104, e 1 c 88;
  b 305: -1 e 2 c 88, e 0 c 89;
  b 306: -1 e 3 c 103, e 1 c 87;
  b 307: -1 e 2 c 87, e 0 c 88;
  b 308: -1 e 3 c 102, e 1 c 86;
  b 309: -1 e 2 c 86, e 0 c 87;
  b 310: -1 e 2 c 101, e 1 c 85;
  b 311: -1 e 0 c 277, e 0 c 86;
  b 312: -1 e 1 c 280, e 0 c 85;
  b 313: -1 e 2 c 99, e 0 c 84;
  b 314: -1 e 2 c 98, e 0 c 77;
  b 315: -1 e 1 c 77, e 3 c 84;
  b 316: -1 e 2 c 96, e 0 c 275;
  b 317: -1 e 0 c 82, e 2 c 83;
  b 318: -1 e 1 c 275, e 3 c 82;
  b 319: -1 e 2 c 95, e 1 c 81;
  b 320: -1 e 2 c 92, e 0 c 75;
  b 321: -1 e 1 c 75, e 0 c 81;
  b 322: -1 e 2 c 93, e 0 c 78;
  b 323: -1 e 0 c 79, e 2 c 80;
  b 324: -1 e 1 c 78, e 3 c 79;
  b 325: -1 e 2 c 97, e 0 c 76;
  b 326: -1 e 1 c 76, e 3 c 77;
  b 327: -1 e 1 c 82, e 3 c 76;
  b 328: -1 e 2 c 91, e 0 c 74;
  b 329: -1 e 1 c 74, e 3 c 75;
  b 330: -1 e 1 c 79, e 3 c 74;
  b 331: -1 e 0 c 274, e 0 c 73;
  b 332: -1 e 2 c 71, e 0 c 72;
  b 333: -1 e 2 c 70, e 0 c 71;
  b 334: -1 e 2 c 69, e 0 c 70;
  b 335: -1 e 2 c 68, e 0 c 69;
  b 336: -1 e 2 c 67, e 0 c 68;
  b 337: -1 e 2 c 66, e 0 c 67;
  b 338: -1 e 0 c 273, e 0 c 66;
  b 339: -1 e 1 c 276, e 0 c 65;
  b 340: -1 e 2 c 84, e 0 c 64;
  b 341: -1 e 2 c 77, e 0 c 63;
  b 342: -1 e 1 c 63, e 3 c 64;
  b 343: -1 e 2 c 76, e 1 c 62;
  b 344: -1 e 0 c 272, e 3 c 63;
  b 345: -1 e 2 c 82, e 0 c 270;
  b 346: -1 e 1 c 270, e 1 c 40;
  b 347: -1 e 2 c 40, e 0 c 62;
  b 348: -1 e 1 c 274, e 1 c 61;
  b 349: -1 e 2 c 61, e 1 c 50;
  b 350: -1 e 3 c 71, e 1 c 60;
  b 351: -1 e 2 c 60, e 0 c 61;
  b 352: -1 e 3 c 70, e 1 c 59;
  b 353: -1 e 2 c 59, e 0 c 60;
  b 354: -1 e 3 c 69, e 1 c 58;
  b 355: -1 e 2 c 58, e 0 c 59;
  b 356: -1 e 3 c 68, e 1 c 57;
  b 357: -1 e 2 c 57, e 0 c 58;
  b 358: -1 e 3 c 67, e 1 c 56;
  b 359: -1 e 2 c 56, e 0 c 57;
  b 360: -1 e 3 c 66, e 1 c 55;
  b 361: -1 e 2 c 55, e 0 c 56;
  b 362: -1 e 1 c 273, e 1 c 54;
  b 363: -1 e 2 c 54, e 0 c 55;
  b 364: -1 e 2 c 75, e 1 c 53;
  b 365: -1 e 0 c 271, e 0 c 54;
  b 366: -1 e 2 c 74, e 0 c 268;
  b 367: -1 e 1 c 52, e 0 c 53;
  b 368: -1 e 1 c 268, e 0 c 52;
  b 369: -1 e 2 c 79, e 0 c 37;
  b 370: -1 e 1 c 37, e 1 c 34;
  b 371: -1 e 2 c 78, e 0 c 51;
  b 372: -1 e 1 c 51, e 3 c 37;
  b 373: -1 e 3 c 61, e 1 c 48;
  b 374: -1 e 0 c 49, e 0 c 50;
  b 375: -1 e 2 c 48, e 3 c 49;
  b 376: -1 e 3 c 60, e 1 c 47;
  b 377: -1 e 2 c 47, e 0 c 48;
  b 378: -1 e 3 c 59, e 1 c 46;
  b 379: -1 e 2 c 46, e 0 c 47;
  b 380: -1 e 3 c 58, e 1 c 45;
  b 381: -1 e 2 c 45, e 0 c 46;
  b 382: -1 e 3 c 57, e 1 c 44;
  b 383: -1 e 2 c 44, e 0 c 45;
  b 384: -1 e 3 c 56, e 1 c 43;
  b 385: -1 e 2 c 43, e 0 c 44;
  b 386: -1 e 3 c 55, e 1 c 42;
  b 387: -1 e 2 c 42, e 0 c 43;
  b 388: -1 e 3 c 54, e 1 c 41;
  b 389: -1 e 2 c 41, e 0 c 42;
  b 390: -1 e 1 c 271, e 0 c 38;
  b 391: -1 e 1 c 38, e 0 c 41;
  b 392: -1 e 1 c 39, e 0 c 40;
  b 393: -1 e 1 c 49, e 0 c 39;
  b 394: -1 e 2 c 52, e 1 c 30;
  b 395: -1 e 2 c 30, e 3 c 38;
  b 396: -1 e 2 c 51, e 1 c 35;
  b 397: -1 e 0 c 36, e 2 c 37;
  b 398: -1 e 0 c 269, e 3 c 36;
  b 399: -1 e 2 c 64, e 0 c 263;
  b 400: -1 e 2 c 63, e 0 c 32;
  b 401: -1 e 1 c 32, e 1 c 17;
  b 402: -1 e 1 c 33, e 0 c 34;
  b 403: -1 e 1 c 36, e 0 c 33;
  b 404: -1 e 1 c 272, e 1 c 31;
  b 405: -1 e 0 c 266, e 3 c 32;
  b 406: -1 e 2 c 39, e 1 c 28;
  b 407: -1 e 0 c 264, e 0 c 31;
  b 408: -1 e 1 c 29, e 0 c 30;
  b 409: -1 e 0 c 267, e 0 c 29;
  b 410: -1 e 2 c 49, e 0 c 27;
  b 411: -1 e 1 c 27, e 0 c 28;
  b 412: -1 e 3 c 48, e 1 c 26;
  b 413: -1 e 2 c 26, e 3 c 27;
  b 414: -1 e 3 c 47, e 1 c 25;
  b 415: -1 e 2 c 25, e 0 c 26;
  b 416: -1 e 3 c 46, e 1 c 24;
  b 417: -1 e 2 c 24, e 0 c 25;
  b 418: -1 e 3 c 45, e 1 c 23;
  b 419: -1 e 2 c 23, e 0 c 24;
  b 420: -1 e 3 c 44, e 1 c 22;
  b 421: -1 e 2 c 22, e 0 c 23;
  b 422: -1 e 3 c 43, e 1 c 21;
  b 423: -1 e 2 c 21, e 0 c 22;
  b 424: -1 e 3 c 42, e 1 c 20;
  b 425: -1 e 2 c 20, e 0 c 21;
  b 426: -1 e 3 c 41, e 1 c 19;
  b 427: -1 e 2 c 19, e 0 c 20;
  b 428: -1 e 2 c 38, e 0 c 18;
  b 429: -1 e 1 c 18, e 0 c 19;
  b 430: -1 e 0 c 265, e 3 c 18;
  b 431: -1 e 2 c 32, e 1 c 16;
  b 432: -1 e 0 c 262, e 0 c 17;
  b 433: -1 e 1 c 266, e 0 c 15;
  b 434: -1 e 1 c 15, e 0 c 16;
  b 435: -1 e 1 c 264, e 1 c 14;
  b 436: -1 e 2 c 14, e 3 c 15;
  b 437: -1 e 2 c 27, e 1 c 13;
  b 438: -1 e 2 c 13, e 0 c 14;
  b 439: -1 e 3 c 26, e 1 c 12;
  b 440: -1 e 2 c 12, e 0 c 13;
  b 441: -1 e 3 c 25, e 1 c 11;
  b 442: -1 e 2 c 11, e 0 c 12;
  b 443: -1 e 3 c 24, e 1 c 10;
  b 444: -1 e 2 c 10, e 0 c 11;
  b 445: -1 e 3 c 23, e 1 c 9;
  b 446: -1 e 2 c 9, e 0 c 10;
  b 447: -1 e 3 c 22, e 1 c 8;
  b 448: -1 e 2 c 8, e 0 c 9;
  b 449: -1 e 3 c 21, e 1 c 7;
  b 450: -1 e 2 c 7, e 0 c 8;
  b 451: -1 e 3 c 20, e 1 c 6;
  b 452: -1 e 2 c 6, e 0 c 7;
  b 453: -1 e 3 c 19, e 1 c 5;
  b 454: -1 e 2 c 5, e 0 c 6;
  b 455: -1 e 2 c 18, e 1 c 4;
  b 456: -1 e 2 c 4, e 0 c 5;
  b 457: -1 e 1 c 265, e 1 c 3;
  b 458: -1 e 2 c 3, e 0 c 4;
  b 459: -1 e 1 c 267, e 0 c 2;
  b 460: -1 e 1 c 2, e 0 c 3;
  b 461: -1 e 2 c 36, e 1 c 1;
  b 462: -1 e 0 c 261, e 3 c 2;
  b 463: -1 e 1 c 269, e 0 c 1;
  b 464: e 0 c 171;
  b 465: -1 e 2 c 1, e 2 c 261;
  b 466: -1 e 2 c 16, e 2 c 262;
  b 467: -1 e 2 c 17, e 2 c 263;
  b 468: -1 e 2 c 28, e 2 c 264;
  b 469: -1 e 2 c 29, e 2 c 265;
  b 470: -1 e 2 c 31, e 2 c 266;
  b 471: -1 e 2 c 33, e 2 c 267;
  b 472: -1 e 2 c 34, e 2 c 268;
  b 473: -1 e 2 c 35, e 2 c 269;
  b 474: -1 e 2 c 50, e 2 c 270;
  b 475: -1 e 2 c 53, e 2 c 271;
  b 476: -1 e 2 c 62, e 2 c 272;
  b 477: -1 e 2 c 65, e 2 c 273;
  b 478: -1 e 2 c 72, e 2 c 274;
  b 479: -1 e 2 c 73, e 2 c 275;
  b 480: -1 e 2 c 81, e 2 c 276;
  b 481: -1 e 2 c 85, e 2 c 277;
  b 482: -1 e 2 c 89, e 2 c 278;
  b 483: -1 e 2 c 90, e 2 c 279;
  b 484: -1 e 2 c 100, e 2 c 280;
  b 485: -1 e 2 c 176, e 2 c 281;
  b 486: -1 e 2 c 179, e 2 c 282;
  b 487: -1 e 2 c 180, e 2 c 283;
  b 488: -1 e 2 c 181, e 2 c 284;
  b 489: -1 e 2 c 189, e 2 c 285;
  b 490: -1 e 2 c 190, e 2 c 286;
  b 491: -1 e 2 c 192, e 2 c 287;
  b 492: -1 e 2 c 193, e 2 c 288;
  b 493: -1 e 2 c 194, e 2 c 289;
  b 494: -1 e 2 c 195, e 2 c 290;
  b 495: -1 e 2 c 196, e 2 c 291;
  b 496: -1 e 2 c 197, e 2 c 292;
  b 497: -1 e 2 c 198, e 2 c 293;
  b 498: -1 e 2 c 199, e 2 c 294;
  b 499: -1 e 2 c 200, e 2 c 295;
  b 500: -1 e 2 c 201, e 2 c 296;
  b 501: -1 e 2 c 202, e 2 c 297;
  b 502: -1 e 2 c 203, e 2 c 298;
  b 503: -1 e 2 c 204, e 2 c 299;
  b 504: -1 e 2 c 205, e 2 c 300;
  b 505: -1 e 2 c 206, e 2 c 301;
  b 506: -1 e 2 c 207, e 2 c 302;
  b 507: -1 e 2 c 217, e 2 c 303;
  b 508: -1 e 2 c 218, e 2 c 304;
  b 509: -1 e 2 c 221, e 2 c 305;
  b 510: -1 e 2 c 223, e 2 c 306;
  b 511: -1 e 2 c 227, e 2 c 307;
  b 512: -1 e 2 c 229, e 2 c 308;
  b 513: -1 e 2 c 230, e 2 c 309;
  b 514: -1 e 2 c 231, e 2 c 310;
  b 515: -1 e 2 c 236, e 2 c 311;
  b 516: -1 e 2 c 237, e 2 c 312;
  b 517: -1 e 2 c 242, e 2 c 313;
  b 518: -1 e 2 c 243, e 2 c 314;
  b 519: -1 e 2 c 244, e 2 c 315;
  b 520: -1 e 2 c 260, e 2 c 316;
;
PdefRA 1 {
GdefRA 1 /Zd 1 {50 0} {
  Prt 1 : CrefRA 1 { 171 };
}
}
end_momMdl;
end_ckt proj;
