beg_ckt proj :
beg_layout :
  Units: m;
  EgsUnits: mm;
  Resolution: 2.5e-008 units;
  EgsResolution: 0.0001 egsunits;
end_layout;
beg_momMdl :
Mesh: 
  Freq: 2.6; 
  Cd: 0.005; 
  CpWl: 20; 
  Extraction: 1; 
  Expansion: 0; 
;
NdefIA 113: 
  p 1: 0.00222710052909129 -0.05665 0.001524,
  p 2: 0.00452289947090871 -0.05665 0.001524,
  p 3: 0.00222710052909129 -0.05765 0.001524,
  p 4: 0.00452289947090871 -0.05765 0.001524,
  p 5: -0.00717429982363624 -0.05665 0.001524,
  p 6: -0.00417254938272683 -0.05665 0.001524,
  p 7: -0.00717429982363624 -0.05765 0.001524,
  p 8: -0.00417254938272683 -0.05765 0.001524,
  p 9: -0.00717429982363624 -0.02515 0.001524,
  p 10: -0.00407570017636376 -0.02515 0.001524,
  p 11: -0.00717429982363624 -0.02615 0.001524,
  p 12: -0.00407570017636376 -0.02615 0.001524,
  p 13: -0.00117079894181743 -0.05665 0.001524,
  p 14: -0.00117079894181743 -0.05765 0.001524,
  p 15: 0.00792079894181743 -0.05665 0.001524,
  p 16: 0.0109225493827268 -0.05665 0.001524,
  p 17: 0.00792079894181743 -0.05765 0.001524,
  p 18: 0.0109225493827268 -0.05765 0.001524,
  p 19: 0.005 -0.02515 0.001524,
  p 20: 0.01 -0.02515 0.001524,
  p 21: 0.005 -0.02615 0.001524,
  p 22: 0.01 -0.02615 0.001524,
  p 23: -0.000977100529091288 -0.02515 0.001524,
  p 24: -0.000977100529091288 -0.02615 0.001524,
  p 25: 0.0139242998236362 -0.05665 0.001524,
  p 26: 0.0139242998236362 -0.05765 0.001524,
  p 27: 0.015 -0.02515 0.001524,
  p 28: 0.015 -0.02615 0.001524,
  p 29: 0.018625 -0.0519492998236362 0.001524,
  p 30: 0.019625 -0.0519492998236362 0.001524,
  p 31: 0.018625 -0.05665 0.001524,
  p 32: 0.019625 -0.05765 0.001524,
  p 33: 0.018625 -0.0488507001763638 0.001524,
  p 34: 0.019625 -0.0488507001763638 0.001524,
  p 35: 0.018625 -0.0457521005290913 0.001524,
  p 36: 0.019625 -0.0457521005290913 0.001524,
  p 37: 0.018625 -0.04 0.001524,
  p 38: 0.019625 -0.04 0.001524,
  p 39: 0.018625 -0.035 0.001524,
  p 40: 0.019625 -0.035 0.001524,
  p 41: 0.018625 -0.03 0.001524,
  p 42: 0.019625 -0.03 0.001524,
  p 43: 0.018625 -0.02615 0.001524,
  p 44: 0.019625 -0.02515 0.001524,
  p 45: -0.012875 -0.0519492998236362 0.001524,
  p 46: -0.011875 -0.0519492998236362 0.001524,
  p 47: -0.012875 -0.05765 0.001524,
  p 48: -0.011875 -0.05665 0.001524,
  p 49: -0.012875 -0.0489475493827268 0.001524,
  p 50: -0.011875 -0.0489475493827268 0.001524,
  p 51: -0.012875 -0.0459457989418174 0.001524,
  p 52: -0.011875 -0.0459457989418174 0.001524,
  p 53: -0.012875 -0.0425478994709087 0.001524,
  p 54: -0.011875 -0.0425478994709087 0.001524,
  p 55: -0.012875 -0.0402521005290913 0.001524,
  p 56: -0.011875 -0.0402521005290913 0.001524,
  p 57: -0.012875 -0.0368542010581826 0.001524,
  p 58: -0.011875 -0.0368542010581826 0.001524,
  p 59: -0.012875 -0.0338524506172732 0.001524,
  p 60: -0.011875 -0.0338524506172732 0.001524,
  p 61: -0.012875 -0.0308507001763638 0.001524,
  p 62: -0.011875 -0.0308507001763638 0.001524,
  p 63: -0.012875 -0.02515 0.001524,
  p 64: -0.011875 -0.02615 0.001524,
  p 65: -0.0107728994709087 -0.0402521005290913 0.001524,
  p 66: -0.00847710052909129 -0.0402521005290913 0.001524,
  p 67: -0.0107728994709087 -0.0425478994709087 0.001524,
  p 68: -0.00847710052909129 -0.0425478994709087 0.001524,
  p 69: 0.00222710052909129 -0.0532521005290913 0.001524,
  p 70: 0.00452289947090871 -0.0532521005290913 0.001524,
  p 71: 0.00222710052909129 -0.0555478994709087 0.001524,
  p 72: 0.00452289947090871 -0.0555478994709087 0.001524,
  p 73: -0.00847710052909129 -0.0459457989418174 0.001524,
  p 74: -0.00760856672545459 -0.0489475493827268 0.001524,
  p 75: 0.0109225493827268 -0.0523835667254546 0.001524,
  p 76: 0.0139242998236362 -0.0519492998236362 0.001524,
  p 77: -0.00847710052909129 -0.0368542010581826 0.001524,
  p 78: -0.00717429982363624 -0.0519492998236362 0.001524,
  p 79: -0.00417254938272683 -0.0523835667254546 0.001524,
  p 80: -0.00490903350969709 -0.0471918771311106 0.001524,
  p 81: -0.00247359964727247 -0.0495989497354544 0.001524,
  p 82: -0.005 -0.045 0.001524,
  p 83: -0.00347710052909129 -0.0457521005290913 0.001524,
  p 84: -0.005 -0.04 0.001524,
  p 85: -0.00717429982363624 -0.0308507001763638 0.001524,
  p 86: -0.00407570017636376 -0.0308507001763638 0.001524,
  p 87: -0.00760856672545459 -0.0338524506172732 0.001524,
  p 88: -0.00377640035272753 -0.0355514003527275 0.001524,
  p 89: -0.00117079894181743 -0.0532521005290913 0.001524,
  p 90: 0 -0.05 0.001524,
  p 91: -0.000977100529091288 -0.0482521005290913 0.001524,
  p 92: 0 -0.045 0.001524,
  p 93: -0.000977100529091288 -0.03115 0.001524,
  p 94: 0 -0.03 0.001524,
  p 95: 0 -0.035 0.001524,
  p 96: 0.005 -0.05 0.001524,
  p 97: 0.00922359964727248 -0.0485514003527275 0.001524,
  p 98: 0.00792079894181743 -0.0532521005290913 0.001524,
  p 99: 0.005 -0.045 0.001524,
  p 100: 0.01 -0.045 0.001524,
  p 101: 0.005 -0.04 0.001524,
  p 102: 0.01 -0.04 0.001524,
  p 103: 0.005 -0.035 0.001524,
  p 104: 0.01 -0.035 0.001524,
  p 105: 0.005 -0.03 0.001524,
  p 106: 0.01 -0.03 0.001524,
  p 107: 0.013625 -0.0457521005290913 0.001524,
  p 108: 0.015 -0.045 0.001524,
  p 109: 0.0139242998236362 -0.0488507001763638 0.001524,
  p 110: 0.015 -0.04 0.001524,
  p 111: 0 -0.04 0.001524,
  p 112: 0.015 -0.035 0.001524,
  p 113: 0.015 -0.03 0.001524;
EdefIA 257: 
  s 1: 1 2,
  s 2: 3 1,
  s 3: 3 4,
  s 4: 4 2,
  s 5: 5 6,
  s 6: 7 5,
  s 7: 7 8,
  s 8: 8 6,
  s 9: 9 10,
  s 10: 11 9,
  s 11: 11 12,
  s 12: 12 10,
  s 13: 13 1,
  s 14: 14 13,
  s 15: 14 3,
  s 16: 15 16,
  s 17: 17 15,
  s 18: 17 18,
  s 19: 18 16,
  s 20: 19 20,
  s 21: 21 19,
  s 22: 21 22,
  s 23: 22 20,
  s 24: 6 13,
  s 25: 8 14,
  s 26: 10 23,
  s 27: 12 24,
  s 28: 24 23,
  s 29: 16 25,
  s 30: 18 26,
  s 31: 26 25,
  s 32: 20 27,
  s 33: 22 28,
  s 34: 28 27,
  s 35: 29 30,
  s 36: 31 29,
  s 37: 31 32,
  s 38: 32 30,
  s 39: 33 34,
  s 40: 29 33,
  s 41: 30 34,
  s 42: 35 36,
  s 43: 33 35,
  s 44: 34 36,
  s 45: 37 38,
  s 46: 35 37,
  s 47: 36 38,
  s 48: 39 40,
  s 49: 37 39,
  s 50: 38 40,
  s 51: 41 42,
  s 52: 39 41,
  s 53: 40 42,
  s 54: 43 44,
  s 55: 41 43,
  s 56: 42 44,
  s 57: 45 46,
  s 58: 47 45,
  s 59: 47 48,
  s 60: 48 46,
  s 61: 49 50,
  s 62: 45 49,
  s 63: 46 50,
  s 64: 51 52,
  s 65: 49 51,
  s 66: 50 52,
  s 67: 53 54,
  s 68: 51 53,
  s 69: 52 54,
  s 70: 55 56,
  s 71: 53 55,
  s 72: 54 56,
  s 73: 57 58,
  s 74: 55 57,
  s 75: 56 58,
  s 76: 59 60,
  s 77: 57 59,
  s 78: 58 60,
  s 79: 61 62,
  s 80: 59 61,
  s 81: 60 62,
  s 82: 61 63,
  s 83: 62 64,
  s 84: 63 64,
  s 85: 2 15,
  s 86: 4 17,
  s 87: 23 19,
  s 88: 24 21,
  s 89: 48 5,
  s 90: 47 7,
  s 91: 64 11,
  s 92: 63 9,
  s 93: 26 32,
  s 94: 25 31,
  s 95: 27 44,
  s 96: 28 43,
  s 97: 65 66,
  s 98: 67 65,
  s 99: 67 68,
  s 100: 68 66,
  s 101: 69 70,
  s 102: 71 69,
  s 103: 71 72,
  s 104: 72 70,
  s 105: 52 67,
  s 106: 52 73,
  s 107: 73 68,
  s 108: 50 74,
  s 109: 73 74,
  s 110: 75 76,
  s 111: 16 75,
  s 112: 76 25,
  s 113: 54 67,
  s 114: 56 65,
  s 115: 58 65,
  s 116: 58 77,
  s 117: 66 77,
  s 118: 78 79,
  s 119: 5 78,
  s 120: 6 79,
  s 121: 74 79,
  s 122: 74 78,
  s 123: 74 80,
  s 124: 79 81,
  s 125: 80 81,
  s 126: 82 83,
  s 127: 82 80,
  s 128: 80 83,
  s 129: 84 83,
  s 130: 82 84,
  s 131: 13 71,
  s 132: 1 71,
  s 133: 85 86,
  s 134: 87 85,
  s 135: 87 88,
  s 136: 86 88,
  s 137: 11 85,
  s 138: 12 86,
  s 139: 72 15,
  s 140: 2 72,
  s 141: 89 69,
  s 142: 13 89,
  s 143: 89 90,
  s 144: 90 69,
  s 145: 91 92,
  s 146: 91 90,
  s 147: 90 92,
  s 148: 93 94,
  s 149: 93 95,
  s 150: 95 94,
  s 151: 96 97,
  s 152: 96 98,
  s 153: 98 75,
  s 154: 97 75,
  s 155: 99 100,
  s 156: 96 99,
  s 157: 97 100,
  s 158: 101 102,
  s 159: 99 101,
  s 160: 100 102,
  s 161: 103 104,
  s 162: 101 103,
  s 163: 102 104,
  s 164: 105 106,
  s 165: 103 105,
  s 166: 104 106,
  s 167: 105 21,
  s 168: 106 22,
  s 169: 107 108,
  s 170: 107 109,
  s 171: 109 108,
  s 172: 107 110,
  s 173: 108 110,
  s 174: 46 78,
  s 175: 73 82,
  s 176: 68 82,
  s 177: 66 84,
  s 178: 77 84,
  s 179: 77 87,
  s 180: 84 88,
  s 181: 60 87,
  s 182: 62 85,
  s 183: 70 98,
  s 184: 15 98,
  s 185: 70 96,
  s 186: 90 96,
  s 187: 92 99,
  s 188: 111 101,
  s 189: 92 111,
  s 190: 95 103,
  s 191: 111 95,
  s 192: 94 105,
  s 193: 24 94,
  s 194: 76 29,
  s 195: 109 33,
  s 196: 76 109,
  s 197: 108 35,
  s 198: 110 37,
  s 199: 112 39,
  s 200: 110 112,
  s 201: 113 41,
  s 202: 112 113,
  s 203: 113 28,
  s 204: 79 89,
  s 205: 81 90,
  s 206: 81 91,
  s 207: 83 91,
  s 208: 83 92,
  s 209: 84 111,
  s 210: 88 95,
  s 211: 86 93,
  s 212: 86 94,
  s 213: 97 109,
  s 214: 100 107,
  s 215: 102 110,
  s 216: 104 112,
  s 217: 106 113,
  s 218: 30 31,
  s 219: 44 41,
  s 220: 46 47,
  s 221: 63 62,
  s 222: 5 47,
  s 223: 63 11,
  s 224: 25 32,
  s 225: 44 28,
  s 226: 68 52,
  s 227: 73 50,
  s 228: 76 16,
  s 229: 77 65,
  s 230: 79 5,
  s 231: 80 79,
  s 232: 86 87,
  s 233: 69 13,
  s 234: 97 98,
  s 235: 100 96,
  s 236: 74 46,
  s 237: 82 74,
  s 238: 84 68,
  s 239: 87 84,
  s 240: 87 58,
  s 241: 85 60,
  s 242: 98 72,
  s 243: 96 69,
  s 244: 24 105,
  s 245: 35 109,
  s 246: 37 108,
  s 247: 89 6,
  s 248: 90 79,
  s 249: 91 80,
  s 250: 111 83,
  s 251: 95 84,
  s 252: 93 88,
  s 253: 12 94,
  s 254: 75 15,
  s 255: 109 75,
  s 256: 107 97,
  s 257: 110 100;
CdefIA 145: 
  c 1: -2 3 4 -1,
  c 2: -6 7 8 -5,
  c 3: -10 11 12 -9,
  c 4: -14 15 2 -13,
  c 5: -17 18 19 -16,
  c 6: -21 22 23 -20,
  c 7: -8 25 14 -24,
  c 8: -12 27 28 -26,
  c 9: -19 30 31 -29,
  c 10: -23 33 34 -32,
  c 11: -35 -36 -218,
  c 12: -39 -40 35 41,
  c 13: -42 -43 39 44,
  c 14: -46 42 47 -45,
  c 15: -48 -49 45 50,
  c 16: -51 -52 48 53,
  c 17: -54 -55 -219,
  c 18: -57 -58 -220,
  c 19: -61 -62 57 63,
  c 20: -64 -65 61 66,
  c 21: -68 64 69 -67,
  c 22: -71 67 72 -70,
  c 23: -74 70 75 -73,
  c 24: -76 -77 73 78,
  c 25: -79 -80 76 81,
  c 26: -82 79 -221,
  c 27: -4 86 17 -85,
  c 28: -28 88 21 -87,
  c 29: -89 -59 -222,
  c 30: 84 91 -223,
  c 31: -31 93 -224,
  c 32: -95 -34 -225,
  c 33: -98 99 100 -97,
  c 34: -102 103 104 -101,
  c 35: -99 -105 -226,
  c 36: -106 -66 -227,
  c 37: -110 -111 -228,
  c 38: -113 -69 105,
  c 39: -72 113 98 -114,
  c 40: -115 -75 114,
  c 41: -116 115 -229,
  c 42: -118 -119 -230,
  c 43: -121 122 118,
  c 44: -123 121 -231,
  c 45: -126 127 128,
  c 46: -129 -130 126,
  c 47: -131 13 132,
  c 48: -133 -134 -232,
  c 49: 137 133 -138 -11,
  c 50: -139 -140 85,
  c 51: -141 -142 -233,
  c 52: -143 141 -144,
  c 53: -145 146 147,
  c 54: -148 149 150,
  c 55: -132 1 140 -103,
  c 56: -151 152 -234,
  c 57: -155 -156 -235,
  c 58: -158 -159 155 160,
  c 59: -161 -162 158 163,
  c 60: -164 -165 161 166,
  c 61: -167 164 168 -22,
  c 62: -169 170 171,
  c 63: -172 169 173,
  c 64: -60 89 119 -174,
  c 65: -108 -63 -236,
  c 66: -175 109 -237,
  c 67: -176 -107 175,
  c 68: -177 -100 -238,
  c 69: -178 -117 177,
  c 70: -179 178 -239,
  c 71: -181 -78 -240,
  c 72: -182 -81 -241,
  c 73: -83 182 -137 -91,
  c 74: -183 -104 -242,
  c 75: -185 183 -152,
  c 76: -186 144 -243,
  c 77: -187 -147 186 156,
  c 78: -188 -189 187 159,
  c 79: -190 -191 188 162,
  c 80: -192 -150 190 165,
  c 81: 193 192 -244,
  c 82: 112 94 36 -194,
  c 83: -196 194 40 -195,
  c 84: -197 -171 -245,
  c 85: -198 -173 -246,
  c 86: -199 -200 198 49,
  c 87: -201 -202 199 52,
  c 88: -203 201 55 -96,
  c 89: -204 -120 -247,
  c 90: -205 -124 -248,
  c 91: -206 205 -146,
  c 92: -207 -128 -249,
  c 93: -208 207 145,
  c 94: -209 129 -250,
  c 95: -210 -180 -251,
  c 96: -211 136 -252,
  c 97: -212 211 148,
  c 98: 138 212 -253,
  c 99: -153 -184 -254,
  c 100: -213 154 -255,
  c 101: -214 -157 -256,
  c 102: -215 -160 -257,
  c 103: -216 -163 215 200,
  c 104: -217 -166 216 202,
  c 105: -168 217 203 -33,
  c 106: 37 38 218,
  c 107: 51 56 219,
  c 108: 59 60 220,
  c 109: 83 -84 221,
  c 110: 90 6 222,
  c 111: 10 -92 223,
  c 112: -37 -94 224,
  c 113: 96 54 225,
  c 114: 106 107 226,
  c 115: 108 -109 227,
  c 116: 29 -112 228,
  c 117: 97 117 229,
  c 118: 5 120 230,
  c 119: 124 -125 231,
  c 120: 135 -136 232,
  c 121: 131 102 233,
  c 122: 153 -154 234,
  c 123: 151 157 235,
  c 124: 174 -122 236,
  c 125: 123 -127 237,
  c 126: 176 130 238,
  c 127: 180 -135 239,
  c 128: 116 179 240,
  c 129: 181 134 241,
  c 130: 139 184 242,
  c 131: 101 185 243,
  c 132: 167 -88 244,
  c 133: 195 43 245,
  c 134: 197 46 246,
  c 135: 24 142 247,
  c 136: 204 143 248,
  c 137: 125 206 249,
  c 138: 208 189 250,
  c 139: 209 191 251,
  c 140: 210 -149 252,
  c 141: -193 -27 253,
  c 142: 16 111 254,
  c 143: 110 196 255,
  c 144: 213 -170 256,
  c 145: 214 172 257;
beg_Xinfo :
beg_layer /1:
  Mask: 1;
  Type: metal;
  Level: 0;
  Plane: z = 0.001524;
  Fill: condthickness 58000000 3.5e-005 M precedence 0;
  CrefRA 145 { 
  1 4 7 2 29 110 64 18 108 19 65 124 36 115
  35 114 33 39 22 21 20 38 23 40 41 117
  71 128 72 129 73 26 109 25 24 30 111 3 49 48 120
  70 127 69 68 126 67 66 125 44 119 43 42 118 89 135 90 136
  91 92 137 93 94 138 95 139 96 140 97 98 141 81 132 80
  54 79 78 77 53 76 131 52 51 121 47 55
  50 74 130 75 56 122 57 123 58 102 145 103 59 60
  104 87 86 85 134 63 62 101 144 100 143 37 116 99 142
  5 27 9 31 112 11 106 12 83 82 84 133 13
  14 15 16 17 107 32 113 10 6 28 8 61
  105 88 34 46 45 }
  RGrid 0.005,0.003625 -1.5707963267949 1: 
  0.015,-0.03 2,1 2:
    0,0 c 87, 1,0 c 86;
  RGrid 0.005,0.00385 0 1: 
  0.005,-0.03 2,1 2:
    0,0 c 61, 1,0 c 105;
  RGrid 0.005,0.005 -1.5707963267949 1: 
  0,-0.03 4,3 9:
    2,1 c 58, 1,1 c 59, 0,1 c 60, 1,0 c 79, 0,0 c 80, 
    2,0 c 78, 3,0 c 77, 0,2 c 104, 1,2 c 103;
  RGrid 0.00300175044090941,0.001 0 1: 
  0.00792079894181743,-0.05765 2,1 2:
    0,0 c 5, 1,0 c 9;
  RGrid 0.0030017504409094,0.001 0 1: 
  -0.00717429982363624,-0.05765 2,1 2:
    0,0 c 2, 1,0 c 7;
  RGrid 0.00300175044090941,0.001 -1.5707963267949 1: 
  -0.012875,-0.0308507001763638 2,1 2:
    1,0 c 24, 0,0 c 25;
  RGrid 0.005,0.001 0 1: 
  0.005,-0.02615 2,1 2:
    0,0 c 6, 1,0 c 10;
  RGrid 0.00309859964727247,0.001 0 1: 
  -0.00717429982363624,-0.02615 2,1 2:
    0,0 c 3, 1,0 c 8;
  RGrid 0.005,0.000999999999999997 -1.5707963267949 1: 
  0.018625,-0.03 2,1 2:
    1,0 c 15, 0,0 c 16;
  RGrid 0.00309859964727248,0.000999999999999997 -1.5707963267949 1: 
  0.018625,-0.0457521005290912 2,1 2:
    1,0 c 12, 0,0 c 13;
  RGrid 0.00300175044090941,0.001 -1.5707963267949 1: 
  -0.012875,-0.0459457989418174 2,1 2:
    0,0 c 20, 1,0 c 19;
end_layer /1;
end_Xinfo;
Overlap: 
  ErefRA 80 { 
  1 3 5 7 9 11 13 15 16 18
  20 22 24 25 26 27 29 30 32 33
  36 38 40 41 43 44 46 47 49 50
  52 53 55 56 58 60 62 63 65 66
  68 69 71 72 74 75 77 78 80 81
  82 83 85 86 87 88 89 90 91 92
  93 94 95 96 97 98 99 100 101 102
  103 104 114 113 107 117 141 132 140 185 };
BdefIA 227: 
  b 1: -1 e 1 c 55, e 3 c 1;
  b 2: -1 e 2 c 4, e 0 c 1;
  b 3: -1 e 2 c 1, e 0 c 27;
  b 4: -1 e 0 c 118, e 3 c 2;
  b 5: -1 e 1 c 110, e 0 c 2;
  b 6: -1 e 2 c 2, e 0 c 7;
  b 7: -1 e 0 c 111, e 0 c 3;
  b 8: -1 e 1 c 3, e 3 c 49;
  b 9: -1 e 2 c 3, e 0 c 8;
  b 10: -1 e 1 c 47, e 3 c 4;
  b 11: -1 e 2 c 7, e 0 c 4;
  b 12: -1 e 0 c 142, e 3 c 5;
  b 13: -1 e 2 c 27, e 0 c 5;
  b 14: -1 e 2 c 5, e 0 c 9;
  b 15: -1 e 2 c 28, e 0 c 6;
  b 16: -1 e 1 c 6, e 3 c 61;
  b 17: -1 e 2 c 6, e 0 c 10;
  b 18: -1 e 0 c 135, e 3 c 7;
  b 19: -1 e 1 c 8, e 1 c 141;
  b 20: -1 e 2 c 8, e 0 c 28;
  b 21: -1 e 0 c 116, e 3 c 9;
  b 22: -1 e 2 c 9, e 0 c 31;
  b 23: -1 e 1 c 10, e 3 c 105;
  b 24: -1 e 2 c 10, e 1 c 32;
  b 25: -1 e 2 c 12, e 0 c 11;
  b 26: -1 e 2 c 82, e 1 c 11;
  b 27: -1 e 0 c 106, e 0 c 112;
  b 28: -1 e 2 c 13, e 0 c 12;
  b 29: -1 e 2 c 83, e 1 c 12;
  b 30: -1 e 1 c 14, e 0 c 13;
  b 31: -1 e 1 c 133, e 1 c 13;
  b 32: -1 e 2 c 15, e 3 c 14;
  b 33: -1 e 1 c 134, e 0 c 14;
  b 34: -1 e 2 c 16, e 0 c 15;
  b 35: -1 e 3 c 86, e 1 c 15;
  b 36: -1 e 0 c 107, e 0 c 16;
  b 37: -1 e 3 c 87, e 1 c 16;
  b 38: -1 e 1 c 113, e 0 c 17;
  b 39: -1 e 2 c 88, e 1 c 17;
  b 40: -1 e 2 c 19, e 0 c 18;
  b 41: -1 e 0 c 108, e 1 c 29;
  b 42: -1 e 1 c 108, e 0 c 64;
  b 43: -1 e 2 c 20, e 0 c 19;
  b 44: -1 e 3 c 19, e 1 c 65;
  b 45: -1 e 1 c 21, e 0 c 20;
  b 46: -1 e 3 c 20, e 1 c 36;
  b 47: -1 e 1 c 22, e 3 c 21;
  b 48: -1 e 2 c 21, e 1 c 38;
  b 49: -1 e 1 c 23, e 3 c 22;
  b 50: -1 e 2 c 22, e 0 c 39;
  b 51: -1 e 2 c 24, e 3 c 23;
  b 52: -1 e 2 c 23, e 1 c 40;
  b 53: -1 e 2 c 25, e 0 c 24;
  b 54: -1 e 3 c 24, e 1 c 71;
  b 55: -1 e 1 c 26, e 0 c 25;
  b 56: -1 e 3 c 25, e 1 c 72;
  b 57: -1 e 0 c 109, e 0 c 73;
  b 58: -1 e 0 c 30, e 1 c 109;
  b 59: -1 e 2 c 50, e 3 c 27;
  b 60: -1 e 1 c 28, e 1 c 132;
  b 61: -1 e 1 c 64, e 0 c 29;
  b 62: -1 e 1 c 30, e 3 c 73;
  b 63: -1 e 1 c 82, e 1 c 112;
  b 64: -1 e 0 c 113, e 3 c 88;
  b 65: -1 e 0 c 117, e 3 c 33;
  b 66: -1 e 2 c 39, e 0 c 33;
  b 67: -1 e 1 c 33, e 0 c 35;
  b 68: -1 e 2 c 33, e 1 c 68;
  b 69: -1 e 0 c 131, e 3 c 34;
  b 70: -1 e 1 c 121, e 0 c 34;
  b 71: -1 e 1 c 34, e 3 c 55;
  b 72: -1 e 2 c 34, e 1 c 74;
  b 73: -1 e 2 c 38, e 1 c 35;
  b 74: -1 e 0 c 114, e 0 c 36;
  b 75: -1 e 1 c 114, e 1 c 67;
  b 76: -1 e 0 c 115, e 0 c 65;
  b 77: -1 e 1 c 66, e 1 c 115;
  b 78: -1 e 0 c 143, e 0 c 37;
  b 79: -1 e 1 c 142, e 1 c 37;
  b 80: -1 e 0 c 82, e 1 c 116;
  b 81: -1 e 1 c 39, e 0 c 38;
  b 82: -1 e 2 c 40, e 3 c 39;
  b 83: -1 e 1 c 41, e 0 c 40;
  b 84: -1 e 0 c 128, e 0 c 41;
  b 85: -1 e 1 c 117, e 1 c 69;
  b 86: -1 e 2 c 43, e 0 c 42;
  b 87: -1 e 2 c 64, e 1 c 42;
  b 88: -1 e 1 c 118, e 1 c 89;
  b 89: -1 e 1 c 44, e 0 c 43;
  b 90: -1 e 1 c 43, e 1 c 124;
  b 91: -1 e 0 c 125, e 0 c 44;
  b 92: -1 e 0 c 119, e 1 c 90;
  b 93: -1 e 0 c 137, e 1 c 119;
  b 94: -1 e 2 c 46, e 0 c 45;
  b 95: -1 e 1 c 45, e 1 c 125;
  b 96: -1 e 2 c 45, e 1 c 92;
  b 97: -1 e 1 c 94, e 0 c 46;
  b 98: -1 e 1 c 126, e 1 c 46;
  b 99: -1 e 0 c 121, e 0 c 47;
  b 100: -1 e 2 c 47, e 0 c 55;
  b 101: -1 e 1 c 49, e 0 c 48;
  b 102: -1 e 1 c 129, e 1 c 48;
  b 103: -1 e 0 c 120, e 1 c 127;
  b 104: -1 e 1 c 96, e 1 c 120;
  b 105: -1 e 0 c 49, e 2 c 73;
  b 106: -1 e 0 c 98, e 2 c 49;
  b 107: -1 e 0 c 130, e 0 c 50;
  b 108: -1 e 2 c 55, e 1 c 50;
  b 109: -1 e 1 c 52, e 0 c 51;
  b 110: -1 e 1 c 135, e 1 c 51;
  b 111: -1 e 1 c 136, e 0 c 52;
  b 112: -1 e 1 c 76, e 2 c 52;
  b 113: -1 e 2 c 93, e 0 c 53;
  b 114: -1 e 1 c 53, e 2 c 91;
  b 115: -1 e 2 c 53, e 1 c 77;
  b 116: -1 e 2 c 97, e 0 c 54;
  b 117: -1 e 1 c 54, e 1 c 140;
  b 118: -1 e 2 c 54, e 1 c 80;
  b 119: -1 e 0 c 123, e 0 c 56;
  b 120: -1 e 1 c 56, e 2 c 75;
  b 121: -1 e 0 c 122, e 0 c 99;
  b 122: -1 e 1 c 100, e 1 c 122;
  b 123: -1 e 2 c 58, e 0 c 57;
  b 124: -1 e 3 c 77, e 1 c 57;
  b 125: -1 e 1 c 123, e 1 c 101;
  b 126: -1 e 2 c 59, e 0 c 58;
  b 127: -1 e 3 c 78, e 1 c 58;
  b 128: -1 e 3 c 58, e 1 c 102;
  b 129: -1 e 2 c 60, e 0 c 59;
  b 130: -1 e 3 c 79, e 1 c 59;
  b 131: -1 e 3 c 59, e 1 c 103;
  b 132: -1 e 1 c 61, e 0 c 60;
  b 133: -1 e 3 c 80, e 1 c 60;
  b 134: -1 e 3 c 60, e 1 c 104;
  b 135: -1 e 0 c 132, e 0 c 61;
  b 136: -1 e 2 c 61, e 0 c 105;
  b 137: -1 e 1 c 63, e 0 c 62;
  b 138: -1 e 1 c 62, e 1 c 144;
  b 139: -1 e 2 c 62, e 1 c 84;
  b 140: -1 e 1 c 145, e 0 c 63;
  b 141: -1 e 2 c 63, e 1 c 85;
  b 142: -1 e 0 c 124, e 3 c 64;
  b 143: -1 e 2 c 67, e 0 c 66;
  b 144: -1 e 0 c 126, e 0 c 67;
  b 145: -1 e 2 c 69, e 0 c 68;
  b 146: -1 e 1 c 70, e 0 c 69;
  b 147: -1 e 1 c 128, e 0 c 70;
  b 148: -1 e 0 c 127, e 1 c 95;
  b 149: -1 e 0 c 129, e 0 c 71;
  b 150: -1 e 1 c 73, e 0 c 72;
  b 151: -1 e 1 c 75, e 0 c 74;
  b 152: -1 e 1 c 130, e 1 c 99;
  b 153: -1 e 1 c 131, e 0 c 75;
  b 154: -1 e 2 c 77, e 0 c 76;
  b 155: -1 e 2 c 78, e 0 c 77;
  b 156: -1 e 2 c 79, e 0 c 78;
  b 157: -1 e 1 c 138, e 1 c 78;
  b 158: -1 e 2 c 80, e 0 c 79;
  b 159: -1 e 1 c 139, e 1 c 79;
  b 160: -1 e 1 c 81, e 0 c 80;
  b 161: -1 e 0 c 81, e 0 c 141;
  b 162: -1 e 1 c 83, e 3 c 82;
  b 163: -1 e 0 c 133, e 3 c 83;
  b 164: -1 e 1 c 143, e 0 c 83;
  b 165: -1 e 0 c 134, e 0 c 84;
  b 166: -1 e 2 c 86, e 0 c 85;
  b 167: -1 e 2 c 87, e 0 c 86;
  b 168: -1 e 3 c 103, e 1 c 86;
  b 169: -1 e 1 c 88, e 0 c 87;
  b 170: -1 e 3 c 104, e 1 c 87;
  b 171: -1 e 2 c 105, e 0 c 88;
  b 172: -1 e 0 c 136, e 0 c 89;
  b 173: -1 e 1 c 91, e 0 c 90;
  b 174: -1 e 1 c 137, e 0 c 91;
  b 175: -1 e 1 c 93, e 0 c 92;
  b 176: -1 e 0 c 138, e 0 c 93;
  b 177: -1 e 0 c 139, e 0 c 94;
  b 178: -1 e 0 c 140, e 0 c 95;
  b 179: -1 e 1 c 97, e 0 c 96;
  b 180: -1 e 1 c 98, e 0 c 97;
  b 181: -1 e 0 c 144, e 0 c 100;
  b 182: -1 e 0 c 145, e 0 c 101;
  b 183: -1 e 2 c 103, e 0 c 102;
  b 184: -1 e 2 c 104, e 0 c 103;
  b 185: -1 e 1 c 105, e 0 c 104;
  b 186: e 0 c 33;
  b 187: e 0 c 34;
  b 188: -1 e 2 c 11, e 2 c 106;
  b 189: -1 e 2 c 17, e 2 c 107;
  b 190: -1 e 2 c 18, e 2 c 108;
  b 191: -1 e 2 c 26, e 2 c 109;
  b 192: -1 e 2 c 29, e 2 c 110;
  b 193: -1 e 2 c 30, e 2 c 111;
  b 194: -1 e 2 c 31, e 2 c 112;
  b 195: -1 e 2 c 32, e 2 c 113;
  b 196: -1 e 2 c 35, e 2 c 114;
  b 197: -1 e 2 c 36, e 2 c 115;
  b 198: -1 e 2 c 37, e 2 c 116;
  b 199: -1 e 2 c 41, e 2 c 117;
  b 200: -1 e 2 c 42, e 2 c 118;
  b 201: -1 e 2 c 44, e 2 c 119;
  b 202: -1 e 2 c 48, e 2 c 120;
  b 203: -1 e 2 c 51, e 2 c 121;
  b 204: -1 e 2 c 56, e 2 c 122;
  b 205: -1 e 2 c 57, e 2 c 123;
  b 206: -1 e 2 c 65, e 2 c 124;
  b 207: -1 e 2 c 66, e 2 c 125;
  b 208: -1 e 2 c 68, e 2 c 126;
  b 209: -1 e 2 c 70, e 2 c 127;
  b 210: -1 e 2 c 71, e 2 c 128;
  b 211: -1 e 2 c 72, e 2 c 129;
  b 212: -1 e 2 c 74, e 2 c 130;
  b 213: -1 e 2 c 76, e 2 c 131;
  b 214: -1 e 2 c 81, e 2 c 132;
  b 215: -1 e 2 c 84, e 2 c 133;
  b 216: -1 e 2 c 85, e 2 c 134;
  b 217: -1 e 2 c 89, e 2 c 135;
  b 218: -1 e 2 c 90, e 2 c 136;
  b 219: -1 e 2 c 92, e 2 c 137;
  b 220: -1 e 2 c 94, e 2 c 138;
  b 221: -1 e 2 c 95, e 2 c 139;
  b 222: -1 e 2 c 96, e 2 c 140;
  b 223: -1 e 2 c 98, e 2 c 141;
  b 224: -1 e 2 c 99, e 2 c 142;
  b 225: -1 e 2 c 100, e 2 c 143;
  b 226: -1 e 2 c 101, e 2 c 144;
  b 227: -1 e 2 c 102, e 2 c 145;
;
PdefRA 2 {
GdefRA 1 /Zd 1 {50 0} {
  Prt 1 : CrefRA 1 { 33 };
}
GdefRA 1 /Zd 1 {50 0} {
  Prt 2 : CrefRA 1 { 34 };
}
}
end_momMdl;
end_ckt proj;
