beg_ckt proj :
beg_layout :
  Units: m;
  EgsUnits: mm;
  Resolution: 2.5e-008 units;
  EgsResolution: 0.0001 egsunits;
end_layout;
beg_momMdl :
Mesh: 
  Freq: 3.5; 
  Cd: 0.003; 
  CpWl: 20; 
  Extraction: 1; 
  Expansion: 0; 
;
NdefIA 193: 
  p 1: 0.0554924966775695 -0.018 0.001524,
  p 2: 0.057 -0.018 0.001524,
  p 3: 0.0566767072038853 -0.0195 0.001524,
  p 4: 0.05335 -0.0169 0.001524,
  p 5: 0.0546240756249379 -0.0169 0.001524,
  p 6: 0.0561240756249379 -0.015 0.001524,
  p 7: 0.0553391928594045 -0.014380355711421 0.001524,
  p 8: 0.0731483480909175 -0.0377082632932498 0.001524,
  p 9: 0.0739332308564509 -0.0383279075818288 0.001524,
  p 10: 0.0752818597721745 -0.036619644288579 0.001524,
  p 11: 0.074496977006641 -0.036 0.001524,
  p 12: 0.0888608071405955 -0.014380355711421 0.001524,
  p 13: 0.09085 -0.0169 0.001524,
  p 14: 0.0880759243750621 -0.015 0.001524,
  p 15: 0.0895759243750621 -0.0169 0.001524,
  p 16: 0.0547076139120361 -0.018619644288579 0.001524,
  p 17: 0.0689181402278255 -0.036619644288579 0.001524,
  p 18: 0.069703022993359 -0.036 0.001524,
  p 19: 0.0702667691371199 -0.0383279075736852 0.001524,
  p 20: 0.0710516519026533 -0.0377082632851061 0.001524,
  p 21: 0.0721 -0.0390361708750786 0.001524,
  p 22: 0.0721 -0.04065 0.001524,
  p 23: 0.0756811875329568 -0.0345 0.001524,
  p 24: 0.0764660702984902 -0.035119644288579 0.001524,
  p 25: 0.077650280824806 -0.033619644288579 0.001524,
  p 26: 0.0768653980592726 -0.033 0.001524,
  p 27: 0.0750496085855884 0.0015 0.001524,
  p 28: 0.0758344913511218 0.00211964428857901 0.001524,
  p 29: 0.074650280824806 0.00361964428857901 0.001524,
  p 30: 0.0738653980592726 0.003 0.001524,
  p 31: 0.0780496085855884 -0.0315 0.001524,
  p 32: 0.0788344913511218 -0.032119644288579 0.001524,
  p 33: 0.0800187018774376 -0.030619644288579 0.001524,
  p 34: 0.0792338191119042 -0.03 0.001524,
  p 35: 0.07741802963822 -0.0015 0.001524,
  p 36: 0.0782029124037534 -0.000880355711420985 0.001524,
  p 37: 0.0770187018774376 0.000619644288579015 0.001524,
  p 38: 0.0762338191119042 0 0.001524,
  p 39: 0.08041802963822 -0.0285 0.001524,
  p 40: 0.0812029124037534 -0.029119644288579 0.001524,
  p 41: 0.0823871229300692 -0.027619644288579 0.001524,
  p 42: 0.0816022401645358 -0.027 0.001524,
  p 43: 0.0797864506908516 -0.0045 0.001524,
  p 44: 0.080571333456385 -0.00388035571142098 0.001524,
  p 45: 0.0793871229300692 -0.00238035571142098 0.001524,
  p 46: 0.0786022401645358 -0.003 0.001524,
  p 47: 0.0827864506908516 -0.0255 0.001524,
  p 48: 0.083571333456385 -0.026119644288579 0.001524,
  p 49: 0.0847555439827008 -0.024619644288579 0.001524,
  p 50: 0.0839706612171673 -0.024 0.001524,
  p 51: 0.0821548717434831 -0.0075 0.001524,
  p 52: 0.0829397545090166 -0.00688035571142098 0.001524,
  p 53: 0.0817555439827008 -0.00538035571142098 0.001524,
  p 54: 0.0809706612171674 -0.006 0.001524,
  p 55: 0.0851548717434831 -0.0225 0.001524,
  p 56: 0.0859397545090166 -0.023119644288579 0.001524,
  p 57: 0.0871239650353323 -0.021619644288579 0.001524,
  p 58: 0.0863390822697989 -0.021 0.001524,
  p 59: 0.0845232927961147 -0.0105 0.001524,
  p 60: 0.0853081755616481 -0.00988035571142099 0.001524,
  p 61: 0.0841239650353323 -0.00838035571142098 0.001524,
  p 62: 0.0833390822697989 -0.009 0.001524,
  p 63: 0.0875232927961147 -0.0195 0.001524,
  p 64: 0.0883081755616481 -0.020119644288579 0.001524,
  p 65: 0.0894923860879639 -0.018619644288579 0.001524,
  p 66: 0.0887075033224305 -0.018 0.001524,
  p 67: 0.0868917138487463 -0.0135 0.001524,
  p 68: 0.0876765966142797 -0.012880355711421 0.001524,
  p 69: 0.0864923860879639 -0.011380355711421 0.001524,
  p 70: 0.0857075033224305 -0.012 0.001524,
  p 71: 0.0558918244383519 -0.020119644288579 0.001524,
  p 72: 0.0570760349646676 -0.021619644288579 0.001524,
  p 73: 0.0578609177302011 -0.021 0.001524,
  p 74: 0.0565234033857203 -0.012880355711421 0.001524,
  p 75: 0.0573082861512537 -0.0135 0.001524,
  p 76: 0.0577076139120361 -0.011380355711421 0.001524,
  p 77: 0.0584924966775695 -0.012 0.001524,
  p 78: 0.060628666543615 -0.026119644288579 0.001524,
  p 79: 0.0614135493091484 -0.0255 0.001524,
  p 80: 0.0618128770699308 -0.027619644288579 0.001524,
  p 81: 0.0625977598354642 -0.027 0.001524,
  p 82: 0.0594444560172992 -0.024619644288579 0.001524,
  p 83: 0.0602293387828327 -0.024 0.001524,
  p 84: 0.0612602454909834 -0.00688035571142098 0.001524,
  p 85: 0.0620451282565169 -0.0075 0.001524,
  p 86: 0.0600760349646676 -0.00838035571142098 0.001524,
  p 87: 0.0608609177302011 -0.009 0.001524,
  p 88: 0.0624444560172992 -0.00538035571142097 0.001524,
  p 89: 0.0632293387828327 -0.006 0.001524,
  p 90: 0.0653655086488782 -0.032119644288579 0.001524,
  p 91: 0.0661503914144116 -0.0315 0.001524,
  p 92: 0.066549719175194 -0.033619644288579 0.001524,
  p 93: 0.0673346019407274 -0.033 0.001524,
  p 94: 0.0641812981225624 -0.030619644288579 0.001524,
  p 95: 0.0649661808880958 -0.03 0.001524,
  p 96: 0.0659970875962466 -0.000880355711420975 0.001524,
  p 97: 0.06678197036178 -0.0015 0.001524,
  p 98: 0.0648128770699308 -0.00238035571142097 0.001524,
  p 99: 0.0655977598354642 -0.003 0.001524,
  p 100: 0.0671812981225624 0.000619644288579025 0.001524,
  p 101: 0.0679661808880958 0 0.001524,
  p 102: 0.069549719175194 0.00361964428857903 0.001524,
  p 103: 0.0721 0.00685 0.001524,
  p 104: 0.0703346019407274 0.003 0.001524,
  p 105: 0.0721 0.00523617087507864 0.001524,
  p 106: 0.0582602454909834 -0.023119644288579 0.001524,
  p 107: 0.0590451282565169 -0.0225 0.001524,
  p 108: 0.0588918244383519 -0.00988035571142098 0.001524,
  p 109: 0.0596767072038853 -0.0105 0.001524,
  p 110: 0.0677339297015098 -0.035119644288579 0.001524,
  p 111: 0.0685188124670432 -0.0345 0.001524,
  p 112: 0.0683655086488782 0.00211964428857903 0.001524,
  p 113: 0.0691503914144116 0.0015 0.001524,
  p 114: 0.0629970875962466 -0.029119644288579 0.001524,
  p 115: 0.06378197036178 -0.0285 0.001524,
  p 116: 0.063628666543615 -0.00388035571142098 0.001524,
  p 117: 0.0644135493091484 -0.0045 0.001524,
  p 118: 0.06 -0.021 0.001524,
  p 119: 0.084 -0.021 0.001524,
  p 120: 0.063 -0.024 0.001524,
  p 121: 0.087 -0.018 0.001524,
  p 122: 0.084 -0.012 0.001524,
  p 123: 0.084 -0.015 0.001524,
  p 124: 0.087 -0.015 0.001524,
  p 125: 0.06 -0.018 0.001524,
  p 126: 0.06 -0.015 0.001524,
  p 127: 0.06 -0.012 0.001524,
  p 128: 0.063 -0.009 0.001524,
  p 129: 0.063 -0.012 0.001524,
  p 130: 0.069 -0.033 0.001524,
  p 131: 0.063 -0.021 0.001524,
  p 132: 0.063 -0.018 0.001524,
  p 133: 0.063 -0.015 0.001524,
  p 134: 0.069 -0.03 0.001524,
  p 135: 0.066 -0.027 0.001524,
  p 136: 0.069 -0.027 0.001524,
  p 137: 0.066 -0.024 0.001524,
  p 138: 0.069 -0.024 0.001524,
  p 139: 0.066 -0.021 0.001524,
  p 140: 0.069 -0.021 0.001524,
  p 141: 0.066 -0.018 0.001524,
  p 142: 0.069 -0.018 0.001524,
  p 143: 0.066 -0.015 0.001524,
  p 144: 0.069 -0.015 0.001524,
  p 145: 0.066 -0.012 0.001524,
  p 146: 0.069 -0.012 0.001524,
  p 147: 0.066 -0.009 0.001524,
  p 148: 0.069 -0.009 0.001524,
  p 149: 0.066 -0.006 0.001524,
  p 150: 0.069 -0.006 0.001524,
  p 151: 0.069 -0.003 0.001524,
  p 152: 0.072 -0.036 0.001524,
  p 153: 0.072 -0.033 0.001524,
  p 154: 0.075 -0.033 0.001524,
  p 155: 0.072 0.003 0.001524,
  p 156: 0.072 0 0.001524,
  p 157: 0.072 -0.03 0.001524,
  p 158: 0.075 -0.03 0.001524,
  p 159: 0.072 -0.027 0.001524,
  p 160: 0.075 -0.027 0.001524,
  p 161: 0.072 -0.024 0.001524,
  p 162: 0.075 -0.024 0.001524,
  p 163: 0.072 -0.021 0.001524,
  p 164: 0.075 -0.021 0.001524,
  p 165: 0.072 -0.018 0.001524,
  p 166: 0.075 -0.018 0.001524,
  p 167: 0.072 -0.015 0.001524,
  p 168: 0.075 -0.015 0.001524,
  p 169: 0.072 -0.012 0.001524,
  p 170: 0.075 -0.012 0.001524,
  p 171: 0.072 -0.009 0.001524,
  p 172: 0.075 -0.009 0.001524,
  p 173: 0.072 -0.006 0.001524,
  p 174: 0.075 -0.006 0.001524,
  p 175: 0.072 -0.003 0.001524,
  p 176: 0.075 -0.003 0.001524,
  p 177: 0.075 0 0.001524,
  p 178: 0.078 -0.03 0.001524,
  p 179: 0.078 -0.027 0.001524,
  p 180: 0.078 -0.024 0.001524,
  p 181: 0.081 -0.024 0.001524,
  p 182: 0.078 -0.021 0.001524,
  p 183: 0.081 -0.021 0.001524,
  p 184: 0.078 -0.018 0.001524,
  p 185: 0.081 -0.018 0.001524,
  p 186: 0.078 -0.015 0.001524,
  p 187: 0.081 -0.015 0.001524,
  p 188: 0.078 -0.012 0.001524,
  p 189: 0.081 -0.012 0.001524,
  p 190: 0.078 -0.009 0.001524,
  p 191: 0.081 -0.009 0.001524,
  p 192: 0.078 -0.006 0.001524,
  p 193: 0.084 -0.018 0.001524;
EdefIA 415: 
  s 1: 1 2,
  s 2: 1 3,
  s 3: 3 2,
  s 4: 4 5,
  s 5: 5 6,
  s 6: 7 6,
  s 7: 4 7,
  s 8: 8 9,
  s 9: 9 10,
  s 10: 11 10,
  s 11: 8 11,
  s 12: 12 13,
  s 13: 14 12,
  s 14: 14 15,
  s 15: 15 13,
  s 16: 16 1,
  s 17: 5 1,
  s 18: 4 16,
  s 19: 17 18,
  s 20: 17 19,
  s 21: 19 20,
  s 22: 18 20,
  s 23: 21 8,
  s 24: 22 21,
  s 25: 22 9,
  s 26: 23 24,
  s 27: 24 25,
  s 28: 26 25,
  s 29: 23 26,
  s 30: 27 28,
  s 31: 29 28,
  s 32: 30 29,
  s 33: 30 27,
  s 34: 31 32,
  s 35: 32 33,
  s 36: 34 33,
  s 37: 31 34,
  s 38: 35 36,
  s 39: 37 36,
  s 40: 38 37,
  s 41: 38 35,
  s 42: 39 40,
  s 43: 40 41,
  s 44: 42 41,
  s 45: 39 42,
  s 46: 43 44,
  s 47: 45 44,
  s 48: 46 45,
  s 49: 46 43,
  s 50: 47 48,
  s 51: 48 49,
  s 52: 50 49,
  s 53: 47 50,
  s 54: 51 52,
  s 55: 53 52,
  s 56: 54 53,
  s 57: 54 51,
  s 58: 55 56,
  s 59: 56 57,
  s 60: 58 57,
  s 61: 55 58,
  s 62: 59 60,
  s 63: 61 60,
  s 64: 62 61,
  s 65: 62 59,
  s 66: 63 64,
  s 67: 64 65,
  s 68: 66 65,
  s 69: 63 66,
  s 70: 67 68,
  s 71: 69 68,
  s 72: 70 69,
  s 73: 70 67,
  s 74: 71 3,
  s 75: 71 72,
  s 76: 72 73,
  s 77: 3 73,
  s 78: 16 71,
  s 79: 74 75,
  s 80: 7 74,
  s 81: 6 75,
  s 82: 74 76,
  s 83: 75 77,
  s 84: 76 77,
  s 85: 78 79,
  s 86: 78 80,
  s 87: 80 81,
  s 88: 79 81,
  s 89: 82 83,
  s 90: 82 78,
  s 91: 83 79,
  s 92: 84 85,
  s 93: 86 84,
  s 94: 86 87,
  s 95: 87 85,
  s 96: 84 88,
  s 97: 85 89,
  s 98: 88 89,
  s 99: 90 91,
  s 100: 90 92,
  s 101: 92 93,
  s 102: 91 93,
  s 103: 94 95,
  s 104: 94 90,
  s 105: 95 91,
  s 106: 96 97,
  s 107: 98 96,
  s 108: 98 99,
  s 109: 99 97,
  s 110: 96 100,
  s 111: 97 101,
  s 112: 100 101,
  s 113: 19 22,
  s 114: 20 21,
  s 115: 102 103,
  s 116: 102 104,
  s 117: 104 105,
  s 118: 103 105,
  s 119: 25 32,
  s 120: 26 31,
  s 121: 28 37,
  s 122: 27 38,
  s 123: 41 48,
  s 124: 42 47,
  s 125: 44 53,
  s 126: 43 54,
  s 127: 57 64,
  s 128: 58 63,
  s 129: 60 69,
  s 130: 59 70,
  s 131: 106 107,
  s 132: 106 82,
  s 133: 107 83,
  s 134: 72 106,
  s 135: 73 107,
  s 136: 108 109,
  s 137: 76 108,
  s 138: 77 109,
  s 139: 108 86,
  s 140: 109 87,
  s 141: 110 111,
  s 142: 110 17,
  s 143: 111 18,
  s 144: 92 110,
  s 145: 93 111,
  s 146: 112 113,
  s 147: 100 112,
  s 148: 101 113,
  s 149: 112 102,
  s 150: 113 104,
  s 151: 33 40,
  s 152: 34 39,
  s 153: 36 45,
  s 154: 35 46,
  s 155: 65 13,
  s 156: 66 15,
  s 157: 68 12,
  s 158: 67 14,
  s 159: 114 115,
  s 160: 114 94,
  s 161: 115 95,
  s 162: 80 114,
  s 163: 81 115,
  s 164: 116 117,
  s 165: 88 116,
  s 166: 89 117,
  s 167: 116 98,
  s 168: 117 99,
  s 169: 49 56,
  s 170: 50 55,
  s 171: 52 61,
  s 172: 51 62,
  s 173: 10 24,
  s 174: 11 23,
  s 175: 105 30,
  s 176: 103 29,
  s 177: 6 2,
  s 178: 14 66,
  s 179: 73 118,
  s 180: 107 118,
  s 181: 119 58,
  s 182: 119 55,
  s 183: 79 120,
  s 184: 81 120,
  s 185: 58 121,
  s 186: 121 63,
  s 187: 122 70,
  s 188: 123 122,
  s 189: 123 67,
  s 190: 122 59,
  s 191: 121 66,
  s 192: 124 14,
  s 193: 121 124,
  s 194: 67 124,
  s 195: 3 125,
  s 196: 118 125,
  s 197: 2 125,
  s 198: 6 126,
  s 199: 125 126,
  s 200: 75 126,
  s 201: 77 127,
  s 202: 126 127,
  s 203: 109 127,
  s 204: 50 119,
  s 205: 83 120,
  s 206: 118 83,
  s 207: 87 128,
  s 208: 109 129,
  s 209: 129 128,
  s 210: 85 128,
  s 211: 128 89,
  s 212: 111 130,
  s 213: 130 18,
  s 214: 62 122,
  s 215: 118 131,
  s 216: 120 131,
  s 217: 125 132,
  s 218: 131 132,
  s 219: 126 133,
  s 220: 132 133,
  s 221: 127 129,
  s 222: 133 129,
  s 223: 93 130,
  s 224: 91 134,
  s 225: 130 134,
  s 226: 135 136,
  s 227: 95 135,
  s 228: 95 134,
  s 229: 134 136,
  s 230: 137 138,
  s 231: 135 137,
  s 232: 136 138,
  s 233: 139 140,
  s 234: 137 139,
  s 235: 138 140,
  s 236: 141 142,
  s 237: 139 141,
  s 238: 140 142,
  s 239: 143 144,
  s 240: 141 143,
  s 241: 142 144,
  s 242: 145 146,
  s 243: 143 145,
  s 244: 144 146,
  s 245: 147 148,
  s 246: 145 147,
  s 247: 146 148,
  s 248: 149 150,
  s 249: 147 149,
  s 250: 148 150,
  s 251: 101 151,
  s 252: 97 151,
  s 253: 152 11,
  s 254: 152 8,
  s 255: 153 154,
  s 256: 152 153,
  s 257: 11 154,
  s 258: 155 30,
  s 259: 156 155,
  s 260: 156 27,
  s 261: 155 105,
  s 262: 157 158,
  s 263: 153 157,
  s 264: 154 158,
  s 265: 159 160,
  s 266: 157 159,
  s 267: 158 160,
  s 268: 161 162,
  s 269: 159 161,
  s 270: 160 162,
  s 271: 163 164,
  s 272: 161 163,
  s 273: 162 164,
  s 274: 165 166,
  s 275: 163 165,
  s 276: 164 166,
  s 277: 167 168,
  s 278: 165 167,
  s 279: 166 168,
  s 280: 169 170,
  s 281: 167 169,
  s 282: 168 170,
  s 283: 171 172,
  s 284: 169 171,
  s 285: 170 172,
  s 286: 173 174,
  s 287: 171 173,
  s 288: 172 174,
  s 289: 175 176,
  s 290: 173 175,
  s 291: 174 176,
  s 292: 156 177,
  s 293: 175 156,
  s 294: 176 177,
  s 295: 178 34,
  s 296: 178 31,
  s 297: 179 39,
  s 298: 178 179,
  s 299: 179 42,
  s 300: 180 181,
  s 301: 179 180,
  s 302: 181 42,
  s 303: 182 183,
  s 304: 180 182,
  s 305: 181 183,
  s 306: 184 185,
  s 307: 182 184,
  s 308: 183 185,
  s 309: 186 187,
  s 310: 184 186,
  s 311: 185 187,
  s 312: 188 189,
  s 313: 186 188,
  s 314: 187 189,
  s 315: 190 191,
  s 316: 188 190,
  s 317: 189 191,
  s 318: 192 54,
  s 319: 190 192,
  s 320: 54 191,
  s 321: 192 43,
  s 322: 192 46,
  s 323: 154 23,
  s 324: 193 121,
  s 325: 119 193,
  s 326: 123 124,
  s 327: 193 123,
  s 328: 115 135,
  s 329: 81 135,
  s 330: 120 137,
  s 331: 131 139,
  s 332: 132 141,
  s 333: 133 143,
  s 334: 129 145,
  s 335: 128 147,
  s 336: 89 149,
  s 337: 117 149,
  s 338: 99 149,
  s 339: 99 151,
  s 340: 150 151,
  s 341: 154 26,
  s 342: 158 31,
  s 343: 158 178,
  s 344: 160 179,
  s 345: 162 180,
  s 346: 164 182,
  s 347: 166 184,
  s 348: 168 186,
  s 349: 170 188,
  s 350: 172 190,
  s 351: 174 192,
  s 352: 176 46,
  s 353: 176 35,
  s 354: 177 38,
  s 355: 177 27,
  s 356: 20 152,
  s 357: 18 152,
  s 358: 130 153,
  s 359: 134 157,
  s 360: 136 159,
  s 361: 138 161,
  s 362: 140 163,
  s 363: 142 165,
  s 364: 144 167,
  s 365: 146 169,
  s 366: 148 171,
  s 367: 150 173,
  s 368: 151 175,
  s 369: 101 156,
  s 370: 113 156,
  s 371: 104 155,
  s 372: 181 47,
  s 373: 181 50,
  s 374: 183 119,
  s 375: 185 193,
  s 376: 187 123,
  s 377: 189 122,
  s 378: 191 62,
  s 379: 191 51,
  s 380: 4 6,
  s 381: 13 14,
  s 382: 16 5,
  s 383: 8 22,
  s 384: 20 22,
  s 385: 103 104,
  s 386: 66 13,
  s 387: 103 30,
  s 388: 5 2,
  s 389: 70 123,
  s 390: 14 121,
  s 391: 125 73,
  s 392: 126 2,
  s 393: 127 75,
  s 394: 128 109,
  s 395: 131 83,
  s 396: 134 93,
  s 397: 136 95,
  s 398: 154 152,
  s 399: 30 156,
  s 400: 39 178,
  s 401: 181 179,
  s 402: 54 190,
  s 403: 121 119,
  s 404: 137 81,
  s 405: 149 128,
  s 406: 151 149,
  s 407: 31 154,
  s 408: 46 174,
  s 409: 38 176,
  s 410: 152 21,
  s 411: 153 18,
  s 412: 156 151,
  s 413: 155 113,
  s 414: 119 181,
  s 415: 62 189;
CdefIA 223: 
  c 1: -1 2 3,
  c 2: 4 5 -380,
  c 3: -11 8 9 -10,
  c 4: -12 -13 -381,
  c 5: 16 -17 -382,
  c 6: 20 21 -22 -19,
  c 7: -23 -24 -383,
  c 8: 26 27 -28 -29,
  c 9: -32 33 30 -31,
  c 10: 34 35 -36 -37,
  c 11: -40 41 38 -39,
  c 12: 42 43 -44 -45,
  c 13: -48 49 46 -47,
  c 14: 50 51 -52 -53,
  c 15: -56 57 54 -55,
  c 16: 58 59 -60 -61,
  c 17: -64 65 62 -63,
  c 18: 66 67 -68 -69,
  c 19: -72 73 70 -71,
  c 20: -74 75 76 -77,
  c 21: -16 78 74 -2,
  c 22: 6 81 -79 -80,
  c 23: 79 83 -84 -82,
  c 24: -85 86 87 -88,
  c 25: -89 90 85 -91,
  c 26: 94 95 -92 -93,
  c 27: 92 97 -98 -96,
  c 28: -99 100 101 -102,
  c 29: -103 104 99 -105,
  c 30: 108 109 -106 -107,
  c 31: 106 111 -112 -110,
  c 32: -21 113 -384,
  c 33: -115 116 -385,
  c 34: 28 119 -34 -120,
  c 35: -30 122 40 -121,
  c 36: 44 123 -50 -124,
  c 37: -46 126 56 -125,
  c 38: 60 127 -66 -128,
  c 39: -62 130 72 -129,
  c 40: -131 132 89 -133,
  c 41: -76 134 131 -135,
  c 42: 84 138 -136 -137,
  c 43: 136 140 -94 -139,
  c 44: -141 142 19 -143,
  c 45: -101 144 141 -145,
  c 46: 112 148 -146 -147,
  c 47: 146 150 -116 -149,
  c 48: 36 151 -42 -152,
  c 49: -38 154 48 -153,
  c 50: 68 155 -386,
  c 51: -70 158 13 -157,
  c 52: -159 160 103 -161,
  c 53: -87 162 159 -163,
  c 54: 98 166 -164 -165,
  c 55: 164 168 -108 -167,
  c 56: 52 169 -58 -170,
  c 57: -54 172 64 -171,
  c 58: 10 173 -26 -174,
  c 59: 118 175 -387,
  c 60: 17 1 -388,
  c 61: 178 156 -14,
  c 62: -179 135 180,
  c 63: -181 182 61,
  c 64: -183 88 184,
  c 65: -185 128 -186,
  c 66: -187 -188 -389,
  c 67: 187 -130 -190,
  c 68: -191 186 69,
  c 69: -192 -193 -390,
  c 70: 192 -158 194,
  c 71: -195 77 -391,
  c 72: -197 -3 195,
  c 73: -198 177 -392,
  c 74: -200 -81 198,
  c 75: -201 -83 -393,
  c 76: 201 -203 -138,
  c 77: -204 170 -182,
  c 78: -205 91 183,
  c 79: -206 -180 133,
  c 80: -207 -140 -394,
  c 81: 207 -210 -95,
  c 82: 211 -97 210,
  c 83: -212 143 -213,
  c 84: 214 190 -65,
  c 85: -215 206 -395,
  c 86: -217 -196 215 218,
  c 87: -219 -199 217 220,
  c 88: -221 -202 219 222,
  c 89: -208 203 221,
  c 90: -223 145 212,
  c 91: -224 102 -396,
  c 92: -226 -227 -397,
  c 93: -230 -231 226 232,
  c 94: -233 -234 230 235,
  c 95: -236 -237 233 238,
  c 96: -239 -240 236 241,
  c 97: -242 -243 239 244,
  c 98: -245 -246 242 247,
  c 99: -248 -249 245 250,
  c 100: -228 105 224,
  c 101: -251 -111 252,
  c 102: -253 254 11,
  c 103: -255 -256 -398,
  c 104: -258 -259 -399,
  c 105: 258 -175 -261,
  c 106: -262 -263 255 264,
  c 107: -265 -266 262 267,
  c 108: -268 -269 265 270,
  c 109: -271 -272 268 273,
  c 110: -274 -275 271 276,
  c 111: -277 -278 274 279,
  c 112: -280 -281 277 282,
  c 113: -283 -284 280 285,
  c 114: -286 -287 283 288,
  c 115: -289 -290 286 291,
  c 116: -292 -293 289 294,
  c 117: -295 296 37,
  c 118: -297 -298 -400,
  c 119: -299 297 45,
  c 120: -300 -301 -401,
  c 121: -303 -304 300 305,
  c 122: -306 -307 303 308,
  c 123: -309 -310 306 311,
  c 124: -312 -313 309 314,
  c 125: -315 -316 312 317,
  c 126: -318 -319 -402,
  c 127: -321 318 -126,
  c 128: -322 321 -49,
  c 129: -323 -257 174,
  c 130: -324 -325 -403,
  c 131: -326 -327 324 193,
  c 132: -189 326 -194,
  c 133: -328 161 227,
  c 134: -329 163 328,
  c 135: -330 -184 -404,
  c 136: -331 -216 330 234,
  c 137: -332 -218 331 237,
  c 138: -333 -220 332 240,
  c 139: -334 -222 333 243,
  c 140: -335 -209 334 246,
  c 141: -336 -211 -405,
  c 142: -337 -166 336,
  c 143: -338 -168 337,
  c 144: -339 338 -406,
  c 145: 339 -252 -109,
  c 146: -341 323 29,
  c 147: -342 -264 -407,
  c 148: -343 342 -296,
  c 149: -344 -267 343 298,
  c 150: -345 -270 344 301,
  c 151: -346 -273 345 304,
  c 152: -347 -276 346 307,
  c 153: -348 -279 347 310,
  c 154: -349 -282 348 313,
  c 155: -350 -285 349 316,
  c 156: -351 -288 350 319,
  c 157: -352 -291 -408,
  c 158: -353 352 -154,
  c 159: -354 -294 -409,
  c 160: -355 354 -122,
  c 161: -260 292 355,
  c 162: -356 114 -410,
  c 163: -357 22 356,
  c 164: -358 213 -411,
  c 165: -359 -225 358 263,
  c 166: -360 -229 359 266,
  c 167: -361 -232 360 269,
  c 168: -362 -235 361 272,
  c 169: -363 -238 362 275,
  c 170: -364 -241 363 278,
  c 171: -365 -244 364 281,
  c 172: -366 -247 365 284,
  c 173: -367 -250 366 287,
  c 174: -368 -340 367 290,
  c 175: -369 251 -412,
  c 176: -370 -148 369,
  c 177: -371 -150 -413,
  c 178: 371 261 -117,
  c 179: -372 302 124,
  c 180: -373 372 53,
  c 181: -374 -305 -414,
  c 182: -375 -308 374 325,
  c 183: -376 -311 375 327,
  c 184: -377 -314 376 188,
  c 185: -378 -317 -415,
  c 186: -379 378 -172,
  c 187: 379 -57 320,
  c 188: -6 -7 380,
  c 189: 14 15 381,
  c 190: -4 18 382,
  c 191: 25 -8 383,
  c 192: 24 -114 384,
  c 193: 117 -118 385,
  c 194: -15 -156 386,
  c 195: 32 -176 387,
  c 196: -177 -5 388,
  c 197: 189 -73 389,
  c 198: 191 -178 390,
  c 199: 179 196 391,
  c 200: 197 199 392,
  c 201: 200 202 393,
  c 202: 208 209 394,
  c 203: 205 216 395,
  c 204: 223 225 396,
  c 205: 228 229 397,
  c 206: 253 257 398,
  c 207: 260 -33 399,
  c 208: 295 152 400,
  c 209: 299 -302 401,
  c 210: 315 -320 402,
  c 211: 181 185 403,
  c 212: 329 231 404,
  c 213: 335 249 405,
  c 214: 248 340 406,
  c 215: 341 120 407,
  c 216: 351 322 408,
  c 217: 353 -41 409,
  c 218: 23 -254 410,
  c 219: 357 256 411,
  c 220: 368 293 412,
  c 221: 370 259 413,
  c 222: 373 204 414,
  c 223: 377 -214 415;
beg_Xinfo :
beg_layer /1:
  Mask: 1;
  Type: metal;
  Level: 0;
  Plane: z = 0.001524;
  Fill: condthickness 58000000 3.5e-005 M precedence 0;
  CrefRA 223 { 
  1 60 196 5 190 21 20 41 40 25 24 53
  52 29 28 45 44 6 32 192 7 191 162 218 163
  164 219 165 91 204 100 92 205 93 135 212 136 85 203 86
  71 199 72 73 200 74 75 201 76 89 80 202 81 82
  141 213 142 143 144 214 145 101 175 220 176 177 221 178
  105 104 207 161 116 115 174 173 99 98 140
  139 88 87 138 137 95 94 168 167 166
  107 106 103 206 102 3 58 129 146 147 215 148
  149 118 208 119 120 209 121 151 109 108 150 110
  169 170 96 97 171 112 111 153 152 122
  182 181 222 180 179 36 12 48 10 117 34
  8 14 56 77 63 130 211 131 183 123 124
  154 155 113 172 114 156 126 210 127 128 157 216
  158 159 217 160 35 11 49 13 37 15 187
  186 185 223 125 184 66 197 67 39 19 51 70
  69 198 68 65 38 16 18 50 194 4 189 61 132
  17 84 57 9 59 195 33 193 47 46 31 30
  55 54 27 26 43 42 23 22 2 188 62
  79 78 64 134 133 90 83 }
  RGrid 0.003,0.003 -1.5707963267949 1: 
  0.06,0 11,9 53:
    6,7 c 182, 5,7 c 183, 5,8 c 131, 4,7 c 184, 4,6 c 124, 
    3,6 c 125, 3,5 c 155, 2,5 c 156, 3,4 c 113, 2,4 c 114, 
    2,3 c 173, 1,3 c 174, 2,2 c 99, 3,2 c 98, 4,2 c 97, 
    3,1 c 140, 4,1 c 139, 5,1 c 138, 6,1 c 137, 6,2 c 95, 
    6,3 c 169, 7,2 c 94, 5,0 c 87, 7,1 c 136, 7,3 c 168, 
    7,4 c 109, 8,4 c 108, 8,5 c 150, 4,0 c 88, 9,5 c 149, 
    8,2 c 93, 7,5 c 151, 7,6 c 121, 6,0 c 86, 5,2 c 96, 
    4,3 c 171, 8,3 c 167, 9,3 c 166, 10,3 c 165, 10,4 c 106, 
    5,3 c 170, 5,4 c 111, 5,5 c 153, 4,4 c 112, 5,6 c 123, 
    6,6 c 122, 9,4 c 107, 4,5 c 154, 6,5 c 152, 6,4 c 110, 
    1,4 c 115, 0,4 c 116, 3,3 c 172;
  RGrid 0.00191111343740687,0.00100000000000001 0.902506907964312 1: 
  0.0561240756249379,-0.015 12,1 12:
    10,0 c 46, 11,0 c 47, 9,0 c 31, 8,0 c 30, 7,0 c 55, 
    6,0 c 54, 5,0 c 27, 4,0 c 26, 3,0 c 43, 2,0 c 42, 
    1,0 c 23, 0,0 c 22;
  RGrid 0.00191111343740687,0.000999999999999991 -0.902506907964313 1: 
  0.0738653980592727,0.00299999999999996 12,1 12:
    0,0 c 9, 1,0 c 35, 2,0 c 11, 3,0 c 49, 4,0 c 13, 
    5,0 c 37, 6,0 c 15, 7,0 c 57, 8,0 c 17, 9,0 c 39, 
    10,0 c 19, 11,0 c 51;
  RGrid 0.00191111343740687,0.00100000000000001 -0.902506907964313 1: 
  0.0547076139120361,-0.018619644288579 12,1 12:
    6,0 c 53, 7,0 c 52, 8,0 c 29, 9,0 c 28, 10,0 c 45, 
    11,0 c 44, 5,0 c 24, 4,0 c 25, 3,0 c 40, 2,0 c 41, 
    1,0 c 20, 0,0 c 21;
  RGrid 0.00191111343740687,0.000999999999999993 0.902506907964312 1: 
  0.0752818597721744,-0.036619644288579 12,1 12:
    8,0 c 56, 9,0 c 16, 10,0 c 38, 7,0 c 14, 6,0 c 36, 
    11,0 c 18, 5,0 c 12, 4,0 c 48, 3,0 c 10, 2,0 c 34, 
    1,0 c 8, 0,0 c 58;
end_layer /1;
end_Xinfo;
Overlap: 
  ErefRA 124 { 
  2 5 7 9 11 12 14 17 18 20
  22 23 25 27 29 31 33 35 37 39
  41 43 45 47 49 51 53 55 57 59
  61 63 65 67 69 71 73 75 77 78
  80 81 82 83 86 88 90 91 93 95
  96 97 100 102 104 105 107 109 110 111
  113 114 115 117 119 120 121 122 123 124
  125 126 127 128 129 130 132 133 134 135
  137 138 139 140 142 143 144 145 147 148
  149 150 151 152 153 154 155 156 157 158
  160 161 162 163 165 166 167 168 169 170
  171 172 173 174 175 176 220 240 332 333
  222 217 236 243 };
BdefIA 358: 
  b 1: -1 e 1 c 60, e 0 c 1;
  b 2: -1 e 1 c 1, e 3 c 21;
  b 3: -1 e 2 c 1, e 1 c 72;
  b 4: -1 e 0 c 2, e 0 c 190;
  b 5: -1 e 1 c 2, e 1 c 196;
  b 6: -1 e 0 c 22, e 0 c 188;
  b 7: -1 e 1 c 3, e 1 c 191;
  b 8: -1 e 0 c 58, e 3 c 3;
  b 9: -1 e 2 c 102, e 0 c 3;
  b 10: -1 e 2 c 51, e 1 c 4;
  b 11: -1 e 0 c 189, e 2 c 61;
  b 12: -1 e 1 c 189, e 0 c 194;
  b 13: -1 e 0 c 5, e 0 c 21;
  b 14: -1 e 0 c 60, e 1 c 5;
  b 15: -1 e 2 c 44, e 3 c 6;
  b 16: -1 e 1 c 6, e 0 c 32;
  b 17: -1 e 1 c 163, e 2 c 6;
  b 18: -1 e 0 c 218, e 0 c 7;
  b 19: -1 e 0 c 192, e 1 c 7;
  b 20: -1 e 0 c 8, e 2 c 58;
  b 21: -1 e 0 c 34, e 2 c 8;
  b 22: -1 e 2 c 146, e 3 c 8;
  b 23: -1 e 2 c 9, e 0 c 35;
  b 24: -1 e 0 c 195, e 0 c 9;
  b 25: -1 e 1 c 9, e 1 c 207;
  b 26: -1 e 0 c 10, e 2 c 34;
  b 27: -1 e 0 c 48, e 2 c 10;
  b 28: -1 e 2 c 117, e 3 c 10;
  b 29: -1 e 2 c 11, e 0 c 49;
  b 30: -1 e 2 c 35, e 0 c 11;
  b 31: -1 e 1 c 11, e 1 c 217;
  b 32: -1 e 0 c 12, e 2 c 48;
  b 33: -1 e 0 c 36, e 2 c 12;
  b 34: -1 e 2 c 119, e 3 c 12;
  b 35: -1 e 2 c 13, e 0 c 37;
  b 36: -1 e 2 c 49, e 0 c 13;
  b 37: -1 e 1 c 13, e 2 c 128;
  b 38: -1 e 0 c 14, e 2 c 36;
  b 39: -1 e 0 c 56, e 2 c 14;
  b 40: -1 e 2 c 180, e 3 c 14;
  b 41: -1 e 2 c 15, e 0 c 57;
  b 42: -1 e 2 c 37, e 0 c 15;
  b 43: -1 e 1 c 15, e 1 c 187;
  b 44: -1 e 0 c 16, e 2 c 56;
  b 45: -1 e 0 c 38, e 2 c 16;
  b 46: -1 e 2 c 63, e 3 c 16;
  b 47: -1 e 2 c 17, e 0 c 39;
  b 48: -1 e 2 c 57, e 0 c 17;
  b 49: -1 e 1 c 17, e 2 c 84;
  b 50: -1 e 0 c 18, e 2 c 38;
  b 51: -1 e 0 c 50, e 2 c 18;
  b 52: -1 e 2 c 68, e 3 c 18;
  b 53: -1 e 2 c 19, e 0 c 51;
  b 54: -1 e 2 c 39, e 0 c 19;
  b 55: -1 e 1 c 19, e 1 c 197;
  b 56: -1 e 2 c 21, e 0 c 20;
  b 57: -1 e 2 c 20, e 0 c 41;
  b 58: -1 e 1 c 71, e 3 c 20;
  b 59: -1 e 0 c 23, e 2 c 22;
  b 60: -1 e 1 c 22, e 1 c 74;
  b 61: -1 e 1 c 23, e 1 c 75;
  b 62: -1 e 0 c 42, e 2 c 23;
  b 63: -1 e 2 c 25, e 0 c 24;
  b 64: -1 e 2 c 24, e 0 c 53;
  b 65: -1 e 1 c 64, e 3 c 24;
  b 66: -1 e 2 c 40, e 0 c 25;
  b 67: -1 e 1 c 78, e 3 c 25;
  b 68: -1 e 0 c 27, e 2 c 26;
  b 69: -1 e 0 c 26, e 2 c 43;
  b 70: -1 e 1 c 26, e 2 c 81;
  b 71: -1 e 1 c 27, e 1 c 82;
  b 72: -1 e 0 c 54, e 2 c 27;
  b 73: -1 e 2 c 29, e 0 c 28;
  b 74: -1 e 2 c 28, e 0 c 45;
  b 75: -1 e 1 c 91, e 3 c 28;
  b 76: -1 e 2 c 52, e 0 c 29;
  b 77: -1 e 1 c 100, e 3 c 29;
  b 78: -1 e 0 c 31, e 2 c 30;
  b 79: -1 e 0 c 30, e 2 c 55;
  b 80: -1 e 1 c 30, e 2 c 145;
  b 81: -1 e 1 c 31, e 1 c 101;
  b 82: -1 e 0 c 46, e 2 c 31;
  b 83: -1 e 1 c 162, e 1 c 192;
  b 84: -1 e 1 c 33, e 2 c 47;
  b 85: -1 e 0 c 193, e 2 c 178;
  b 86: -1 e 0 c 59, e 1 c 193;
  b 87: -1 e 1 c 215, e 3 c 34;
  b 88: -1 e 1 c 35, e 2 c 160;
  b 89: -1 e 2 c 179, e 3 c 36;
  b 90: -1 e 1 c 37, e 2 c 127;
  b 91: -1 e 1 c 65, e 3 c 38;
  b 92: -1 e 1 c 39, e 1 c 67;
  b 93: -1 e 2 c 41, e 0 c 40;
  b 94: -1 e 2 c 79, e 3 c 40;
  b 95: -1 e 1 c 62, e 3 c 41;
  b 96: -1 e 0 c 43, e 2 c 42;
  b 97: -1 e 1 c 42, e 2 c 76;
  b 98: -1 e 1 c 43, e 1 c 80;
  b 99: -1 e 2 c 45, e 0 c 44;
  b 100: -1 e 1 c 83, e 3 c 44;
  b 101: -1 e 1 c 90, e 3 c 45;
  b 102: -1 e 0 c 47, e 2 c 46;
  b 103: -1 e 1 c 46, e 1 c 176;
  b 104: -1 e 1 c 47, e 1 c 177;
  b 105: -1 e 1 c 208, e 3 c 48;
  b 106: -1 e 1 c 49, e 2 c 158;
  b 107: -1 e 1 c 61, e 1 c 194;
  b 108: -1 e 1 c 51, e 1 c 70;
  b 109: -1 e 2 c 53, e 0 c 52;
  b 110: -1 e 1 c 133, e 3 c 52;
  b 111: -1 e 1 c 134, e 3 c 53;
  b 112: -1 e 0 c 55, e 2 c 54;
  b 113: -1 e 1 c 54, e 1 c 142;
  b 114: -1 e 1 c 55, e 1 c 143;
  b 115: -1 e 1 c 77, e 3 c 56;
  b 116: -1 e 1 c 57, e 2 c 186;
  b 117: -1 e 2 c 129, e 3 c 58;
  b 118: -1 e 1 c 59, e 1 c 105;
  b 119: -1 e 1 c 73, e 0 c 196;
  b 120: -1 e 0 c 61, e 1 c 198;
  b 121: -1 e 0 c 199, e 0 c 62;
  b 122: -1 e 2 c 62, e 1 c 79;
  b 123: -1 e 0 c 211, e 0 c 63;
  b 124: -1 e 1 c 63, e 2 c 77;
  b 125: -1 e 2 c 78, e 0 c 64;
  b 126: -1 e 2 c 64, e 1 c 135;
  b 127: -1 e 1 c 211, e 0 c 65;
  b 128: -1 e 1 c 68, e 2 c 65;
  b 129: -1 e 0 c 67, e 0 c 66;
  b 130: -1 e 3 c 184, e 1 c 66;
  b 131: -1 e 0 c 197, e 0 c 132;
  b 132: -1 e 1 c 84, e 2 c 67;
  b 133: -1 e 0 c 198, e 0 c 68;
  b 134: -1 e 0 c 70, e 0 c 69;
  b 135: -1 e 3 c 131, e 1 c 69;
  b 136: -1 e 2 c 70, e 2 c 132;
  b 137: -1 e 2 c 72, e 0 c 71;
  b 138: -1 e 1 c 199, e 1 c 86;
  b 139: -1 e 0 c 200, e 0 c 72;
  b 140: -1 e 2 c 74, e 0 c 73;
  b 141: -1 e 1 c 200, e 1 c 87;
  b 142: -1 e 0 c 201, e 0 c 74;
  b 143: -1 e 0 c 76, e 0 c 75;
  b 144: -1 e 1 c 201, e 1 c 88;
  b 145: -1 e 1 c 89, e 1 c 76;
  b 146: -1 e 1 c 222, e 0 c 77;
  b 147: -1 e 0 c 203, e 0 c 78;
  b 148: -1 e 1 c 85, e 0 c 79;
  b 149: -1 e 0 c 81, e 0 c 80;
  b 150: -1 e 0 c 202, e 0 c 89;
  b 151: -1 e 1 c 202, e 1 c 140;
  b 152: -1 e 2 c 82, e 1 c 81;
  b 153: -1 e 0 c 82, e 1 c 141;
  b 154: -1 e 2 c 90, e 0 c 83;
  b 155: -1 e 1 c 164, e 2 c 83;
  b 156: -1 e 0 c 84, e 1 c 223;
  b 157: -1 e 2 c 86, e 0 c 85;
  b 158: -1 e 1 c 203, e 1 c 136;
  b 159: -1 e 2 c 87, e 0 c 86;
  b 160: -1 e 3 c 86, e 1 c 137;
  b 161: -1 e 2 c 88, e 0 c 87;
  b 162: -1 e 3 c 87, e 1 c 138;
  b 163: -1 e 2 c 89, e 0 c 88;
  b 164: -1 e 3 c 88, e 1 c 139;
  b 165: -1 e 0 c 204, e 0 c 90;
  b 166: -1 e 2 c 100, e 0 c 91;
  b 167: -1 e 1 c 204, e 1 c 165;
  b 168: -1 e 2 c 93, e 0 c 92;
  b 169: -1 e 2 c 133, e 1 c 92;
  b 170: -1 e 0 c 205, e 0 c 100;
  b 171: -1 e 1 c 205, e 1 c 166;
  b 172: -1 e 2 c 94, e 0 c 93;
  b 173: -1 e 1 c 212, e 1 c 93;
  b 174: -1 e 3 c 93, e 1 c 167;
  b 175: -1 e 2 c 95, e 0 c 94;
  b 176: -1 e 3 c 136, e 1 c 94;
  b 177: -1 e 3 c 94, e 1 c 168;
  b 178: -1 e 2 c 96, e 0 c 95;
  b 179: -1 e 3 c 137, e 1 c 95;
  b 180: -1 e 3 c 95, e 1 c 169;
  b 181: -1 e 2 c 97, e 0 c 96;
  b 182: -1 e 3 c 138, e 1 c 96;
  b 183: -1 e 3 c 96, e 1 c 170;
  b 184: -1 e 2 c 98, e 0 c 97;
  b 185: -1 e 3 c 139, e 1 c 97;
  b 186: -1 e 3 c 97, e 1 c 171;
  b 187: -1 e 2 c 99, e 0 c 98;
  b 188: -1 e 3 c 140, e 1 c 98;
  b 189: -1 e 3 c 98, e 1 c 172;
  b 190: -1 e 0 c 214, e 0 c 99;
  b 191: -1 e 1 c 213, e 1 c 99;
  b 192: -1 e 3 c 99, e 1 c 173;
  b 193: -1 e 1 c 175, e 0 c 101;
  b 194: -1 e 2 c 101, e 1 c 145;
  b 195: -1 e 0 c 206, e 0 c 102;
  b 196: -1 e 1 c 102, e 1 c 218;
  b 197: -1 e 2 c 106, e 0 c 103;
  b 198: -1 e 1 c 219, e 1 c 103;
  b 199: -1 e 1 c 206, e 1 c 129;
  b 200: -1 e 0 c 105, e 0 c 104;
  b 201: -1 e 1 c 221, e 1 c 104;
  b 202: -1 e 0 c 207, e 0 c 161;
  b 203: -1 e 1 c 178, e 2 c 105;
  b 204: -1 e 2 c 107, e 0 c 106;
  b 205: -1 e 3 c 165, e 1 c 106;
  b 206: -1 e 3 c 106, e 1 c 147;
  b 207: -1 e 2 c 108, e 0 c 107;
  b 208: -1 e 3 c 166, e 1 c 107;
  b 209: -1 e 3 c 107, e 1 c 149;
  b 210: -1 e 2 c 109, e 0 c 108;
  b 211: -1 e 3 c 167, e 1 c 108;
  b 212: -1 e 3 c 108, e 1 c 150;
  b 213: -1 e 2 c 110, e 0 c 109;
  b 214: -1 e 3 c 168, e 1 c 109;
  b 215: -1 e 3 c 109, e 1 c 151;
  b 216: -1 e 2 c 111, e 0 c 110;
  b 217: -1 e 3 c 169, e 1 c 110;
  b 218: -1 e 3 c 110, e 1 c 152;
  b 219: -1 e 2 c 112, e 0 c 111;
  b 220: -1 e 3 c 170, e 1 c 111;
  b 221: -1 e 3 c 111, e 1 c 153;
  b 222: -1 e 2 c 113, e 0 c 112;
  b 223: -1 e 3 c 171, e 1 c 112;
  b 224: -1 e 3 c 112, e 1 c 154;
  b 225: -1 e 2 c 114, e 0 c 113;
  b 226: -1 e 3 c 172, e 1 c 113;
  b 227: -1 e 3 c 113, e 1 c 155;
  b 228: -1 e 2 c 115, e 0 c 114;
  b 229: -1 e 3 c 173, e 1 c 114;
  b 230: -1 e 3 c 114, e 1 c 156;
  b 231: -1 e 2 c 116, e 0 c 115;
  b 232: -1 e 3 c 174, e 1 c 115;
  b 233: -1 e 3 c 115, e 1 c 157;
  b 234: -1 e 1 c 161, e 0 c 116;
  b 235: -1 e 1 c 220, e 1 c 116;
  b 236: -1 e 3 c 116, e 1 c 159;
  b 237: -1 e 0 c 208, e 0 c 117;
  b 238: -1 e 1 c 117, e 2 c 148;
  b 239: -1 e 1 c 119, e 0 c 118;
  b 240: -1 e 3 c 149, e 1 c 118;
  b 241: -1 e 0 c 209, e 0 c 119;
  b 242: -1 e 2 c 121, e 0 c 120;
  b 243: -1 e 3 c 150, e 1 c 120;
  b 244: -1 e 1 c 179, e 1 c 209;
  b 245: -1 e 2 c 122, e 0 c 121;
  b 246: -1 e 3 c 151, e 1 c 121;
  b 247: -1 e 3 c 121, e 1 c 181;
  b 248: -1 e 2 c 123, e 0 c 122;
  b 249: -1 e 3 c 152, e 1 c 122;
  b 250: -1 e 3 c 122, e 1 c 182;
  b 251: -1 e 2 c 124, e 0 c 123;
  b 252: -1 e 3 c 153, e 1 c 123;
  b 253: -1 e 3 c 123, e 1 c 183;
  b 254: -1 e 2 c 125, e 0 c 124;
  b 255: -1 e 3 c 154, e 1 c 124;
  b 256: -1 e 3 c 124, e 1 c 184;
  b 257: -1 e 0 c 210, e 0 c 125;
  b 258: -1 e 3 c 155, e 1 c 125;
  b 259: -1 e 3 c 125, e 1 c 185;
  b 260: -1 e 1 c 127, e 0 c 126;
  b 261: -1 e 3 c 156, e 1 c 126;
  b 262: -1 e 2 c 187, e 1 c 210;
  b 263: -1 e 1 c 128, e 0 c 127;
  b 264: -1 e 1 c 216, e 0 c 128;
  b 265: -1 e 1 c 146, e 0 c 129;
  b 266: -1 e 2 c 131, e 0 c 130;
  b 267: -1 e 3 c 182, e 1 c 130;
  b 268: -1 e 1 c 132, e 0 c 131;
  b 269: -1 e 3 c 183, e 1 c 131;
  b 270: -1 e 2 c 134, e 0 c 133;
  b 271: -1 e 0 c 212, e 0 c 134;
  b 272: -1 e 2 c 136, e 0 c 135;
  b 273: -1 e 2 c 137, e 0 c 136;
  b 274: -1 e 2 c 138, e 0 c 137;
  b 275: -1 e 2 c 139, e 0 c 138;
  b 276: -1 e 2 c 140, e 0 c 139;
  b 277: -1 e 0 c 213, e 0 c 140;
  b 278: -1 e 2 c 142, e 0 c 141;
  b 279: -1 e 2 c 143, e 0 c 142;
  b 280: -1 e 1 c 144, e 0 c 143;
  b 281: -1 e 0 c 145, e 0 c 144;
  b 282: -1 e 1 c 214, e 1 c 174;
  b 283: -1 e 0 c 215, e 0 c 146;
  b 284: -1 e 1 c 148, e 0 c 147;
  b 285: -1 e 2 c 149, e 0 c 148;
  b 286: -1 e 2 c 150, e 0 c 149;
  b 287: -1 e 2 c 151, e 0 c 150;
  b 288: -1 e 2 c 152, e 0 c 151;
  b 289: -1 e 2 c 153, e 0 c 152;
  b 290: -1 e 2 c 154, e 0 c 153;
  b 291: -1 e 2 c 155, e 0 c 154;
  b 292: -1 e 2 c 156, e 0 c 155;
  b 293: -1 e 0 c 216, e 0 c 156;
  b 294: -1 e 1 c 158, e 0 c 157;
  b 295: -1 e 0 c 217, e 0 c 158;
  b 296: -1 e 1 c 160, e 0 c 159;
  b 297: -1 e 2 c 161, e 0 c 160;
  b 298: -1 e 2 c 163, e 0 c 162;
  b 299: -1 e 0 c 219, e 0 c 163;
  b 300: -1 e 2 c 165, e 0 c 164;
  b 301: -1 e 2 c 166, e 0 c 165;
  b 302: -1 e 2 c 167, e 0 c 166;
  b 303: -1 e 2 c 168, e 0 c 167;
  b 304: -1 e 2 c 169, e 0 c 168;
  b 305: -1 e 2 c 170, e 0 c 169;
  b 306: -1 e 2 c 171, e 0 c 170;
  b 307: -1 e 2 c 172, e 0 c 171;
  b 308: -1 e 2 c 173, e 0 c 172;
  b 309: -1 e 2 c 174, e 0 c 173;
  b 310: -1 e 0 c 220, e 0 c 174;
  b 311: -1 e 2 c 176, e 0 c 175;
  b 312: -1 e 0 c 221, e 0 c 176;
  b 313: -1 e 0 c 178, e 0 c 177;
  b 314: -1 e 1 c 180, e 0 c 179;
  b 315: -1 e 0 c 222, e 0 c 180;
  b 316: -1 e 2 c 182, e 0 c 181;
  b 317: -1 e 2 c 183, e 0 c 182;
  b 318: -1 e 2 c 184, e 0 c 183;
  b 319: -1 e 0 c 223, e 0 c 184;
  b 320: -1 e 1 c 186, e 0 c 185;
  b 321: -1 e 0 c 187, e 0 c 186;
  b 322: e 0 c 138;
  b 323: -1 e 2 c 2, e 2 c 188;
  b 324: -1 e 2 c 4, e 2 c 189;
  b 325: -1 e 2 c 5, e 2 c 190;
  b 326: -1 e 2 c 7, e 2 c 191;
  b 327: -1 e 2 c 32, e 2 c 192;
  b 328: -1 e 2 c 33, e 2 c 193;
  b 329: -1 e 2 c 50, e 2 c 194;
  b 330: -1 e 2 c 59, e 2 c 195;
  b 331: -1 e 2 c 60, e 2 c 196;
  b 332: -1 e 2 c 66, e 2 c 197;
  b 333: -1 e 2 c 69, e 2 c 198;
  b 334: -1 e 2 c 71, e 2 c 199;
  b 335: -1 e 2 c 73, e 2 c 200;
  b 336: -1 e 2 c 75, e 2 c 201;
  b 337: -1 e 2 c 80, e 2 c 202;
  b 338: -1 e 2 c 85, e 2 c 203;
  b 339: -1 e 2 c 91, e 2 c 204;
  b 340: -1 e 2 c 92, e 2 c 205;
  b 341: -1 e 2 c 103, e 2 c 206;
  b 342: -1 e 2 c 104, e 2 c 207;
  b 343: -1 e 2 c 118, e 2 c 208;
  b 344: -1 e 2 c 120, e 2 c 209;
  b 345: -1 e 2 c 126, e 2 c 210;
  b 346: -1 e 2 c 130, e 2 c 211;
  b 347: -1 e 2 c 135, e 2 c 212;
  b 348: -1 e 2 c 141, e 2 c 213;
  b 349: -1 e 2 c 144, e 2 c 214;
  b 350: -1 e 2 c 147, e 2 c 215;
  b 351: -1 e 2 c 157, e 2 c 216;
  b 352: -1 e 2 c 159, e 2 c 217;
  b 353: -1 e 2 c 162, e 2 c 218;
  b 354: -1 e 2 c 164, e 2 c 219;
  b 355: -1 e 2 c 175, e 2 c 220;
  b 356: -1 e 2 c 177, e 2 c 221;
  b 357: -1 e 2 c 181, e 2 c 222;
  b 358: -1 e 2 c 185, e 2 c 223;
;
PdefRA 1 {
GdefRA 1 /Zd 1 {50 0} {
  Prt 1 : CrefRA 1 { 138 };
}
}
end_momMdl;
end_ckt proj;
